# 3ds Max Wavefront OBJ Exporter v0.97b - (c)2007 guruware
# File Created: 02.11.2015 13:15:52

mtllib Building17.mtl

#
# object Building3_2
#

v  -609.2351 10.0000 -329.1416
v  -609.2351 10.0000 -398.6856
v  -551.0194 10.0000 -398.6856
v  -551.0194 10.0000 -329.1416
v  -609.2351 103.4743 -329.1416
v  -551.0194 103.4743 -329.1416
v  -551.0194 103.4743 -398.6856
v  -609.2351 103.4743 -398.6856
# 8 vertices

vn 0.0000 -1.0000 -0.0000
vn 0.0000 1.0000 -0.0000
vn 0.0000 0.0000 1.0000
vn 1.0000 0.0000 -0.0000
vn 0.0000 0.0000 -1.0000
vn -1.0000 0.0000 -0.0000
# 6 vertex normals

vt 58.2157 0.0000 0.0000
vt 58.2157 112.6019 0.0000
vt 0.0000 112.6019 0.0000
vt 0.0000 0.0000 0.0000
vt 0.8447 -0.0000 0.0000
vt 1.0000 0.0000 0.0000
vt 1.0000 0.4061 0.0000
vt 0.8447 0.4061 0.0000
vt 1.0000 1.0000 0.0000
vt 0.0000 1.0000 0.0000
# 10 texture coords

g Building3_2
usemtl Building3
s 2
f 1/1/1 2/2/1 3/3/1 
f 3/3/1 4/4/1 1/1/1 
s 4
f 5/5/2 6/6/2 7/7/2 
f 7/7/2 8/8/2 5/5/2 
s 8
f 1/4/3 4/6/3 6/9/3 
f 6/9/3 5/10/3 1/4/3 
s 16
f 4/4/4 3/6/4 7/9/4 
f 7/9/4 6/10/4 4/4/4 
s 32
f 3/4/5 2/6/5 8/9/5 
f 8/9/5 7/10/5 3/4/5 
s 64
f 2/4/6 1/6/6 5/9/6 
f 5/9/6 8/10/6 2/4/6 
# 12 faces

