# 3ds Max Wavefront OBJ Exporter v0.97b - (c)2007 guruware
# File Created: 02.11.2015 13:18:23

mtllib Building35.mtl

#
# object Building6_4
#

v  56.6411 10.0000 742.7320
v  56.6411 10.0000 673.1880
v  114.8568 10.0000 673.1880
v  114.8568 10.0000 742.7320
v  56.6411 310.1056 742.7320
v  114.8568 310.1056 742.7320
v  114.8568 310.1056 673.1880
v  56.6411 310.1056 673.1880
# 8 vertices

vn 0.0000 -1.0000 -0.0000
vn 0.0000 1.0000 -0.0000
vn 0.0000 0.0000 1.0000
vn 1.0000 0.0000 -0.0000
vn 0.0000 0.0000 -1.0000
vn -1.0000 0.0000 -0.0000
# 6 vertex normals

vt 58.2157 0.0000 0.0000
vt 58.2157 112.6019 0.0000
vt 0.0000 112.6019 0.0000
vt 0.0000 0.0000 0.0000
vt 0.0032 -0.0000 0.0000
vt 1.0000 0.0000 0.0000
vt 1.0000 0.2899 0.0000
vt 0.0032 0.2899 0.0000
vt 1.0000 3.3047 0.0000
vt 0.0000 3.3047 0.0000
vt 0.0055 0.0000 0.0000
vt 1.0000 3.3096 0.0000
vt 0.0055 3.3096 0.0000
# 13 texture coords

g Building6_4
usemtl Building6
s 2
f 1/1/1 2/2/1 3/3/1 
f 3/3/1 4/4/1 1/1/1 
s 4
f 5/5/2 6/6/2 7/7/2 
f 7/7/2 8/8/2 5/5/2 
s 8
f 1/4/3 4/6/3 6/9/3 
f 6/9/3 5/10/3 1/4/3 
s 16
f 4/11/4 3/6/4 7/12/4 
f 7/12/4 6/13/4 4/11/4 
s 32
f 3/4/5 2/6/5 8/9/5 
f 8/9/5 7/10/5 3/4/5 
s 64
f 2/4/6 1/6/6 5/9/6 
f 5/9/6 8/10/6 2/4/6 
# 12 faces

