# 3ds Max Wavefront OBJ Exporter v0.97b - (c)2007 guruware
# File Created: 26.11.2015 15:20:22

mtllib Floor_2.mtl

#
# object Floor
#

v  -62.9581 -23.5871 -127.9184
v  -5196.2690 -23.5871 -14231.5732
v  -62.9589 -23.5871 -15136.7139
v  -9710.4277 -23.5871 -11625.3232
v  -13060.9570 -23.5871 -7632.3154
v  -14843.7363 -23.5871 -2734.1663
v  -14843.7354 -23.5871 2478.3340
v  -13060.9561 -23.5871 7376.4795
v  -9710.4258 -23.5871 11369.4844
v  -5196.2690 -23.5871 13975.7344
v  -62.9596 -23.5871 14880.8760
v  5070.3501 -23.5871 13975.7363
v  9584.5068 -23.5871 11369.4883
v  12935.0361 -23.5871 7376.4829
v  14717.8184 -23.5871 2478.3372
v  14717.8203 -23.5871 -2734.1619
v  12935.0439 -23.5871 -7632.3091
v  9584.5156 -23.5871 -11625.3154
v  5070.3608 -23.5871 -14231.5693
v  -5196.2690 -17.0524 -14231.5732
v  -62.9589 -17.0524 -15136.7139
v  -9710.4277 -17.0524 -11625.3232
v  -13060.9570 -17.0524 -7632.3154
v  -14843.7363 -17.0524 -2734.1663
v  -14843.7354 -17.0524 2478.3340
v  -13060.9561 -17.0524 7376.4795
v  -9710.4258 -17.0524 11369.4844
v  -5196.2690 -17.0524 13975.7344
v  -62.9596 -17.0524 14880.8760
v  5070.3501 -17.0524 13975.7363
v  9584.5068 -17.0524 11369.4883
v  12935.0361 -17.0524 7376.4829
v  14717.8184 -17.0524 2478.3372
v  14717.8203 -17.0524 -2734.1619
v  12935.0439 -17.0524 -7632.3091
v  9584.5156 -17.0524 -11625.3154
v  5070.3608 -17.0524 -14231.5693
v  -5196.2690 -10.5176 -14231.5732
v  -62.9589 -10.5176 -15136.7139
v  -9710.4277 -10.5176 -11625.3232
v  -13060.9570 -10.5176 -7632.3154
v  -14843.7363 -10.5176 -2734.1663
v  -14843.7354 -10.5176 2478.3340
v  -13060.9561 -10.5176 7376.4795
v  -9710.4258 -10.5176 11369.4844
v  -5196.2690 -10.5176 13975.7344
v  -62.9596 -10.5176 14880.8760
v  5070.3501 -10.5176 13975.7363
v  9584.5068 -10.5176 11369.4883
v  12935.0361 -10.5176 7376.4829
v  14717.8184 -10.5176 2478.3372
v  14717.8203 -10.5176 -2734.1619
v  12935.0439 -10.5176 -7632.3091
v  9584.5156 -10.5176 -11625.3154
v  5070.3608 -10.5176 -14231.5693
v  -5196.2690 -3.9829 -14231.5732
v  -62.9589 -3.9829 -15136.7139
v  -9710.4277 -3.9829 -11625.3232
v  -13060.9570 -3.9829 -7632.3154
v  -14843.7363 -3.9829 -2734.1663
v  -14843.7354 -3.9829 2478.3340
v  -13060.9561 -3.9829 7376.4795
v  -9710.4258 -3.9828 11369.4844
v  -5196.2690 -3.9828 13975.7344
v  -62.9596 -3.9828 14880.8760
v  5070.3501 -3.9828 13975.7363
v  9584.5068 -3.9828 11369.4883
v  12935.0361 -3.9829 7376.4829
v  14717.8184 -3.9829 2478.3372
v  14717.8203 -3.9829 -2734.1619
v  12935.0439 -3.9829 -7632.3091
v  9584.5156 -3.9829 -11625.3154
v  5070.3608 -3.9829 -14231.5693
v  -5196.2690 2.5519 -14231.5732
v  -62.9589 2.5519 -15136.7139
v  -9710.4277 2.5519 -11625.3232
v  -13060.9570 2.5519 -7632.3154
v  -14843.7363 2.5519 -2734.1663
v  -14843.7354 2.5519 2478.3340
v  -13060.9561 2.5519 7376.4795
v  -9710.4258 2.5519 11369.4844
v  -5196.2690 2.5519 13975.7344
v  -62.9596 2.5519 14880.8760
v  5070.3501 2.5519 13975.7363
v  9584.5068 2.5519 11369.4883
v  12935.0361 2.5519 7376.4829
v  14717.8184 2.5519 2478.3372
v  14717.8203 2.5519 -2734.1619
v  12935.0439 2.5519 -7632.3091
v  9584.5156 2.5519 -11625.3154
v  5070.3608 2.5519 -14231.5693
v  -5196.2690 9.0867 -14231.5732
v  -62.9589 9.0867 -15136.7139
v  -9710.4277 9.0867 -11625.3232
v  -13060.9570 9.0867 -7632.3154
v  -14843.7363 9.0867 -2734.1663
v  -14843.7354 9.0867 2478.3340
v  -13060.9561 9.0867 7376.4795
v  -9710.4258 9.0867 11369.4844
v  -5196.2690 9.0867 13975.7344
v  -62.9596 9.0867 14880.8760
v  5070.3501 9.0867 13975.7363
v  9584.5068 9.0867 11369.4883
v  12935.0361 9.0867 7376.4829
v  14717.8184 9.0867 2478.3372
v  14717.8203 9.0867 -2734.1619
v  12935.0439 9.0867 -7632.3091
v  9584.5156 9.0867 -11625.3154
v  5070.3608 9.0867 -14231.5693
v  -62.9581 9.0867 -127.9184
# 110 vertices

vn 0.0000 -1.0000 -0.0000
vn 0.0000 0.0000 -1.0000
vn -0.3420 0.0000 -0.9397
vn -0.6428 0.0000 -0.7660
vn -0.8660 0.0000 -0.5000
vn -0.9848 0.0000 -0.1736
vn -0.9848 0.0000 0.1736
vn -0.8660 0.0000 0.5000
vn -0.6428 0.0000 0.7660
vn -0.3420 0.0000 0.9397
vn 0.0000 0.0000 1.0000
vn 0.3420 0.0000 0.9397
vn 0.6428 0.0000 0.7660
vn 0.8660 0.0000 0.5000
vn 0.9848 0.0000 0.1736
vn 0.9848 0.0000 -0.1736
vn 0.8660 0.0000 -0.5000
vn 0.6428 0.0000 -0.7660
vn 0.3420 0.0000 -0.9397
vn -0.9848 0.0000 0.1737
vn 0.0000 1.0000 -0.0000
# 21 vertex normals

vt 2000.0000 1969.6156 0.0000
vt 3879.3853 1285.5753 0.0000
vt 4000.0000 1969.6156 0.0000
vt 3532.0889 684.0403 0.0000
vt 3000.0000 237.5647 0.0000
vt 2347.2961 0.0000 0.0000
vt 1652.7034 0.0001 0.0000
vt 999.9999 237.5648 0.0000
vt 467.9111 684.0403 0.0000
vt 120.6147 1285.5752 0.0000
vt 0.0000 1969.6154 0.0000
vt 120.6146 2653.6555 0.0000
vt 467.9108 3255.1904 0.0000
vt 999.9994 3701.6660 0.0000
vt 1652.7029 3939.2310 0.0000
vt 2347.2954 3939.2314 0.0000
vt 2999.9990 3701.6670 0.0000
vt 3532.0879 3255.1919 0.0000
vt 3879.3848 2653.6572 0.0000
vt 9424.7783 0.0000 1.0000
vt 10122.9092 2.0000 1.0000
vt 9424.7783 2.0000 1.0000
vt 10122.9092 0.0000 1.0000
vt 10821.0410 2.0000 1.0000
vt 10821.0410 0.0000 1.0000
vt 11519.1738 2.0000 1.0000
vt 11519.1738 0.0000 1.0000
vt 12217.3047 2.0000 1.0000
vt 12217.3047 0.0000 1.0000
vt -349.0660 0.0000 1.0000
vt 349.0663 2.0038 1.0000
vt -349.0660 2.0000 1.0000
vt -349.0660 0.0038 1.0000
vt 349.0663 0.0038 1.0000
vt 1047.1978 2.0000 1.0000
vt 1047.1978 0.0000 1.0000
vt 1745.3293 2.0000 1.0000
vt 1745.3293 0.0000 1.0000
vt 2443.4612 2.0000 1.0000
vt 2443.4612 0.0000 1.0000
vt 3141.5925 2.0000 1.0000
vt 3141.5925 0.0000 1.0000
vt 3839.7244 2.0000 1.0000
vt 3839.7244 0.0000 1.0000
vt 4537.8560 2.0000 1.0000
vt 4537.8560 0.0000 1.0000
vt 5235.9873 2.0000 1.0000
vt 5235.9873 0.0000 1.0000
vt 5934.1187 2.0000 1.0000
vt 5934.1187 0.0000 1.0000
vt 6632.2500 2.0000 1.0000
vt 6632.2500 0.0000 1.0000
vt 7330.3823 2.0000 1.0000
vt 7330.3823 0.0000 1.0000
vt 8028.5142 2.0000 1.0000
vt 8028.5142 0.0000 1.0000
vt 8726.6445 2.0000 1.0000
vt 8726.6445 0.0000 1.0000
vt 10122.9092 4.0000 1.0000
vt 9424.7783 4.0000 1.0000
vt 10821.0410 4.0000 1.0000
vt 11519.1738 4.0000 1.0000
vt 12217.3047 4.0000 1.0000
vt 349.0663 4.0000 1.0000
vt -349.0660 4.0000 1.0000
vt 1047.1978 4.0000 1.0000
vt 1745.3293 4.0000 1.0000
vt 2443.4612 4.0000 1.0000
vt 3141.5925 4.0000 1.0000
vt 3839.7244 4.0000 1.0000
vt 4537.8560 4.0000 1.0000
vt 5235.9873 4.0000 1.0000
vt 5934.1187 4.0000 1.0000
vt 6632.2500 4.0000 1.0000
vt 7330.3823 4.0000 1.0000
vt 8028.5142 4.0000 1.0000
vt 8726.6445 4.0000 1.0000
vt 10122.9092 6.0000 1.0000
vt 9424.7783 6.0000 1.0000
vt 10821.0410 6.0000 1.0000
vt 11519.1738 6.0000 1.0000
vt 12217.3047 6.0000 1.0000
vt 349.0663 6.0000 1.0000
vt -349.0660 6.0000 1.0000
vt 1047.1978 6.0000 1.0000
vt 1745.3293 6.0000 1.0000
vt 2443.4612 6.0000 1.0000
vt 3141.5925 6.0000 1.0000
vt 3839.7244 6.0000 1.0000
vt 4537.8560 6.0000 1.0000
vt 5235.9873 6.0000 1.0000
vt 5934.1187 6.0000 1.0000
vt 6632.2500 6.0000 1.0000
vt 7330.3823 6.0000 1.0000
vt 8028.5142 6.0000 1.0000
vt 8726.6445 6.0000 1.0000
vt 10122.9092 8.0000 1.0000
vt 9424.7783 8.0000 1.0000
vt 10821.0410 8.0000 1.0000
vt 11519.1738 8.0000 1.0000
vt 12217.3047 8.0000 1.0000
vt 349.0663 8.0000 1.0000
vt -349.0660 8.0000 1.0000
vt 1047.1978 8.0000 1.0000
vt 1745.3293 8.0000 1.0000
vt 2443.4612 8.0000 1.0000
vt 3141.5925 8.0000 1.0000
vt 3839.7244 8.0000 1.0000
vt 4537.8560 8.0000 1.0000
vt 5235.9873 8.0000 1.0000
vt 5934.1187 8.0000 1.0000
vt 6632.2500 8.0000 1.0000
vt 7330.3823 8.0000 1.0000
vt 8028.5142 8.0000 1.0000
vt 8726.6445 8.0000 1.0000
vt 10122.9092 10.0000 1.0000
vt 9424.7783 10.0000 1.0000
vt 10821.0410 10.0000 1.0000
vt 11519.1738 10.0000 1.0000
vt 12217.3047 10.0000 1.0000
vt 349.0663 10.0000 1.0000
vt -349.0660 10.0000 1.0000
vt 1047.1978 10.0000 1.0000
vt 1745.3293 10.0000 1.0000
vt 2443.4612 10.0000 1.0000
vt 3141.5925 10.0000 1.0000
vt 3839.7244 10.0000 1.0000
vt 4537.8560 10.0000 1.0000
vt 5235.9873 10.0000 1.0000
vt 5934.1187 10.0000 1.0000
vt 6632.2500 10.0000 1.0000
vt 7330.3823 10.0000 1.0000
vt 8028.5142 10.0000 1.0000
vt 8726.6445 10.0000 1.0000
vt -26.5284 24.0418 0.0000
vt 1.0000 24.0418 0.0000
vt -0.6602 32.3914 0.0000
vt -5.4404 39.7339 0.0000
vt -12.7642 45.1838 0.0000
vt -21.7482 48.0836 0.0000
vt -31.3087 48.0835 0.0000
vt -40.2926 45.1838 0.0000
vt -47.6164 39.7339 0.0000
vt -52.3967 32.3914 0.0000
vt -54.0568 24.0418 0.0000
vt -52.3967 15.6922 0.0000
vt -47.6164 8.3496 0.0000
vt -40.2926 2.8998 0.0000
vt -31.3087 0.0000 0.0000
vt -21.7482 0.0000 0.0000
vt -12.7642 2.8998 0.0000
vt -5.4404 8.3496 0.0000
vt -0.6602 15.6921 0.0000
# 153 texture coords

g Floor
usemtl Floor
s 1
f 1/1/1 2/2/1 3/3/1 
f 1/1/1 4/4/1 2/2/1 
f 1/1/1 5/5/1 4/4/1 
f 1/1/1 6/6/1 5/5/1 
f 1/1/1 7/7/1 6/6/1 
f 1/1/1 8/8/1 7/7/1 
f 1/1/1 9/9/1 8/8/1 
f 1/1/1 10/10/1 9/9/1 
f 1/1/1 11/11/1 10/10/1 
f 1/1/1 12/12/1 11/11/1 
f 1/1/1 13/13/1 12/12/1 
f 1/1/1 14/14/1 13/13/1 
f 1/1/1 15/15/1 14/14/1 
f 1/1/1 16/16/1 15/15/1 
f 1/1/1 17/17/1 16/16/1 
f 1/1/1 18/18/1 17/17/1 
f 1/1/1 19/19/1 18/18/1 
f 1/1/1 3/3/1 19/19/1 
s 8
f 3/20/2 20/21/3 21/22/2 
f 3/20/2 2/23/3 20/21/3 
f 2/23/3 22/24/4 20/21/3 
f 2/23/3 4/25/4 22/24/4 
f 4/25/4 23/26/5 22/24/4 
f 4/25/4 5/27/5 23/26/5 
f 5/27/5 24/28/6 23/26/5 
f 5/27/5 6/29/6 24/28/6 
f 6/30/6 25/31/7 24/32/6 
f 6/33/6 7/34/7 25/31/7 
f 7/34/7 26/35/8 25/31/7 
f 7/34/7 8/36/8 26/35/8 
f 8/36/8 27/37/9 26/35/8 
f 8/36/8 9/38/9 27/37/9 
f 9/38/9 28/39/10 27/37/9 
f 9/38/9 10/40/10 28/39/10 
f 10/40/10 29/41/11 28/39/10 
f 10/40/10 11/42/11 29/41/11 
f 11/42/11 30/43/12 29/41/11 
f 11/42/11 12/44/12 30/43/12 
f 12/44/12 31/45/13 30/43/12 
f 12/44/12 13/46/13 31/45/13 
f 13/46/13 32/47/14 31/45/13 
f 13/46/13 14/48/14 32/47/14 
f 14/48/14 33/49/15 32/47/14 
f 14/48/14 15/50/15 33/49/15 
f 15/50/15 34/51/16 33/49/15 
f 15/50/15 16/52/16 34/51/16 
f 16/52/16 35/53/17 34/51/16 
f 16/52/16 17/54/17 35/53/17 
f 17/54/17 36/55/18 35/53/17 
f 17/54/17 18/56/18 36/55/18 
f 18/56/18 37/57/19 36/55/18 
f 18/56/18 19/58/19 37/57/19 
f 19/58/19 21/22/2 37/57/19 
f 19/58/19 3/20/2 21/22/2 
f 21/22/2 38/59/3 39/60/2 
f 21/22/2 20/21/3 38/59/3 
f 20/21/3 40/61/4 38/59/3 
f 20/21/3 22/24/4 40/61/4 
f 22/24/4 41/62/5 40/61/4 
f 22/24/4 23/26/5 41/62/5 
f 23/26/5 42/63/6 41/62/5 
f 23/26/5 24/28/6 42/63/6 
f 24/32/6 43/64/7 42/65/6 
f 24/32/6 25/31/7 43/64/7 
f 25/31/7 44/66/8 43/64/7 
f 25/31/7 26/35/8 44/66/8 
f 26/35/8 45/67/9 44/66/8 
f 26/35/8 27/37/9 45/67/9 
f 27/37/9 46/68/10 45/67/9 
f 27/37/9 28/39/10 46/68/10 
f 28/39/10 47/69/11 46/68/10 
f 28/39/10 29/41/11 47/69/11 
f 29/41/11 48/70/12 47/69/11 
f 29/41/11 30/43/12 48/70/12 
f 30/43/12 49/71/13 48/70/12 
f 30/43/12 31/45/13 49/71/13 
f 31/45/13 50/72/14 49/71/13 
f 31/45/13 32/47/14 50/72/14 
f 32/47/14 51/73/15 50/72/14 
f 32/47/14 33/49/15 51/73/15 
f 33/49/15 52/74/16 51/73/15 
f 33/49/15 34/51/16 52/74/16 
f 34/51/16 53/75/17 52/74/16 
f 34/51/16 35/53/17 53/75/17 
f 35/53/17 54/76/18 53/75/17 
f 35/53/17 36/55/18 54/76/18 
f 36/55/18 55/77/19 54/76/18 
f 36/55/18 37/57/19 55/77/19 
f 37/57/19 39/60/2 55/77/19 
f 37/57/19 21/22/2 39/60/2 
f 39/60/2 56/78/3 57/79/2 
f 39/60/2 38/59/3 56/78/3 
f 38/59/3 58/80/4 56/78/3 
f 38/59/3 40/61/4 58/80/4 
f 40/61/4 59/81/5 58/80/4 
f 40/61/4 41/62/5 59/81/5 
f 41/62/5 60/82/6 59/81/5 
f 41/62/5 42/63/6 60/82/6 
f 42/65/6 61/83/7 60/84/6 
f 42/65/6 43/64/7 61/83/7 
f 43/64/7 62/85/8 61/83/7 
f 43/64/7 44/66/8 62/85/8 
f 44/66/8 63/86/9 62/85/8 
f 44/66/8 45/67/9 63/86/9 
f 45/67/9 64/87/10 63/86/9 
f 45/67/9 46/68/10 64/87/10 
f 46/68/10 65/88/11 64/87/10 
f 46/68/10 47/69/11 65/88/11 
f 47/69/11 66/89/12 65/88/11 
f 47/69/11 48/70/12 66/89/12 
f 48/70/12 67/90/13 66/89/12 
f 48/70/12 49/71/13 67/90/13 
f 49/71/13 68/91/14 67/90/13 
f 49/71/13 50/72/14 68/91/14 
f 50/72/14 69/92/15 68/91/14 
f 50/72/14 51/73/15 69/92/15 
f 51/73/15 70/93/16 69/92/15 
f 51/73/15 52/74/16 70/93/16 
f 52/74/16 71/94/17 70/93/16 
f 52/74/16 53/75/17 71/94/17 
f 53/75/17 72/95/18 71/94/17 
f 53/75/17 54/76/18 72/95/18 
f 54/76/18 73/96/19 72/95/18 
f 54/76/18 55/77/19 73/96/19 
f 55/77/19 57/79/2 73/96/19 
f 55/77/19 39/60/2 57/79/2 
f 57/79/2 74/97/3 75/98/2 
f 57/79/2 56/78/3 74/97/3 
f 56/78/3 76/99/4 74/97/3 
f 56/78/3 58/80/4 76/99/4 
f 58/80/4 77/100/5 76/99/4 
f 58/80/4 59/81/5 77/100/5 
f 59/81/5 78/101/6 77/100/5 
f 59/81/5 60/82/6 78/101/6 
f 60/84/6 79/102/7 78/103/6 
f 60/84/6 61/83/7 79/102/7 
f 61/83/7 80/104/8 79/102/7 
f 61/83/7 62/85/8 80/104/8 
f 62/85/8 81/105/9 80/104/8 
f 62/85/8 63/86/9 81/105/9 
f 63/86/9 82/106/10 81/105/9 
f 63/86/9 64/87/10 82/106/10 
f 64/87/10 83/107/11 82/106/10 
f 64/87/10 65/88/11 83/107/11 
f 65/88/11 84/108/12 83/107/11 
f 65/88/11 66/89/12 84/108/12 
f 66/89/12 85/109/13 84/108/12 
f 66/89/12 67/90/13 85/109/13 
f 67/90/13 86/110/14 85/109/13 
f 67/90/13 68/91/14 86/110/14 
f 68/91/14 87/111/15 86/110/14 
f 68/91/14 69/92/15 87/111/15 
f 69/92/15 88/112/16 87/111/15 
f 69/92/15 70/93/16 88/112/16 
f 70/93/16 89/113/17 88/112/16 
f 70/93/16 71/94/17 89/113/17 
f 71/94/17 90/114/18 89/113/17 
f 71/94/17 72/95/18 90/114/18 
f 72/95/18 91/115/19 90/114/18 
f 72/95/18 73/96/19 91/115/19 
f 73/96/19 75/98/2 91/115/19 
f 73/96/19 57/79/2 75/98/2 
f 75/98/2 92/116/3 93/117/2 
f 75/98/2 74/97/3 92/116/3 
f 74/97/3 94/118/4 92/116/3 
f 74/97/3 76/99/4 94/118/4 
f 76/99/4 95/119/5 94/118/4 
f 76/99/4 77/100/5 95/119/5 
f 77/100/5 96/120/6 95/119/5 
f 77/100/5 78/101/6 96/120/6 
f 78/103/6 97/121/20 96/122/6 
f 78/103/6 79/102/7 97/121/20 
f 79/102/7 98/123/8 97/121/20 
f 79/102/7 80/104/8 98/123/8 
f 80/104/8 99/124/9 98/123/8 
f 80/104/8 81/105/9 99/124/9 
f 81/105/9 100/125/10 99/124/9 
f 81/105/9 82/106/10 100/125/10 
f 82/106/10 101/126/11 100/125/10 
f 82/106/10 83/107/11 101/126/11 
f 83/107/11 102/127/12 101/126/11 
f 83/107/11 84/108/12 102/127/12 
f 84/108/12 103/128/13 102/127/12 
f 84/108/12 85/109/13 103/128/13 
f 85/109/13 104/129/14 103/128/13 
f 85/109/13 86/110/14 104/129/14 
f 86/110/14 105/130/15 104/129/14 
f 86/110/14 87/111/15 105/130/15 
f 87/111/15 106/131/16 105/130/15 
f 87/111/15 88/112/16 106/131/16 
f 88/112/16 107/132/17 106/131/16 
f 88/112/16 89/113/17 107/132/17 
f 89/113/17 108/133/18 107/132/17 
f 89/113/17 90/114/18 108/133/18 
f 90/114/18 109/134/19 108/133/18 
f 90/114/18 91/115/19 109/134/19 
f 91/115/19 93/117/2 109/134/19 
f 91/115/19 75/98/2 93/117/2 
s 1
f 110/135/21 93/136/21 92/137/21 
f 110/135/21 92/137/21 94/138/21 
f 110/135/21 94/138/21 95/139/21 
f 110/135/21 95/139/21 96/140/21 
f 110/135/21 96/140/21 97/141/21 
f 110/135/21 97/141/21 98/142/21 
f 110/135/21 98/142/21 99/143/21 
f 110/135/21 99/143/21 100/144/21 
f 110/135/21 100/144/21 101/145/21 
f 110/135/21 101/145/21 102/146/21 
f 110/135/21 102/146/21 103/147/21 
f 110/135/21 103/147/21 104/148/21 
f 110/135/21 104/148/21 105/149/21 
f 110/135/21 105/149/21 106/150/21 
f 110/135/21 106/150/21 107/151/21 
f 110/135/21 107/151/21 108/152/21 
f 110/135/21 108/152/21 109/153/21 
f 110/135/21 109/153/21 93/136/21 
# 216 faces

