# 3ds Max Wavefront OBJ Exporter v0.97b - (c)2007 guruware
# File Created: 06.11.2015 12:58:30

mtllib P-47_Canopy.mtl

#
# object Canopy
#

v  -0.6931 2.4525 1.8015
v  -0.7057 2.4545 1.9298
v  -0.6338 2.4749 1.9298
v  -0.6226 2.4718 1.8015
v  -0.6933 1.4653 5.2902
v  -0.2620 1.8227 5.7498
v  -0.5655 2.2593 4.3348
v  -0.9564 1.5877 4.3672
v  -0.0321 2.5167 1.4922
v  -0.3693 2.3392 1.2648
v  -0.5069 2.4173 1.4534
v  -0.0321 2.5766 1.5709
v  0.6290 2.4525 1.8015
v  0.5687 2.4690 1.8015
v  0.5800 2.4719 1.9298
v  0.6414 2.4545 1.9298
v  0.5107 2.2543 4.3348
v  0.2014 1.8177 5.7498
v  0.6286 1.4653 5.2902
v  0.8922 1.5877 4.3672
v  0.4505 2.4141 1.4502
v  0.3109 2.3360 1.2607
v  -1.0028 1.1049 0.1206
v  -0.9511 1.2302 0.2456
v  -0.8545 1.3130 -0.0100
v  -0.8868 1.2040 -0.1649
v  -1.4775 0.6416 1.9598
v  -1.4065 0.8323 1.9506
v  -1.4223 0.8248 1.7508
v  -1.4968 0.6330 1.7519
v  -1.2397 0.7462 4.5229
v  -0.2577 1.1900 7.3403
v  -0.2907 1.2452 7.1729
v  -1.2111 0.9258 4.4158
v  -0.2336 1.1895 7.3418
v  -0.2630 1.2499 7.1751
v  0.1730 1.1896 7.3416
v  0.2029 1.2493 7.1747
v  -0.0321 1.2895 7.1940
v  -0.0321 1.1861 7.3548
v  1.1754 0.7462 4.5229
v  1.1468 0.9258 4.4158
v  0.2264 1.2452 7.1729
v  0.1935 1.1900 7.3403
v  1.2100 0.7311 4.1514
v  1.1752 0.9122 4.0584
v  1.3313 0.7285 1.4105
v  1.2615 0.9072 1.4387
v  1.3581 0.8248 1.7508
v  1.4327 0.6330 1.7519
v  0.7447 1.2042 -0.1662
v  0.7153 1.3156 -0.0097
v  0.7903 1.3130 -0.0100
v  0.8225 1.2040 -0.1649
v  -0.0321 1.2059 -0.1799
v  -0.7956 1.2042 -0.1665
v  -0.7667 1.3159 -0.0096
v  -0.0321 1.3414 -0.0070
v  -1.3787 0.9335 1.7505
v  -1.2825 1.0079 1.4505
v  -1.3258 0.9072 1.4387
v  -1.1100 0.9473 4.3998
v  -1.1437 0.9493 4.0183
v  -1.1493 0.8880 4.0478
v  -1.1206 0.9030 4.4020
v  -0.2622 1.1959 7.0233
v  -0.2324 1.1773 7.1430
v  -0.0321 1.2102 7.1430
v  -0.0321 1.2680 7.0531
v  -0.2143 1.2224 7.0531
v  -0.2110 1.1809 7.1430
v  0.1681 1.1773 7.1430
v  0.1979 1.1959 7.0233
v  0.1532 1.2215 7.0531
v  0.1499 1.1803 7.1430
v  1.0564 0.9030 4.4020
v  1.0457 0.9473 4.3998
v  1.2293 0.8981 1.7632
v  1.2150 0.9061 1.9567
v  1.2546 0.7992 1.9587
v  1.2707 0.7908 1.7605
v  0.7615 1.3779 0.0706
v  0.8619 1.3055 0.3222
v  0.8869 1.2302 0.2456
v  -0.0321 1.2671 0.0512
v  -0.0321 1.3430 0.1479
v  0.6388 1.3135 0.1091
v  0.6630 1.2482 0.0263
v  -0.7702 1.3105 0.1051
v  -0.6914 1.3140 0.1097
v  -0.7153 1.2485 0.0267
v  -0.7969 1.2463 0.0237
v  -0.5635 2.3954 1.4317
v  -0.6094 2.4171 1.4888
v  -0.5489 2.4390 1.5084
v  -0.0321 2.6043 1.6074
v  0.4932 2.4358 1.5056
v  -1.0553 1.0546 0.2931
v  -1.0013 1.1871 0.4050
v  0.9385 1.1049 0.1206
v  -0.4095 2.3180 1.2376
v  -0.8257 1.3779 0.0706
v  -0.9262 1.3055 0.3222
v  0.4726 2.3162 1.4775
v  0.4970 2.3305 1.5123
v  0.8320 1.2194 0.4894
v  0.7840 1.2578 0.3375
v  1.2858 0.7722 1.2609
v  1.2181 0.9447 1.3002
v  -0.5702 2.3679 1.5955
v  -1.1570 1.0015 1.3347
v  -1.2001 0.9694 1.4695
v  -0.6163 2.3996 1.6728
v  -0.6561 2.4676 1.6210
v  -0.7458 2.5086 1.7469
v  -0.6697 2.5300 1.7467
v  -0.5896 2.4872 1.6262
v  -0.0321 2.7086 1.7444
v  0.6165 2.5268 1.7467
v  0.5351 2.4843 1.6253
v  -0.0321 2.6512 1.6689
v  -1.3956 0.7285 1.4105
v  0.6816 2.5086 1.7469
v  1.3144 0.9335 1.7505
v  1.2183 1.0079 1.4505
v  0.5920 2.4676 1.6210
v  -0.0321 2.6336 1.8015
v  1.3423 0.8323 1.9506
v  -1.2394 0.9122 4.0584
v  -1.2935 0.8981 1.7632
v  -1.3349 0.7908 1.7605
v  0.3203 2.2401 1.2845
v  0.2882 2.2584 1.3086
v  0.3453 2.3180 1.2376
v  -0.3469 2.2616 1.3128
v  -0.0321 2.4415 1.5492
v  -0.3845 2.2401 1.2845
v  0.7061 1.3105 0.1051
v  0.7326 1.2463 0.0237
v  -0.8445 1.1316 -0.1217
v  -0.9209 1.0595 0.1324
v  -0.9729 1.0105 0.3054
v  -1.3098 0.6925 1.4261
v  -1.4090 0.5990 1.7558
v  -1.3896 0.6081 1.9620
v  -1.1507 0.7212 4.5045
v  -0.2324 1.1068 7.3038
v  -0.2110 1.1068 7.3038
v  0.1499 1.1068 7.3038
v  -0.0321 1.1068 7.3038
v  0.1681 1.1068 7.3038
v  1.0864 0.7212 4.5045
v  1.1211 0.7048 4.1360
v  1.3447 0.5990 1.7558
v  1.2456 0.6925 1.4261
v  1.2005 0.7352 1.2760
v  0.8567 1.0595 0.1324
v  0.7802 1.1316 -0.1217
v  0.7063 1.1316 -0.1217
v  -0.7578 1.1316 -0.1217
v  -0.0321 1.1316 -0.1217
v  0.8551 1.1427 0.4188
v  0.9370 1.1871 0.4050
v  0.8055 1.1846 0.2588
v  1.1359 0.9694 1.4695
v  1.1763 0.8708 1.4555
v  0.5059 2.3679 1.5955
v  0.5528 2.4460 1.5634
v  0.5521 2.3996 1.6728
v  0.4989 2.3954 1.4317
v  -0.5617 2.3305 1.5123
v  -0.5372 2.3162 1.4775
v  -1.1974 0.9072 1.3167
v  -1.2823 0.9447 1.3002
v  -1.2405 0.8708 1.4555
v  -0.8482 1.2578 0.3375
v  -0.8697 1.1846 0.2588
v  -0.6170 2.4460 1.5634
v  -0.5535 2.4653 1.5705
v  -0.0321 2.6211 1.6294
v  0.4985 2.4624 1.5694
v  -1.3500 0.7722 1.2609
v  1.0927 1.0015 1.3347
v  0.9910 1.0546 0.2931
v  -0.8962 1.2194 0.4894
v  -1.2647 0.7352 1.2760
v  0.9087 1.0105 0.3054
v  1.1332 0.9072 1.3167
v  0.5447 2.4171 1.4888
v  -0.9193 1.1427 0.4188
v  -0.0321 2.5425 4.3348
v  -0.0321 2.7743 3.2836
v  -0.7514 2.5073 3.2836
v  -0.0321 2.1058 5.7498
v  -0.0321 2.6458 1.9298
v  -1.0634 1.8377 3.5907
v  0.6998 2.5027 3.2836
v  0.9991 1.8377 3.5907
v  -1.2741 0.7311 4.1514
v  1.4134 0.6416 1.9598
v  -1.2792 0.9061 1.9567
v  1.0795 0.9493 4.0183
v  1.0850 0.8880 4.0478
v  -1.3189 0.7992 1.9587
v  -1.1852 0.7048 4.1360
v  1.3254 0.6081 1.9620
# 206 vertices

vn -0.6644 0.7438 -0.0722
vn -0.6808 0.7290 -0.0706
vn -0.2785 0.9589 -0.0541
vn -0.2681 0.9621 -0.0494
vn -0.8652 0.4038 0.2973
vn -0.7409 0.5829 0.3336
vn -0.6640 0.6886 0.2915
vn -0.9023 0.3480 0.2545
vn -0.0002 0.4704 -0.8824
vn 0.3427 0.4313 -0.8346
vn -0.1575 0.8668 -0.4731
vn -0.0003 0.7994 -0.6007
vn 0.6643 0.7440 -0.0720
vn 0.2681 0.9622 -0.0486
vn 0.2787 0.9589 -0.0536
vn 0.6807 0.7292 -0.0709
vn 0.6665 0.6857 0.2925
vn 0.7413 0.5820 0.3343
vn 0.8656 0.4025 0.2979
vn 0.9035 0.3450 0.2543
vn 0.1578 0.8672 -0.4723
vn -0.3412 0.4324 -0.8346
vn -0.9008 -0.2336 -0.3660
vn -0.8274 0.5400 0.1542
vn -0.3480 0.8764 -0.3328
vn -0.5401 0.1455 -0.8289
vn -0.9073 -0.4091 0.0973
vn -0.4091 0.9125 -0.0035
vn -0.7808 0.5941 0.1935
vn -0.8976 -0.4219 -0.1274
vn -0.8398 -0.4837 0.2466
vn -0.5293 0.2793 0.8012
vn -0.4664 0.8830 -0.0529
vn -0.5577 0.8292 0.0373
vn -0.0925 0.3492 0.9325
vn -0.1231 0.9143 -0.3859
vn 0.0935 0.3513 0.9316
vn 0.1232 0.9137 -0.3872
vn -0.0003 0.9747 -0.2233
vn -0.0001 0.2173 0.9761
vn 0.8430 -0.4815 0.2397
vn 0.5607 0.8274 0.0331
vn 0.4657 0.8837 -0.0469
vn 0.5237 0.2836 0.8033
vn 0.8556 -0.5081 0.0987
vn 0.5153 0.8569 0.0122
vn 0.8593 -0.3585 -0.3648
vn 0.6859 0.6371 -0.3516
vn 0.7808 0.5941 0.1935
vn 0.8980 -0.4215 -0.1262
vn 0.0163 0.2016 -0.9793
vn 0.0344 0.9698 0.2415
vn 0.3458 0.8786 -0.3293
vn 0.5524 0.1317 -0.8231
vn 0.0000 0.1279 -0.9918
vn -0.0162 0.2004 -0.9796
vn -0.0354 0.9702 0.2396
vn 0.0000 0.9920 0.1263
vn -0.7589 0.2997 0.5781
vn -0.4660 0.2944 -0.8344
vn -0.6883 0.6336 -0.3533
vn -0.9542 0.2376 0.1819
vn -0.9834 0.1548 0.0946
vn -0.9876 0.1337 0.0825
vn -0.9563 0.2380 0.1700
vn -0.8031 0.5114 0.3057
vn -0.3739 0.8426 0.3875
vn 0.0002 0.8629 0.5054
vn 0.0005 0.8743 0.4854
vn -0.3904 0.8372 0.3829
vn -0.1468 0.8964 0.4183
vn 0.3729 0.8423 0.3892
vn 0.8091 0.5035 0.3030
vn 0.4030 0.8322 0.3809
vn 0.1470 0.8974 0.4160
vn 0.9563 0.2380 0.1700
vn 0.9542 0.2376 0.1820
vn 0.9326 0.3566 0.0562
vn 0.9424 0.3330 0.0316
vn 0.9360 0.3475 0.0556
vn 0.9316 0.3583 0.0604
vn 0.0519 0.7865 -0.6154
vn 0.9388 -0.0060 0.3443
vn 0.8273 0.5406 0.1524
vn 0.0000 0.7868 -0.6172
vn 0.0000 0.7863 -0.6179
vn -0.0012 0.7854 -0.6190
vn -0.0009 0.7853 -0.6191
vn 0.0011 0.7853 -0.6192
vn 0.0012 0.7854 -0.6190
vn 0.0009 0.7854 -0.6190
vn 0.0008 0.7852 -0.6192
vn -0.7182 0.5295 -0.4514
vn -0.8688 0.2585 -0.4223
vn -0.1873 0.8817 -0.4331
vn -0.0003 0.7957 -0.6057
vn 0.1881 0.8823 -0.4314
vn -0.8985 -0.2631 -0.3513
vn -0.3350 0.9300 0.1514
vn 0.8892 -0.2371 -0.3913
vn 0.2539 0.5814 -0.7730
vn -0.0590 0.7848 -0.6169
vn -0.9389 -0.0061 0.3441
vn 0.4654 0.6717 -0.5764
vn 0.7878 0.5050 -0.3525
vn 0.8871 0.4293 -0.1694
vn 0.8853 0.4344 -0.1657
vn 0.8647 -0.3421 -0.3678
vn 0.4099 0.9049 0.1143
vn -0.7887 0.4009 -0.4661
vn -0.8909 0.4180 -0.1777
vn -0.8924 0.4091 -0.1906
vn -0.7191 0.3766 -0.5840
vn -0.4697 0.4427 -0.7638
vn -0.6664 0.7302 0.1508
vn -0.2608 0.9423 0.2100
vn -0.2218 0.8551 -0.4687
vn 0.0000 0.9917 0.1285
vn 0.2612 0.9421 0.2104
vn 0.2222 0.8556 -0.4675
vn 0.0000 0.7989 -0.6015
vn -0.8584 -0.3600 -0.3655
vn 0.6664 0.7302 0.1508
vn 0.7589 0.2997 0.5781
vn 0.4652 0.2887 -0.8368
vn 0.4761 0.4508 -0.7551
vn -0.3744 0.4326 0.8202
vn -0.1654 0.6019 0.7813
vn 0.1655 0.6019 0.7812
vn 0.0000 0.6057 0.7957
vn 0.3744 0.4326 0.8201
vn 0.1260 0.0325 0.9915
vn -0.2099 0.7320 0.6482
vn -0.3585 0.9310 -0.0687
vn 0.4098 0.9122 -0.0050
vn -0.2305 0.9654 -0.1219
vn -0.3154 0.6056 -0.7306
vn 0.0330 0.4226 -0.9057
vn -0.0338 0.4251 -0.9045
vn 0.0000 0.5408 -0.8412
vn 0.3070 0.6078 -0.7323
vn 0.2273 0.9673 -0.1125
vn 0.2525 0.9656 -0.0615
vn -0.5148 0.8572 0.0105
vn -0.1260 0.0325 0.9915
vn 0.2099 0.7320 0.6482
vn -0.8131 -0.0886 -0.5754
vn -0.6528 -0.2655 -0.7095
vn -0.2536 0.5753 -0.7776
vn 0.6534 -0.2690 -0.7076
vn 0.0000 -0.6057 -0.7957
vn 0.7680 0.3469 -0.5383
vn 0.8199 -0.0898 -0.5654
vn 0.5029 0.6986 0.5089
vn -0.0281 0.4648 0.8850
vn 0.0279 0.4613 0.8868
vn 0.0000 0.6170 0.7870
vn -0.7617 0.3586 -0.5396
vn -0.4953 0.7032 0.5100
vn -0.3207 -0.6411 -0.6973
vn -0.4117 -0.8367 -0.3612
vn -0.3996 -0.8422 -0.3620
vn -0.3124 -0.8848 -0.3457
vn -0.3511 -0.9256 -0.1415
vn -0.3553 -0.9318 0.0748
vn -0.2478 -0.9577 0.1463
vn -0.5162 -0.4785 0.7104
vn -0.0277 -0.4433 0.8960
vn 0.0279 -0.4412 0.8970
vn 0.0000 -0.5408 0.8412
vn 0.5009 -0.4835 0.7179
vn 0.2441 -0.9604 0.1341
vn 0.2720 -0.9599 0.0682
vn 0.3500 -0.9263 -0.1394
vn 0.3093 -0.8864 -0.3444
vn 0.3186 -0.8814 -0.3486
vn 0.4216 -0.8139 -0.3998
vn 0.3822 -0.6311 -0.6750
vn 0.0082 -0.5306 -0.8476
vn -0.0081 -0.5323 -0.8465
vn 0.0000 -0.6170 -0.7870
vn -0.4022 0.8462 0.3496
vn 0.3370 0.9295 0.1498
vn 0.0130 0.2579 0.9661
vn -0.2335 0.0345 -0.9717
vn -0.4244 0.7466 -0.5123
vn 0.8407 -0.5397 -0.0450
vn 0.8306 0.3259 -0.4515
vn -0.0320 -0.5826 -0.8121
vn 0.9442 -0.3272 0.0386
vn 0.4700 -0.5703 0.6737
vn 0.7125 0.5317 -0.4579
vn -0.8504 -0.4947 -0.1793
vn -0.9508 -0.3069 0.0421
vn 0.0324 -0.5641 -0.8251
vn 0.2430 0.0385 -0.9693
vn 0.3236 0.8848 0.3352
vn -0.4075 0.9060 0.1144
vn 0.4306 0.7382 -0.5193
vn -0.4700 -0.5704 0.6736
vn -0.0184 0.2577 0.9661
vn -0.8414 0.3169 -0.4377
vn -0.2157 0.8749 -0.4337
vn -0.0001 0.8010 -0.5987
vn 0.2164 0.8754 -0.4322
vn -0.8635 -0.3440 -0.3688
vn 0.7686 0.4219 -0.4810
vn 0.8923 0.4123 -0.1840
vn 0.8991 -0.2607 -0.3516
vn -0.4655 0.6716 -0.5764
vn -0.8854 0.4342 -0.1657
vn -0.8872 0.4291 -0.1695
vn -0.7890 0.5049 -0.3500
vn -0.3226 -0.8793 -0.3504
vn 0.3951 -0.8442 -0.3622
vn -0.3277 0.8826 0.3372
vn 0.8652 0.2658 -0.4252
vn 0.8438 -0.5136 -0.1558
vn -0.8517 -0.5219 -0.0472
vn 0.3976 0.8483 0.3498
vn -0.0002 0.9588 0.2841
vn -0.0001 0.9974 0.0726
vn -0.6710 0.7371 0.0803
vn -0.0002 0.8764 0.4816
vn 0.0130 0.7859 -0.6182
vn 0.0000 0.7870 -0.6170
vn 0.0000 0.9955 -0.0945
vn 0.0000 0.9958 -0.0915
vn -0.0197 0.7826 -0.6223
vn -0.0011 0.7852 -0.6192
vn -0.0130 0.7859 -0.6182
vn 0.7164 0.4130 -0.5623
vn 0.8978 0.3990 -0.1862
vn -0.9333 0.3383 0.1207
vn 0.6774 0.7314 0.0785
vn 0.9350 0.3336 0.1202
vn -0.8555 -0.5086 0.0975
vn 0.9076 -0.4087 0.0961
vn -0.9326 0.3566 0.0562
vn -0.9424 0.3330 0.0316
vn 0.9834 0.1548 0.0946
vn -0.2544 0.9653 -0.0592
vn 0.3569 0.9318 -0.0659
vn -0.2735 -0.9596 0.0664
vn 0.3542 -0.9323 0.0728
vn 0.0195 0.7827 -0.6221
vn 0.8890 0.4261 -0.1675
vn 0.8865 0.4340 -0.1608
vn -0.8942 0.4117 -0.1760
vn -0.9023 0.3934 -0.1763
vn 0.8942 0.4117 -0.1760
vn -0.8866 0.4337 -0.1609
vn -0.8891 0.4259 -0.1676
vn -0.0008 0.7852 -0.6192
vn 0.9023 0.3934 -0.1763
vn -0.9316 0.3583 0.0604
vn -0.9360 0.3475 0.0556
vn 0.9876 0.1337 0.0825
# 258 vertex normals

vt 0.9500 0.0000 1.0000
vt 0.9466 0.0000 0.9800
vt 0.9184 0.0000 0.8123
vt 0.9471 0.0000 0.9829
# 4 texture coords

g Canopy
usemtl CanopyGlass
s 8388608
f 1/1/1 2/1/2 3/2/3 
f 3/2/3 4/2/4 1/1/1 
f 5/1/5 6/2/6 7/2/7 
f 7/2/7 8/1/8 5/1/5 
usemtl CanopyFrame
s 2147483647
f 9/3/9 10/2/10 11/2/11 
f 11/2/11 12/3/12 9/3/9 
usemtl CanopyGlass
s 8388608
f 13/1/13 14/4/14 15/4/15 
f 15/4/15 16/1/16 13/1/13 
f 17/4/17 18/4/18 19/1/19 
f 19/1/19 20/1/20 17/4/17 
usemtl CanopyFrame
s 2147483647
f 9/3/9 12/3/12 21/4/21 
f 21/4/21 22/4/22 9/3/9 
f 23/1/23 24/1/24 25/1/25 
f 25/1/25 26/1/26 23/1/23 
f 27/1/27 28/1/28 29/1/29 
f 29/1/29 30/1/30 27/1/27 
f 31/1/31 32/1/32 33/1/33 
f 33/1/33 34/1/34 31/1/31 
f 32/1/32 35/2/35 36/2/36 
f 36/2/36 33/1/33 32/1/32 
f 37/4/37 38/4/38 39/3/39 
f 39/3/39 40/3/40 37/4/37 
f 41/1/41 42/1/42 43/1/43 
f 43/1/43 44/1/44 41/1/41 
f 45/1/45 46/1/46 42/1/42 
f 42/1/42 41/1/41 45/1/45 
f 47/1/47 48/1/48 49/1/49 
f 49/1/49 50/1/50 47/1/47 
f 51/4/51 52/4/52 53/1/53 
f 53/1/53 54/1/54 51/4/51 
f 55/3/55 56/2/56 57/2/57 
f 57/2/57 58/3/58 55/3/55 
f 59/1/59 60/1/60 61/1/61 
f 61/1/61 29/1/29 59/1/59 
usemtl CanopyGlass
s 8388608
f 62/1/62 63/1/63 64/1/64 
f 64/1/64 65/1/65 62/1/62 
f 66/1/66 62/1/62 65/1/65 
f 65/1/65 67/1/67 66/1/66 
f 68/3/68 69/3/69 70/2/70 
f 70/2/70 71/2/71 68/3/68 
f 72/1/72 73/1/73 74/4/74 
f 74/4/74 75/4/75 72/1/72 
f 76/1/76 77/1/77 73/1/73 
f 73/1/73 72/1/72 76/1/76 
f 78/1/78 79/1/79 80/1/80 
f 80/1/80 81/1/81 78/1/78 
usemtl CanopyFrame
s 2147483647
f 82/1/82 83/1/83 84/1/84 
f 84/1/84 53/1/53 82/1/82 
usemtl CanopyGlass
s 8388608
f 85/3/85 86/3/86 87/4/87 
f 87/4/87 88/4/88 85/3/85 
f 89/1/89 90/2/90 91/2/91 
f 91/2/91 92/1/92 89/1/89 
usemtl CanopyFrame
s 2147483647
f 93/1/93 94/1/94 95/2/95 
f 95/2/95 11/2/11 93/1/93 
f 12/3/12 96/3/96 97/4/97 
f 97/4/97 21/4/21 12/3/12 
f 98/1/98 99/1/99 24/1/24 
f 24/1/24 23/1/23 98/1/98 
f 100/1/100 54/1/54 53/1/53 
f 53/1/53 84/1/84 100/1/100 
f 101/1/101 102/1/102 103/1/103 
f 103/1/103 93/1/93 101/1/101 
usemtl CanopyGlass
s 8388608
f 104/1/104 105/1/105 106/1/106 
f 106/1/106 107/1/107 104/1/104 
usemtl CanopyFrame
s 2147483647
f 108/1/108 109/1/109 48/1/48 
f 48/1/48 47/1/47 108/1/108 
usemtl CanopyGlass
s 8388608
f 110/1/110 111/1/111 112/1/112 
f 112/1/112 113/1/113 110/1/110 
usemtl CanopyFrame
s 2147483647
f 114/1/114 115/1/115 116/2/116 
f 116/2/116 117/2/117 114/1/114 
f 118/3/118 119/4/119 120/4/120 
f 120/4/120 121/3/121 118/3/118 
f 122/1/122 30/1/30 29/1/29 
f 29/1/29 61/1/61 122/1/122 
f 123/1/123 124/1/124 125/1/125 
f 125/1/125 126/1/126 123/1/123 
f 1/1/127 4/2/128 116/2/116 
f 116/2/116 115/1/115 1/1/127 
f 14/4/129 119/4/119 118/3/118 
f 118/3/118 127/3/130 14/4/129 
f 13/1/131 78/1/132 124/1/124 
f 124/1/124 123/1/123 13/1/131 
f 81/1/133 80/1/134 128/1/135 
f 128/1/135 49/1/49 81/1/133 
f 76/1/136 72/1/137 43/1/43 
f 43/1/43 42/1/42 76/1/136 
usemtl CanopyGlass
f 72/1/137 75/4/138 38/4/38 
f 38/4/38 43/1/43 72/1/137 
f 71/2/139 36/2/36 39/3/39 
f 39/3/39 68/3/140 71/2/139 
usemtl CanopyFrame
f 67/1/141 65/1/142 34/1/34 
f 34/1/34 33/1/33 67/1/141 
f 65/1/142 64/1/143 129/1/144 
f 129/1/144 34/1/34 65/1/142 
f 130/1/145 59/1/59 29/1/29 
f 29/1/29 131/1/146 130/1/145 
f 132/1/147 133/4/148 22/4/22 
f 22/4/22 134/1/149 132/1/147 
f 135/2/150 10/2/10 9/3/9 
f 9/3/9 136/3/151 135/2/150 
f 89/1/152 102/1/102 101/1/101 
f 101/1/101 137/1/153 89/1/152 
f 92/1/154 91/2/155 57/2/57 
f 57/2/57 25/1/25 92/1/154 
f 88/4/156 52/4/52 58/3/58 
f 58/3/58 85/3/157 88/4/156 
f 138/1/158 82/1/82 53/1/53 
f 53/1/53 139/1/159 138/1/158 
f 140/1/160 141/1/161 23/1/23 
f 23/1/23 26/1/26 140/1/160 
f 142/1/162 98/1/98 23/1/23 
f 23/1/23 141/1/161 142/1/162 
f 143/1/163 144/1/164 30/1/30 
f 30/1/30 122/1/122 143/1/163 
f 144/1/164 145/1/165 27/1/27 
f 27/1/27 30/1/30 144/1/164 
f 146/1/166 147/1/167 32/1/32 
f 32/1/32 31/1/31 146/1/166 
f 147/1/167 148/2/168 35/2/35 
f 35/2/35 32/1/32 147/1/167 
f 149/4/169 37/4/37 40/3/40 
f 40/3/40 150/3/170 149/4/169 
f 151/1/171 152/1/172 41/1/41 
f 41/1/41 44/1/44 151/1/171 
f 152/1/172 153/1/173 45/1/45 
f 45/1/45 41/1/41 152/1/172 
f 154/1/174 155/1/175 47/1/47 
f 47/1/47 50/1/50 154/1/174 
f 156/1/176 108/1/108 47/1/47 
f 47/1/47 155/1/175 156/1/176 
f 157/1/177 158/1/178 54/1/54 
f 54/1/54 100/1/100 157/1/177 
f 158/1/178 159/4/179 51/4/51 
f 51/4/51 54/1/54 158/1/178 
f 160/2/180 56/2/56 55/3/55 
f 55/3/55 161/3/181 160/2/180 
f 162/1/182 163/1/183 84/1/84 
f 84/1/84 164/1/184 162/1/182 
f 165/1/185 125/1/125 48/1/48 
f 48/1/48 166/1/186 165/1/185 
f 167/1/187 168/1/188 126/1/126 
f 126/1/126 169/1/189 167/1/187 
f 104/1/190 107/1/191 83/1/83 
f 83/1/83 170/1/192 104/1/190 
f 171/1/193 94/1/94 93/1/93 
f 93/1/93 172/1/194 171/1/193 
f 113/1/195 112/1/196 60/1/60 
f 60/1/60 114/1/114 113/1/195 
f 173/1/197 174/1/198 61/1/61 
f 61/1/61 175/1/199 173/1/197 
f 176/1/200 103/1/103 24/1/24 
f 24/1/24 177/1/201 176/1/200 
f 94/1/94 178/1/202 179/2/203 
f 179/2/203 95/2/95 94/1/94 
f 180/3/204 181/4/205 97/4/97 
f 97/4/97 96/3/96 180/3/204 
f 182/1/206 174/1/198 99/1/99 
f 99/1/99 98/1/98 182/1/206 
usemtl CanopyGlass
s 8388608
f 105/1/105 167/1/207 183/1/208 
f 183/1/208 106/1/106 105/1/105 
usemtl CanopyFrame
s 2147483647
f 184/1/209 100/1/100 84/1/84 
f 84/1/84 163/1/183 184/1/209 
usemtl CanopyGlass
s 8388608
f 172/1/210 176/1/211 185/1/212 
f 185/1/212 171/1/213 172/1/210 
usemtl CanopyFrame
s 2147483647
f 186/1/214 182/1/206 98/1/98 
f 98/1/98 142/1/162 186/1/214 
f 157/1/177 100/1/100 184/1/209 
f 184/1/209 187/1/215 157/1/177 
f 188/1/216 109/1/109 163/1/183 
f 163/1/183 162/1/182 188/1/216 
f 104/1/190 170/1/192 189/1/217 
f 189/1/217 105/1/218 104/1/190 
f 110/1/219 178/1/202 94/1/94 
f 94/1/94 171/1/193 110/1/219 
f 177/1/201 24/1/24 99/1/99 
f 99/1/99 190/1/220 177/1/201 
usemtl CanopyGlass
s 8388608
f 191/3/221 192/3/222 193/2/223 
f 193/2/223 7/2/7 191/3/221 
f 194/3/224 191/3/221 7/2/7 
f 7/2/7 6/2/6 194/3/224 
usemtl CanopyFrame
s 2147483647
f 10/2/10 101/1/101 93/1/93 
f 93/1/93 11/2/11 10/2/10 
f 35/2/35 40/3/40 39/3/39 
f 39/3/39 36/2/36 35/2/35 
f 56/2/56 26/1/26 25/1/25 
f 25/1/25 57/2/57 56/2/56 
usemtl CanopyGlass
s 8388608
f 6/2/6 5/1/5 66/1/66 
f 66/1/66 70/2/70 6/2/6 
f 135/2/225 136/3/226 86/3/86 
f 86/3/86 90/2/90 135/2/225 
usemtl CanopyFrame
s 2147483647
f 95/2/95 96/3/96 12/3/12 
f 12/3/12 11/2/11 95/2/95 
f 118/3/118 121/3/121 117/2/117 
f 117/2/117 116/2/116 118/3/118 
f 4/2/128 127/3/130 118/3/118 
f 118/3/118 116/2/116 4/2/128 
usemtl CanopyGlass
f 67/1/141 33/1/33 36/2/36 
f 36/2/36 71/2/139 67/1/141 
usemtl CanopyFrame
f 137/1/153 101/1/101 10/2/10 
f 10/2/10 135/2/150 137/1/153 
f 91/2/155 85/3/157 58/3/58 
f 58/3/58 57/2/57 91/2/155 
f 148/2/168 150/3/170 40/3/40 
f 40/3/40 35/2/35 148/2/168 
f 140/1/160 26/1/26 56/2/56 
f 56/2/56 160/2/180 140/1/160 
f 121/3/121 180/3/204 179/2/203 
f 179/2/203 117/2/117 121/3/121 
usemtl CanopyGlass
s 8388608
f 14/4/14 127/3/227 195/3/228 
f 195/3/228 15/4/15 14/4/14 
f 17/4/17 191/3/221 194/3/224 
f 194/3/224 18/4/18 17/4/17 
usemtl CanopyFrame
s 2147483647
f 170/1/192 134/1/149 22/4/22 
f 22/4/22 21/4/21 170/1/192 
f 44/1/44 43/1/43 38/4/38 
f 38/4/38 37/4/37 44/1/44 
f 55/3/55 58/3/58 52/4/52 
f 52/4/52 51/4/51 55/3/55 
usemtl CanopyGlass
s 8388608
f 18/4/18 194/3/224 69/3/69 
f 69/3/69 74/4/74 18/4/18 
f 132/1/229 138/1/230 87/4/87 
f 87/4/87 133/4/231 132/1/229 
usemtl CanopyFrame
s 2147483647
f 97/4/97 189/1/217 170/1/192 
f 170/1/192 21/4/21 97/4/97 
f 119/4/119 123/1/123 126/1/126 
f 126/1/126 120/4/120 119/4/119 
f 13/1/131 123/1/123 119/4/119 
f 119/4/119 14/4/129 13/1/131 
usemtl CanopyGlass
f 75/4/138 68/3/140 39/3/39 
f 39/3/39 38/4/38 75/4/138 
usemtl CanopyFrame
f 133/4/148 136/3/151 9/3/9 
f 9/3/9 22/4/22 133/4/148 
usemtl CanopyGlass
f 139/1/159 53/1/53 52/4/52 
f 52/4/52 88/4/156 139/1/159 
usemtl CanopyFrame
f 151/1/171 44/1/44 37/4/37 
f 37/4/37 149/4/169 151/1/171 
f 159/4/179 161/3/181 55/3/55 
f 55/3/55 51/4/51 159/4/179 
f 120/4/120 126/1/126 168/1/188 
f 168/1/188 181/4/205 120/4/120 
f 108/1/108 184/1/209 163/1/183 
f 163/1/183 109/1/109 108/1/108 
usemtl CanopyGlass
s 8388608
f 171/1/213 185/1/212 111/1/111 
f 111/1/111 110/1/110 171/1/213 
usemtl CanopyFrame
s 2147483647
f 187/1/215 184/1/209 108/1/108 
f 108/1/108 156/1/176 187/1/215 
f 105/1/218 189/1/217 168/1/188 
f 168/1/188 167/1/187 105/1/218 
f 190/1/220 99/1/99 174/1/198 
f 174/1/198 173/1/197 190/1/220 
f 178/1/202 114/1/114 117/2/117 
f 117/2/117 179/2/203 178/1/202 
f 121/3/121 120/4/120 181/4/205 
f 181/4/205 180/3/204 121/3/121 
f 182/1/206 122/1/122 61/1/61 
f 61/1/61 174/1/198 182/1/206 
usemtl CanopyGlass
s 8388608
f 169/1/232 165/1/233 183/1/208 
f 183/1/208 167/1/207 169/1/232 
usemtl CanopyFrame
s 2147483647
f 143/1/163 122/1/122 182/1/206 
f 182/1/206 186/1/214 143/1/163 
f 166/1/186 48/1/48 109/1/109 
f 109/1/109 188/1/216 166/1/186 
f 113/1/195 114/1/114 178/1/202 
f 178/1/202 110/1/219 113/1/195 
f 180/3/204 96/3/96 95/2/95 
f 95/2/95 179/2/203 180/3/204 
f 189/1/217 97/4/97 181/4/205 
f 181/4/205 168/1/188 189/1/217 
usemtl CanopyGlass
s 8388608
f 2/1/2 196/1/234 193/2/223 
f 193/2/223 3/2/3 2/1/2 
f 197/4/235 198/1/236 16/1/16 
f 16/1/16 15/4/15 197/4/235 
usemtl CanopyFrame
s 2147483647
f 27/1/27 199/1/237 129/1/144 
f 129/1/144 28/1/28 27/1/27 
f 200/1/238 50/1/50 49/1/49 
f 49/1/49 128/1/135 200/1/238 
usemtl CanopyGlass
s 8388608
f 1/1/1 130/1/239 201/1/240 
f 201/1/240 2/1/2 1/1/1 
f 198/1/236 202/1/241 79/1/79 
f 79/1/79 16/1/16 198/1/236 
usemtl CanopyFrame
s 2147483647
f 203/1/242 46/1/46 128/1/135 
f 128/1/135 80/1/134 203/1/242 
f 131/1/146 29/1/29 28/1/28 
f 28/1/28 204/1/243 131/1/146 
f 205/1/244 199/1/237 27/1/27 
f 27/1/27 145/1/165 205/1/244 
f 154/1/174 50/1/50 200/1/238 
f 200/1/238 206/1/245 154/1/174 
usemtl CanopyGlass
s 8388608
f 195/3/228 127/3/227 4/2/4 
f 4/2/4 3/2/3 195/3/228 
f 192/3/222 197/4/235 15/4/15 
f 15/4/15 195/3/228 192/3/222 
usemtl CanopyFrame
s 2147483647
f 200/1/238 128/1/135 46/1/46 
f 46/1/46 45/1/45 200/1/238 
usemtl CanopyGlass
s 8388608
f 196/1/234 2/1/2 201/1/240 
f 201/1/240 63/1/63 196/1/234 
usemtl CanopyFrame
s 2147483647
f 204/1/243 28/1/28 129/1/144 
f 129/1/144 64/1/143 204/1/243 
f 206/1/245 200/1/238 45/1/45 
f 45/1/45 153/1/173 206/1/245 
usemtl CanopyGlass
s 8388608
f 192/3/222 195/3/228 3/2/3 
f 3/2/3 193/2/223 192/3/222 
f 196/1/234 8/1/8 7/2/7 
f 7/2/7 193/2/223 196/1/234 
f 17/4/17 20/1/20 198/1/236 
f 198/1/236 197/4/235 17/4/17 
usemtl CanopyFrame
s 2147483647
f 199/1/237 31/1/31 34/1/34 
f 34/1/34 129/1/144 199/1/237 
usemtl CanopyGlass
s 8388608
f 20/1/20 77/1/77 202/1/241 
f 202/1/241 198/1/236 20/1/20 
usemtl CanopyFrame
s 2147483647
f 76/1/136 42/1/42 46/1/46 
f 46/1/46 203/1/242 76/1/136 
f 146/1/166 31/1/31 199/1/237 
f 199/1/237 205/1/244 146/1/166 
usemtl CanopyGlass
s 8388608
f 191/3/221 17/4/17 197/4/235 
f 197/4/235 192/3/222 191/3/221 
usemtl CanopyFrame
s 2147483647
f 115/1/115 114/1/114 60/1/60 
f 60/1/60 59/1/59 115/1/115 
usemtl CanopyGlass
s 8388608
f 8/1/8 196/1/234 63/1/63 
f 63/1/63 62/1/62 8/1/8 
f 5/1/5 8/1/8 62/1/62 
f 62/1/62 66/1/66 5/1/5 
f 69/3/69 194/3/224 6/2/6 
f 6/2/6 70/2/70 69/3/69 
f 73/1/73 19/1/19 18/4/18 
f 18/4/18 74/4/74 73/1/73 
f 77/1/77 20/1/20 19/1/19 
f 19/1/19 73/1/73 77/1/77 
f 13/1/13 16/1/16 79/1/79 
f 79/1/79 78/1/78 13/1/13 
usemtl CanopyFrame
s 2147483647
f 134/1/149 170/1/192 83/1/83 
f 83/1/83 82/1/82 134/1/149 
usemtl CanopyGlass
s 8388608
f 86/3/86 136/3/226 133/4/231 
f 133/4/231 87/4/87 86/3/86 
f 137/1/246 135/2/225 90/2/90 
f 90/2/90 89/1/89 137/1/246 
usemtl CanopyFrame
s 2147483647
f 102/1/102 25/1/25 24/1/24 
f 24/1/24 103/1/103 102/1/102 
usemtl CanopyGlass
s 8388608
f 162/1/247 164/1/248 107/1/107 
f 107/1/107 106/1/106 162/1/247 
f 173/1/249 175/1/250 112/1/112 
f 112/1/112 111/1/111 173/1/249 
usemtl CanopyFrame
s 2147483647
f 124/1/124 49/1/49 48/1/48 
f 48/1/48 125/1/125 124/1/124 
f 78/1/132 81/1/133 49/1/49 
f 49/1/49 124/1/124 78/1/132 
f 1/1/127 115/1/115 59/1/59 
f 59/1/59 130/1/145 1/1/127 
f 92/1/154 25/1/25 102/1/102 
f 102/1/102 89/1/152 92/1/154 
f 132/1/147 134/1/149 82/1/82 
f 82/1/82 138/1/158 132/1/147 
f 169/1/189 126/1/126 125/1/125 
f 125/1/125 165/1/185 169/1/189 
f 107/1/191 164/1/184 84/1/84 
f 84/1/84 83/1/83 107/1/191 
f 175/1/199 61/1/61 60/1/60 
f 60/1/60 112/1/196 175/1/199 
f 172/1/194 93/1/93 103/1/103 
f 103/1/103 176/1/200 172/1/194 
usemtl CanopyGlass
s 8388608
f 188/1/251 162/1/247 106/1/106 
f 106/1/106 183/1/208 188/1/251 
f 176/1/211 177/1/252 190/1/253 
f 190/1/253 185/1/212 176/1/211 
f 67/1/67 71/2/71 70/2/70 
f 70/2/70 66/1/66 67/1/67 
f 85/3/85 91/2/91 90/2/90 
f 90/2/90 86/3/86 85/3/85 
f 68/3/68 75/4/75 74/4/74 
f 74/4/74 69/3/69 68/3/68 
f 138/1/230 139/1/254 88/4/88 
f 88/4/88 87/4/87 138/1/230 
f 185/1/212 190/1/253 173/1/249 
f 173/1/249 111/1/111 185/1/212 
f 165/1/233 166/1/255 188/1/251 
f 188/1/251 183/1/208 165/1/233 
f 130/1/239 131/1/256 204/1/257 
f 204/1/257 201/1/240 130/1/239 
f 202/1/241 203/1/258 80/1/80 
f 80/1/80 79/1/79 202/1/241 
f 204/1/257 64/1/64 63/1/63 
f 63/1/63 201/1/240 204/1/257 
f 77/1/77 76/1/76 203/1/258 
f 203/1/258 202/1/241 77/1/77 
# 384 faces

