# 3ds Max Wavefront OBJ Exporter v0.97b - (c)2007 guruware
# File Created: 19.11.2015 15:34:38

mtllib P-47_leftWing.mtl

#
# object leftWing
#

v  -19.1420 0.2801 1.4163
v  -19.4996 0.3510 0.9037
v  -19.4996 0.2949 0.9037
v  -19.1420 0.2476 1.4270
v  -19.8021 0.3640 0.2726
v  -19.8021 0.2868 0.2726
v  -19.9533 0.3729 -0.3187
v  -19.9533 0.2851 -0.3187
v  -19.9442 0.3768 -0.6789
v  -19.9442 0.2863 -0.6789
v  -19.9345 0.3810 -1.0638
v  -19.7814 0.3773 -1.3351
v  -19.7814 0.2905 -1.3351
v  -19.9345 0.2876 -1.0638
v  -19.6371 0.2933 -1.5912
v  -19.6371 0.3738 -1.5912
v  -19.2795 0.3344 -1.9999
v  -19.2795 0.2786 -1.9945
v  -2.9356 -1.4792 -3.5395
v  -2.9356 -1.8114 -3.5278
v  -6.9458 -1.3161 -3.2492
v  -6.9458 -1.0414 -3.2599
v  -2.9356 -1.9830 -2.5536
v  -6.9458 -1.4579 -2.3613
v  -2.9356 -2.0194 -1.8627
v  -6.9458 -1.4879 -1.7313
v  -2.9356 -2.0746 -0.2085
v  -6.9458 -1.5337 -0.2235
v  -6.9458 -1.5199 -1.0635
v  -2.9356 -2.0580 -1.1300
v  -2.9356 -2.0901 0.6537
v  -2.9356 -2.0687 2.4023
v  -6.9458 -1.5287 2.1564
v  -6.9458 -1.5464 0.5624
v  -2.9356 -1.9614 4.1161
v  -6.9458 -1.4402 3.7187
v  -2.9356 -1.6828 5.5339
v  -6.9458 -1.2098 5.1178
v  -2.9356 -1.4899 5.5105
v  -6.9458 -1.0503 5.0964
v  -2.9356 -1.2219 4.1161
v  -6.9458 -0.8288 3.7187
v  -2.9356 -1.0505 2.4023
v  -6.9458 -0.6870 2.1564
v  -2.9356 -0.9326 0.6537
v  -6.9458 -0.5897 0.5624
v  -2.9356 -0.8807 -0.2085
v  -6.9458 -0.5469 -0.2235
v  -2.9356 -0.8254 -1.1300
v  -2.9356 -0.8751 -1.8627
v  -6.9458 -0.5421 -1.7313
v  -6.9458 -0.5010 -1.0635
v  -2.9356 -0.9219 -2.5536
v  -6.9458 -0.5808 -2.3613
v  -10.5208 -0.6513 -3.0106
v  -10.5208 -0.8746 -3.0009
v  -15.7920 -0.1830 -2.5417
v  -15.7920 -0.0570 -2.5485
v  -10.5208 -0.9898 -2.1897
v  -15.7920 -0.2837 -1.9658
v  -10.5208 -1.0143 -1.6144
v  -15.7920 -0.2975 -1.5573
v  -10.5208 -1.0402 -1.0042
v  -10.5208 -1.0514 -0.2370
v  -15.7920 -0.3184 -0.5795
v  -15.7920 -0.3121 -1.1243
v  -10.5208 -1.0618 0.4810
v  -10.5208 -1.0473 1.9372
v  -15.7920 -0.3162 0.9639
v  -15.7920 -0.3243 -0.0698
v  -10.5208 -0.9754 3.3643
v  -15.7920 -0.2756 2.1435
v  -10.5208 -0.7881 4.5449
v  -15.7920 -0.1411 3.2571
v  -10.5208 -0.6584 4.5253
v  -15.7920 -0.0679 3.2433
v  -10.5208 -0.4784 3.3643
v  -15.7920 0.0050 2.1435
v  -10.5208 -0.3632 1.9372
v  -15.7920 0.0700 0.9639
v  -10.5208 -0.2840 0.4810
v  -15.7920 0.1147 -0.0698
v  -10.5208 -0.2491 -0.2370
v  -15.7920 0.1344 -0.5795
v  -10.5208 -0.2452 -1.6144
v  -15.7920 0.1366 -1.5573
v  -15.7920 0.1554 -1.1243
v  -10.5208 -0.2119 -1.0042
v  -10.5208 -0.2767 -2.1897
v  -15.7920 0.1187 -1.9658
v  -18.7110 0.2721 -2.2925
v  -18.7110 0.1999 -2.2873
v  -18.7110 0.1073 -1.8418
v  -18.7110 0.0994 -1.5257
v  -18.7110 0.0874 -0.7693
v  -18.7110 0.0909 -1.1907
v  -18.7110 0.0841 -0.3749
v  -18.7110 0.0886 0.4250
v  -18.7110 0.1120 1.2087
v  -18.7110 0.2171 1.8571
v  -18.7110 0.2590 1.8464
v  -18.7110 0.2726 1.2087
v  -18.7110 0.3098 0.4250
v  -18.7110 0.3354 -0.3749
v  -18.7110 0.3467 -0.7693
v  -18.7110 0.3588 -1.1907
v  -18.7110 0.3479 -1.5257
v  -18.7110 0.3377 -1.8418
# 108 vertices

vn -0.5898 0.6057 0.5341
vn -0.5780 0.7294 0.3658
vn -0.7069 -0.5943 0.3836
vn -0.6790 -0.5041 0.5337
vn -0.6622 0.7033 0.2587
vn -0.7381 -0.6213 0.2630
vn -0.7186 0.6893 0.0923
vn -0.7780 -0.6222 0.0872
vn -0.6971 0.7169 -0.0086
vn -0.7613 -0.6481 -0.0214
vn -0.7188 0.6668 -0.1970
vn -0.6059 0.7127 -0.3536
vn -0.6754 -0.6307 -0.3822
vn -0.7714 -0.6003 -0.2111
vn -0.6625 -0.5941 -0.4562
vn -0.5758 0.6949 -0.4308
vn -0.4446 0.6191 -0.6474
vn -0.5260 -0.5973 -0.6054
vn -0.0131 0.4512 -0.8923
vn -0.1331 -0.6634 -0.7363
vn -0.1336 -0.6553 -0.7435
vn -0.0084 0.5034 -0.8640
vn -0.1328 -0.9848 -0.1124
vn -0.1333 -0.9859 -0.1014
vn -0.1325 -0.9898 -0.0519
vn -0.1327 -0.9900 -0.0473
vn -0.1336 -0.9909 -0.0176
vn -0.1336 -0.9909 -0.0160
vn -0.1333 -0.9906 -0.0318
vn -0.1331 -0.9905 -0.0349
vn -0.1341 -0.9910 -0.0028
vn -0.1347 -0.9902 0.0372
vn -0.1350 -0.9903 0.0332
vn -0.1341 -0.9910 -0.0026
vn -0.1358 -0.9826 0.1267
vn -0.1388 -0.9843 0.1087
vn -0.1519 -0.5914 0.7919
vn -0.1748 -0.5772 0.7977
vn -0.0088 0.6404 0.7680
vn -0.0227 0.6923 0.7212
vn 0.0869 0.9858 0.1436
vn 0.0842 0.9886 0.1245
vn 0.0864 0.9928 0.0827
vn 0.0857 0.9935 0.0752
vn 0.0846 0.9944 0.0627
vn 0.0840 0.9948 0.0572
vn 0.0831 0.9948 0.0594
vn 0.0824 0.9951 0.0541
vn 0.0815 0.9967 -0.0046
vn 0.0808 0.9945 -0.0671
vn 0.0806 0.9949 -0.0612
vn 0.0808 0.9967 -0.0032
vn 0.0717 0.9535 -0.2927
vn 0.0716 0.9623 -0.2622
vn -0.0135 0.5192 -0.8546
vn -0.1424 -0.6616 -0.7362
vn -0.1489 -0.6552 -0.7406
vn -0.0147 0.5720 -0.8201
vn -0.1358 -0.9865 -0.0914
vn -0.1377 -0.9851 -0.1032
vn -0.1339 -0.9901 -0.0421
vn -0.1352 -0.9903 -0.0333
vn -0.1348 -0.9905 -0.0280
vn -0.1353 -0.9907 -0.0144
vn -0.1370 -0.9905 -0.0115
vn -0.1364 -0.9904 -0.0223
vn -0.1362 -0.9907 -0.0021
vn -0.1383 -0.9899 0.0301
vn -0.1410 -0.9898 0.0208
vn -0.1381 -0.9904 -0.0020
vn -0.1452 -0.9839 0.1038
vn -0.1563 -0.9845 0.0793
vn -0.2258 -0.5691 0.7907
vn -0.3341 -0.5481 0.7667
vn -0.0676 0.7001 0.7108
vn -0.1667 0.7308 0.6619
vn 0.0785 0.9902 0.1159
vn 0.0757 0.9953 0.0602
vn 0.0785 0.9946 0.0672
vn 0.0725 0.9962 0.0491
vn 0.0772 0.9957 0.0512
vn 0.0715 0.9966 0.0405
vn 0.0763 0.9959 0.0482
vn 0.0700 0.9968 0.0385
vn 0.0759 0.9956 -0.0543
vn 0.0717 0.9965 -0.0431
vn 0.0702 0.9975 -0.0029
vn 0.0756 0.9971 -0.0023
vn 0.0704 0.9692 -0.2359
vn 0.0720 0.9839 -0.1637
vn -0.1756 0.5932 -0.7856
vn -0.2836 -0.6059 -0.7433
vn -0.1821 -0.9761 -0.1185
vn -0.1637 -0.9861 -0.0286
vn -0.1483 -0.9889 -0.0083
vn -0.1527 -0.9881 -0.0202
vn -0.1521 -0.9884 0.0012
vn -0.1709 -0.9850 0.0254
vn -0.1978 -0.9765 0.0857
vn -0.5173 -0.4907 0.7011
vn -0.3445 0.7512 0.5630
vn 0.0789 0.9964 0.0302
vn 0.0564 0.9977 0.0383
vn 0.0504 0.9983 0.0297
vn 0.0469 0.9985 0.0281
vn 0.0457 0.9990 -0.0023
vn 0.0490 0.9983 -0.0310
vn 0.0499 0.9950 -0.0869
# 108 vertex normals

vt 0.0921 0.6525 0.0000
vt 0.0856 0.6607 0.0000
vt 0.0921 0.6523 0.0000
vt 0.0800 0.6708 0.0000
vt 0.0772 0.6803 0.0000
vt 0.0774 0.6861 0.0000
vt 0.0776 0.6923 0.0000
vt 0.0804 0.6966 0.0000
vt 0.0830 0.7007 0.0000
vt 0.0896 0.7073 0.0000
vt 0.0896 0.7072 0.0000
vt 0.3887 0.7320 0.0000
vt 0.3887 0.7318 0.0000
vt 0.3153 0.7273 0.0000
vt 0.3153 0.7275 0.0000
vt 0.3887 0.7161 0.0000
vt 0.3153 0.7131 0.0000
vt 0.3887 0.7051 0.0000
vt 0.3153 0.7030 0.0000
vt 0.3887 0.6785 0.0000
vt 0.3153 0.6788 0.0000
vt 0.3153 0.6922 0.0000
vt 0.3887 0.6933 0.0000
vt 0.3887 0.6647 0.0000
vt 0.3887 0.6367 0.0000
vt 0.3153 0.6406 0.0000
vt 0.3153 0.6662 0.0000
vt 0.3887 0.6092 0.0000
vt 0.3153 0.6155 0.0000
vt 0.3887 0.5864 0.0000
vt 0.3153 0.5931 0.0000
vt 0.4941 0.9288 0.0000
vt 0.5789 0.9200 0.0000
vt 0.5789 0.9205 0.0000
vt 0.4941 0.9293 0.0000
vt 0.4941 0.8993 0.0000
vt 0.5789 0.8909 0.0000
vt 0.4941 0.8631 0.0000
vt 0.5789 0.8579 0.0000
vt 0.4941 0.8261 0.0000
vt 0.5789 0.8242 0.0000
vt 0.4941 0.8079 0.0000
vt 0.5789 0.8075 0.0000
vt 0.4941 0.7884 0.0000
vt 0.4941 0.7729 0.0000
vt 0.5789 0.7757 0.0000
vt 0.5789 0.7898 0.0000
vt 0.4941 0.7583 0.0000
vt 0.4941 0.7374 0.0000
vt 0.5789 0.7434 0.0000
vt 0.5789 0.7624 0.0000
vt 0.2499 0.7235 0.0000
vt 0.2499 0.7233 0.0000
vt 0.1534 0.7160 0.0000
vt 0.1534 0.7161 0.0000
vt 0.2499 0.7103 0.0000
vt 0.1534 0.7067 0.0000
vt 0.2499 0.7011 0.0000
vt 0.1534 0.7002 0.0000
vt 0.2499 0.6913 0.0000
vt 0.2499 0.6790 0.0000
vt 0.1534 0.6845 0.0000
vt 0.1534 0.6932 0.0000
vt 0.2499 0.6675 0.0000
vt 0.2499 0.6441 0.0000
vt 0.1534 0.6597 0.0000
vt 0.1534 0.6763 0.0000
vt 0.2499 0.6212 0.0000
vt 0.1534 0.6408 0.0000
vt 0.2499 0.6023 0.0000
vt 0.1534 0.6230 0.0000
vt 0.6544 0.9079 0.0000
vt 0.7659 0.8808 0.0000
vt 0.7659 0.8811 0.0000
vt 0.6544 0.9084 0.0000
vt 0.6544 0.8834 0.0000
vt 0.7659 0.8576 0.0000
vt 0.6544 0.8532 0.0000
vt 0.7659 0.8327 0.0000
vt 0.6544 0.8224 0.0000
vt 0.7659 0.8108 0.0000
vt 0.6544 0.8073 0.0000
vt 0.7659 0.8000 0.0000
vt 0.6544 0.7781 0.0000
vt 0.7659 0.7794 0.0000
vt 0.7659 0.7885 0.0000
vt 0.6544 0.7910 0.0000
vt 0.6544 0.7660 0.0000
vt 0.6544 0.7486 0.0000
vt 0.7659 0.7584 0.0000
vt 0.7659 0.7707 0.0000
vt 0.1000 0.7120 0.0000
vt 0.1000 0.7119 0.0000
vt 0.1000 0.7047 0.0000
vt 0.1000 0.6997 0.0000
vt 0.1000 0.6875 0.0000
vt 0.1000 0.6943 0.0000
vt 0.1000 0.6812 0.0000
vt 0.1000 0.6684 0.0000
vt 0.1000 0.6558 0.0000
vt 0.1000 0.6454 0.0000
vt 0.8276 0.8515 0.0000
vt 0.8276 0.8513 0.0000
vt 0.8367 0.8422 0.0000
vt 0.8367 0.8424 0.0000
vt 0.8276 0.8378 0.0000
vt 0.8442 0.8314 0.0000
vt 0.8276 0.8213 0.0000
vt 0.8506 0.8180 0.0000
vt 0.8276 0.8044 0.0000
vt 0.8538 0.8055 0.0000
vt 0.8276 0.7960 0.0000
vt 0.8536 0.7979 0.0000
vt 0.8276 0.7871 0.0000
vt 0.8276 0.7800 0.0000
vt 0.8502 0.7840 0.0000
vt 0.8534 0.7898 0.0000
vt 0.8276 0.7733 0.0000
vt 0.8276 0.7638 0.0000
vt 0.8396 0.7700 0.0000
vt 0.8472 0.7786 0.0000
# 121 texture coords

g leftWing
usemtl Fuselage
s 8388608
f 1/1/1 2/2/2 3/2/3 
f 3/2/3 4/3/4 1/1/1 
f 2/2/2 5/4/5 6/4/6 
f 6/4/6 3/2/3 2/2/2 
f 5/4/5 7/5/7 8/5/8 
f 8/5/8 6/4/6 5/4/5 
f 7/5/7 9/6/9 10/6/10 
f 10/6/10 8/5/8 7/5/7 
f 11/7/11 12/8/12 13/8/13 
f 13/8/13 14/7/14 11/7/11 
f 15/9/15 16/9/16 17/10/17 
f 17/10/17 18/11/18 15/9/15 
f 19/12/19 20/13/20 21/14/21 
f 21/14/21 22/15/22 19/12/19 
f 23/16/23 24/17/24 21/14/21 
f 21/14/21 20/13/20 23/16/23 
f 25/18/25 26/19/26 24/17/24 
f 24/17/24 23/16/23 25/18/25 
f 27/20/27 28/21/28 29/22/29 
f 29/22/29 30/23/30 27/20/27 
f 31/24/31 32/25/32 33/26/33 
f 33/26/33 34/27/34 31/24/31 
f 32/25/32 35/28/35 36/29/36 
f 36/29/36 33/26/33 32/25/32 
f 35/28/35 37/30/37 38/31/38 
f 38/31/38 36/29/36 35/28/35 
f 39/32/39 40/33/40 38/34/38 
f 38/34/38 37/35/37 39/32/39 
f 41/36/41 42/37/42 40/33/40 
f 40/33/40 39/32/39 41/36/41 
f 43/38/43 44/39/44 42/37/42 
f 42/37/42 41/36/41 43/38/43 
f 45/40/45 46/41/46 44/39/44 
f 44/39/44 43/38/43 45/40/45 
f 47/42/47 48/43/48 46/41/46 
f 46/41/46 45/40/45 47/42/47 
f 49/44/49 50/45/50 51/46/51 
f 51/46/51 52/47/52 49/44/49 
f 53/48/53 19/49/19 22/50/22 
f 22/50/22 54/51/54 53/48/53 
f 55/52/55 56/53/56 57/54/57 
f 57/54/57 58/55/58 55/52/55 
f 59/56/59 60/57/60 57/54/57 
f 57/54/57 56/53/56 59/56/59 
f 61/58/61 62/59/62 60/57/60 
f 60/57/60 59/56/59 61/58/61 
f 63/60/63 64/61/64 65/62/65 
f 65/62/65 66/63/66 63/60/63 
f 67/64/67 68/65/68 69/66/69 
f 69/66/69 70/67/70 67/64/67 
f 68/65/68 71/68/71 72/69/72 
f 72/69/72 69/66/69 68/65/68 
f 71/68/71 73/70/73 74/71/74 
f 74/71/74 72/69/72 71/68/71 
f 75/72/75 76/73/76 74/74/74 
f 74/74/74 73/75/73 75/72/75 
f 77/76/77 78/77/78 76/73/76 
f 76/73/76 75/72/75 77/76/77 
f 79/78/79 80/79/80 78/77/78 
f 78/77/78 77/76/77 79/78/79 
f 81/80/81 82/81/82 80/79/80 
f 80/79/80 79/78/79 81/80/81 
f 83/82/83 84/83/84 82/81/82 
f 82/81/82 81/80/81 83/82/83 
f 85/84/85 86/85/86 87/86/87 
f 87/86/87 88/87/88 85/84/85 
f 89/88/89 55/89/55 58/90/58 
f 58/90/58 90/91/90 89/88/89 
f 91/92/91 92/93/92 18/11/18 
f 18/11/18 17/10/17 91/92/91 
f 92/93/92 93/94/93 15/9/15 
f 15/9/15 18/11/18 92/93/92 
f 94/95/94 13/8/13 15/9/15 
f 15/9/15 93/94/93 94/95/94 
f 95/96/95 10/6/10 14/7/14 
f 14/7/14 96/97/96 95/96/95 
f 97/98/97 98/99/98 6/4/6 
f 6/4/6 8/5/8 97/98/97 
f 98/99/98 99/100/99 3/2/3 
f 3/2/3 6/4/6 98/99/98 
f 99/100/99 100/101/100 4/3/4 
f 4/3/4 3/2/3 99/100/99 
f 100/102/100 101/103/101 1/104/1 
f 1/104/1 4/105/4 100/102/100 
f 101/103/101 102/106/102 2/107/2 
f 2/107/2 1/104/1 101/103/101 
f 102/106/102 103/108/103 5/109/5 
f 5/109/5 2/107/2 102/106/102 
f 103/108/103 104/110/104 7/111/7 
f 7/111/7 5/109/5 103/108/103 
f 104/110/104 105/112/105 9/113/9 
f 9/113/9 7/111/7 104/110/104 
f 106/114/106 107/115/107 12/116/12 
f 12/116/12 11/117/11 106/114/106 
f 108/118/108 91/119/91 17/120/17 
f 17/120/17 16/121/16 108/118/108 
f 92/93/92 91/92/91 58/55/58 
f 58/55/58 57/54/57 92/93/92 
f 60/57/60 93/94/93 92/93/92 
f 92/93/92 57/54/57 60/57/60 
f 96/97/96 94/95/94 62/59/62 
f 62/59/62 66/63/66 96/97/96 
f 97/98/97 95/96/95 65/62/65 
f 65/62/65 70/67/70 97/98/97 
f 98/99/98 97/98/97 70/67/70 
f 70/67/70 69/66/69 98/99/98 
f 99/100/99 98/99/98 69/66/69 
f 69/66/69 72/69/72 99/100/99 
f 100/101/100 99/100/99 72/69/72 
f 72/69/72 74/71/74 100/101/100 
f 76/73/76 101/103/101 100/102/100 
f 100/102/100 74/74/74 76/73/76 
f 78/77/78 102/106/102 101/103/101 
f 101/103/101 76/73/76 78/77/78 
f 80/79/80 103/108/103 102/106/102 
f 102/106/102 78/77/78 80/79/80 
f 82/81/82 104/110/104 103/108/103 
f 103/108/103 80/79/80 82/81/82 
f 87/86/87 106/114/106 105/112/105 
f 105/112/105 84/83/84 87/86/87 
f 108/118/108 107/115/107 86/85/86 
f 86/85/86 90/91/90 108/118/108 
f 91/119/91 108/118/108 90/91/90 
f 90/91/90 58/90/58 91/119/91 
f 56/53/56 55/52/55 22/15/22 
f 22/15/22 21/14/21 56/53/56 
f 24/17/24 59/56/59 56/53/56 
f 56/53/56 21/14/21 24/17/24 
f 29/22/29 63/60/63 61/58/61 
f 61/58/61 26/19/26 29/22/29 
f 67/64/67 64/61/64 28/21/28 
f 28/21/28 34/27/34 67/64/67 
f 68/65/68 67/64/67 34/27/34 
f 34/27/34 33/26/33 68/65/68 
f 71/68/71 68/65/68 33/26/33 
f 33/26/33 36/29/36 71/68/71 
f 73/70/73 71/68/71 36/29/36 
f 36/29/36 38/31/38 73/70/73 
f 40/33/40 75/72/75 73/75/73 
f 73/75/73 38/34/38 40/33/40 
f 42/37/42 77/76/77 75/72/75 
f 75/72/75 40/33/40 42/37/42 
f 44/39/44 79/78/79 77/76/77 
f 77/76/77 42/37/42 44/39/44 
f 46/41/46 81/80/81 79/78/79 
f 79/78/79 44/39/44 46/41/46 
f 88/87/88 83/82/83 48/43/48 
f 48/43/48 52/47/52 88/87/88 
f 89/88/89 85/84/85 51/46/51 
f 51/46/51 54/51/54 89/88/89 
f 55/89/55 89/88/89 54/51/54 
f 54/51/54 22/50/22 55/89/55 
f 16/9/16 15/9/15 13/8/13 
f 13/8/13 12/8/12 16/9/16 
f 30/23/30 29/22/29 26/19/26 
f 26/19/26 25/18/25 30/23/30 
f 50/45/50 53/48/53 54/51/54 
f 54/51/54 51/46/51 50/45/50 
f 63/60/63 66/63/66 62/59/62 
f 62/59/62 61/58/61 63/60/63 
f 85/84/85 89/88/89 90/91/90 
f 90/91/90 86/85/86 85/84/85 
f 96/97/96 14/7/14 13/8/13 
f 13/8/13 94/95/94 96/97/96 
f 107/115/107 108/118/108 16/121/16 
f 16/121/16 12/116/12 107/115/107 
f 93/94/93 60/57/60 62/59/62 
f 62/59/62 94/95/94 93/94/93 
f 106/114/106 87/86/87 86/85/86 
f 86/85/86 107/115/107 106/114/106 
f 59/56/59 24/17/24 26/19/26 
f 26/19/26 61/58/61 59/56/59 
f 85/84/85 88/87/88 52/47/52 
f 52/47/52 51/46/51 85/84/85 
f 11/7/11 14/7/14 10/6/10 
f 10/6/10 9/6/9 11/7/11 
f 27/20/27 31/24/31 34/27/34 
f 34/27/34 28/21/28 27/20/27 
f 49/44/49 52/47/52 48/43/48 
f 48/43/48 47/42/47 49/44/49 
f 64/61/64 67/64/67 70/67/70 
f 70/67/70 65/62/65 64/61/64 
f 88/87/88 87/86/87 84/83/84 
f 84/83/84 83/82/83 88/87/88 
f 97/98/97 8/5/8 10/6/10 
f 10/6/10 95/96/95 97/98/97 
f 105/112/105 106/114/106 11/117/11 
f 11/117/11 9/113/9 105/112/105 
f 95/96/95 96/97/96 66/63/66 
f 66/63/66 65/62/65 95/96/95 
f 104/110/104 82/81/82 84/83/84 
f 84/83/84 105/112/105 104/110/104 
f 63/60/63 29/22/29 28/21/28 
f 28/21/28 64/61/64 63/60/63 
f 81/80/81 46/41/46 48/43/48 
f 48/43/48 83/82/83 81/80/81 
# 196 faces

