# 3ds Max Wavefront OBJ Exporter v0.97b - (c)2007 guruware
# File Created: 27.11.2015 13:36:07

mtllib P-47_rightWheels_2.mtl

#
# object Cylinder01
#

v  6.5031 -3.8383 0.8031
v  6.5031 -4.7144 0.5383
v  6.5031 -4.7707 0.8031
v  6.5031 -4.5525 0.3056
v  6.5031 -4.3044 0.1328
v  6.5031 -4.0002 0.0409
v  6.5031 -3.6764 0.0409
v  6.5031 -3.3721 0.1328
v  6.5031 -3.1242 0.3056
v  6.5031 -2.9622 0.5383
v  6.5031 -2.9059 0.8031
v  6.5031 -2.9622 1.0678
v  6.5031 -3.1242 1.3006
v  6.5031 -3.3721 1.4734
v  6.5031 -3.6764 1.5652
v  6.5031 -4.0002 1.5652
v  6.5031 -4.3044 1.4734
v  6.5031 -4.5525 1.3006
v  6.5031 -4.7144 1.0678
v  6.5783 -4.7144 0.5383
v  6.5783 -4.7707 0.8031
v  6.5783 -4.5525 0.3056
v  6.5783 -4.3044 0.1328
v  6.5783 -4.0002 0.0409
v  6.5783 -3.6764 0.0409
v  6.5783 -3.3721 0.1328
v  6.5783 -3.1242 0.3056
v  6.5783 -2.9622 0.5383
v  6.5783 -2.9059 0.8031
v  6.5783 -2.9622 1.0678
v  6.5783 -3.1242 1.3006
v  6.5783 -3.3721 1.4734
v  6.5783 -3.6764 1.5652
v  6.5783 -4.0002 1.5652
v  6.5783 -4.3044 1.4734
v  6.5783 -4.5525 1.3006
v  6.5783 -4.7144 1.0678
v  6.6534 -4.7144 0.5383
v  6.6534 -4.7707 0.8031
v  6.6534 -4.5525 0.3056
v  6.6534 -4.3044 0.1328
v  6.6534 -4.0002 0.0409
v  6.6534 -3.6764 0.0409
v  6.6534 -3.3721 0.1328
v  6.6534 -3.1242 0.3056
v  6.6534 -2.9622 0.5383
v  6.6534 -2.9059 0.8031
v  6.6534 -2.9622 1.0678
v  6.6534 -3.1242 1.3006
v  6.6534 -3.3721 1.4734
v  6.6534 -3.6764 1.5652
v  6.6534 -4.0002 1.5652
v  6.6534 -4.3044 1.4734
v  6.6534 -4.5525 1.3006
v  6.6534 -4.7144 1.0678
v  6.7285 -4.7144 0.5383
v  6.7285 -4.7707 0.8031
v  6.7285 -4.5525 0.3056
v  6.7285 -4.3044 0.1328
v  6.7285 -4.0002 0.0409
v  6.7285 -3.6764 0.0409
v  6.7285 -3.3721 0.1328
v  6.7285 -3.1242 0.3056
v  6.7285 -2.9622 0.5383
v  6.7285 -2.9059 0.8031
v  6.7285 -2.9622 1.0678
v  6.7285 -3.1242 1.3006
v  6.7285 -3.3721 1.4734
v  6.7285 -3.6764 1.5652
v  6.7285 -4.0002 1.5652
v  6.7285 -4.3044 1.4734
v  6.7285 -4.5525 1.3006
v  6.7285 -4.7144 1.0678
v  6.8038 -4.7144 0.5383
v  6.8038 -4.7707 0.8031
v  6.8038 -4.5525 0.3056
v  6.8038 -4.3044 0.1328
v  6.8038 -4.0002 0.0409
v  6.8038 -3.6764 0.0409
v  6.8038 -3.3721 0.1328
v  6.8038 -3.1242 0.3056
v  6.8038 -2.9622 0.5383
v  6.8038 -2.9059 0.8031
v  6.8038 -2.9622 1.0678
v  6.8038 -3.1242 1.3006
v  6.8038 -3.3721 1.4734
v  6.8038 -3.6764 1.5652
v  6.8038 -4.0002 1.5652
v  6.8038 -4.3044 1.4734
v  6.8038 -4.5525 1.3006
v  6.8038 -4.7144 1.0678
v  6.8789 -4.7144 0.5383
v  6.8789 -4.7707 0.8031
v  6.8789 -4.5525 0.3056
v  6.8789 -4.3044 0.1328
v  6.8789 -4.0002 0.0409
v  6.8789 -3.6764 0.0409
v  6.8789 -3.3721 0.1328
v  6.8789 -3.1242 0.3056
v  6.8789 -2.9622 0.5383
v  6.8789 -2.9059 0.8031
v  6.8789 -2.9622 1.0678
v  6.8789 -3.1242 1.3006
v  6.8789 -3.3721 1.4734
v  6.8789 -3.6764 1.5652
v  6.8789 -4.0002 1.5652
v  6.8789 -4.3044 1.4734
v  6.8789 -4.5525 1.3006
v  6.8789 -4.7144 1.0678
v  6.8789 -3.8383 0.8031
# 110 vertices

vn -1.0000 0.0000 -0.0000
vn 0.0000 -1.0000 -0.0000
vn 0.0000 -0.9397 -0.3420
vn 0.0000 -0.7660 -0.6428
vn 0.0000 -0.5000 -0.8660
vn 0.0000 -0.1736 -0.9848
vn 0.0000 0.1736 -0.9848
vn 0.0000 0.5000 -0.8660
vn 0.0000 0.7660 -0.6428
vn 0.0000 0.9397 -0.3420
vn 0.0000 1.0000 -0.0000
vn 0.0000 0.9397 0.3420
vn 0.0000 0.7660 0.6428
vn 0.0000 0.5000 0.8660
vn 0.0000 0.1736 0.9848
vn 0.0000 -0.1736 0.9848
vn 0.0000 -0.5000 0.8660
vn 0.0000 -0.7660 0.6428
vn 0.0000 -0.9397 0.3420
vn 1.0000 0.0000 -0.0000
# 20 vertex normals

vt 0.9439 0.5058 1.6113
vt 0.9456 0.0419 1.6602
vt 0.9439 0.0122 1.6113
vt 0.9471 0.1277 1.7033
vt 0.9481 0.2590 1.7354
vt 0.9486 0.4201 1.7525
vt 0.9486 0.5916 1.7525
vt 0.9481 0.7527 1.7354
vt 0.9471 0.8840 1.7033
vt 0.9456 0.9697 1.6602
vt 0.9439 0.9995 1.6113
vt 0.9421 0.9697 1.5625
vt 0.9404 0.8840 1.5199
vt 0.9391 0.7527 1.4884
vt 0.9383 0.5916 1.4716
vt 0.9383 0.4201 1.4716
vt 0.9391 0.2590 1.4884
vt 0.9404 0.1277 1.5199
vt 0.9421 0.0419 1.5625
vt 0.9448 0.0419 1.6631
vt 0.9431 0.0122 1.6143
vt 0.9463 0.1277 1.7062
vt 0.9473 0.2590 1.7383
vt 0.9478 0.4201 1.7554
vt 0.9478 0.5916 1.7554
vt 0.9473 0.7527 1.7383
vt 0.9463 0.8840 1.7062
vt 0.9448 0.9697 1.6631
vt 0.9431 0.9995 1.6143
vt 0.9412 0.9697 1.5657
vt 0.9395 0.8840 1.5232
vt 0.9382 0.7527 1.4917
vt 0.9374 0.5916 1.4750
vt 0.9374 0.4201 1.4750
vt 0.9382 0.2590 1.4917
vt 0.9395 0.1277 1.5232
vt 0.9412 0.0419 1.5657
vt 0.9440 0.0419 1.6662
vt 0.9423 0.0122 1.6175
vt 0.9455 0.1277 1.7092
vt 0.9465 0.2590 1.7412
vt 0.9471 0.4201 1.7583
vt 0.9471 0.5916 1.7583
vt 0.9465 0.7527 1.7412
vt 0.9455 0.8840 1.7092
vt 0.9440 0.9697 1.6662
vt 0.9423 0.9995 1.6175
vt 0.9404 0.9697 1.5690
vt 0.9387 0.8840 1.5265
vt 0.9373 0.7527 1.4951
vt 0.9366 0.5916 1.4784
vt 0.9366 0.4201 1.4784
vt 0.9373 0.2590 1.4951
vt 0.9387 0.1277 1.5265
vt 0.9404 0.0419 1.5690
vt 0.9432 0.0419 1.6693
vt 0.9415 0.0122 1.6206
vt 0.9447 0.1277 1.7122
vt 0.9458 0.2590 1.7441
vt 0.9463 0.4201 1.7612
vt 0.9463 0.5916 1.7612
vt 0.9458 0.7527 1.7441
vt 0.9447 0.8840 1.7122
vt 0.9432 0.9697 1.6693
vt 0.9415 0.9995 1.6206
vt 0.9396 0.9697 1.5722
vt 0.9378 0.8840 1.5298
vt 0.9364 0.7527 1.4985
vt 0.9357 0.5916 1.4819
vt 0.9357 0.4201 1.4819
vt 0.9364 0.2590 1.4985
vt 0.9378 0.1277 1.5298
vt 0.9396 0.0419 1.5722
vt 0.9425 0.0419 1.6724
vt 0.9406 0.0122 1.6238
vt 0.9440 0.1277 1.7152
vt 0.9450 0.2590 1.7471
vt 0.9456 0.4201 1.7641
vt 0.9456 0.5916 1.7641
vt 0.9450 0.7527 1.7471
vt 0.9440 0.8840 1.7152
vt 0.9425 0.9697 1.6724
vt 0.9406 0.9995 1.6238
vt 0.9387 0.9697 1.5755
vt 0.9370 0.8840 1.5332
vt 0.9356 0.7527 1.5020
vt 0.9348 0.5916 1.4854
vt 0.9348 0.4201 1.4854
vt 0.9356 0.2590 1.5020
vt 0.9370 0.1277 1.5332
vt 0.9387 0.0419 1.5755
vt 0.9417 0.0419 1.6755
vt 0.9398 0.0122 1.6271
vt 0.9432 0.1277 1.7183
vt 0.9443 0.2590 1.7501
vt 0.9448 0.4201 1.7671
vt 0.9448 0.5916 1.7671
vt 0.9443 0.7527 1.7501
vt 0.9432 0.8840 1.7183
vt 0.9417 0.9697 1.6755
vt 0.9398 0.9995 1.6271
vt 0.9379 0.9697 1.5789
vt 0.9361 0.8840 1.5367
vt 0.9347 0.7527 1.5055
vt 0.9339 0.5916 1.4890
vt 0.9339 0.4201 1.4890
vt 0.9347 0.2590 1.5055
vt 0.9361 0.1277 1.5367
vt 0.9379 0.0419 1.5789
vt 0.9398 0.5058 1.6271
# 110 texture coords

g Cylinder01
usemtl 03___Default
s 1
f 1/1/1 2/2/1 3/3/1 
f 1/1/1 4/4/1 2/2/1 
f 1/1/1 5/5/1 4/4/1 
f 1/1/1 6/6/1 5/5/1 
f 1/1/1 7/7/1 6/6/1 
f 1/1/1 8/8/1 7/7/1 
f 1/1/1 9/9/1 8/8/1 
f 1/1/1 10/10/1 9/9/1 
f 1/1/1 11/11/1 10/10/1 
f 1/1/1 12/12/1 11/11/1 
f 1/1/1 13/13/1 12/12/1 
f 1/1/1 14/14/1 13/13/1 
f 1/1/1 15/15/1 14/14/1 
f 1/1/1 16/16/1 15/15/1 
f 1/1/1 17/17/1 16/16/1 
f 1/1/1 18/18/1 17/17/1 
f 1/1/1 19/19/1 18/18/1 
f 1/1/1 3/3/1 19/19/1 
s 8
f 3/3/2 20/20/3 21/21/2 
f 3/3/2 2/2/3 20/20/3 
f 2/2/3 22/22/4 20/20/3 
f 2/2/3 4/4/4 22/22/4 
f 4/4/4 23/23/5 22/22/4 
f 4/4/4 5/5/5 23/23/5 
f 5/5/5 24/24/6 23/23/5 
f 5/5/5 6/6/6 24/24/6 
f 6/6/6 25/25/7 24/24/6 
f 6/6/6 7/7/7 25/25/7 
f 7/7/7 26/26/8 25/25/7 
f 7/7/7 8/8/8 26/26/8 
f 8/8/8 27/27/9 26/26/8 
f 8/8/8 9/9/9 27/27/9 
f 9/9/9 28/28/10 27/27/9 
f 9/9/9 10/10/10 28/28/10 
f 10/10/10 29/29/11 28/28/10 
f 10/10/10 11/11/11 29/29/11 
f 11/11/11 30/30/12 29/29/11 
f 11/11/11 12/12/12 30/30/12 
f 12/12/12 31/31/13 30/30/12 
f 12/12/12 13/13/13 31/31/13 
f 13/13/13 32/32/14 31/31/13 
f 13/13/13 14/14/14 32/32/14 
f 14/14/14 33/33/15 32/32/14 
f 14/14/14 15/15/15 33/33/15 
f 15/15/15 34/34/16 33/33/15 
f 15/15/15 16/16/16 34/34/16 
f 16/16/16 35/35/17 34/34/16 
f 16/16/16 17/17/17 35/35/17 
f 17/17/17 36/36/18 35/35/17 
f 17/17/17 18/18/18 36/36/18 
f 18/18/18 37/37/19 36/36/18 
f 18/18/18 19/19/19 37/37/19 
f 19/19/19 21/21/2 37/37/19 
f 19/19/19 3/3/2 21/21/2 
f 21/21/2 38/38/3 39/39/2 
f 21/21/2 20/20/3 38/38/3 
f 20/20/3 40/40/4 38/38/3 
f 20/20/3 22/22/4 40/40/4 
f 22/22/4 41/41/5 40/40/4 
f 22/22/4 23/23/5 41/41/5 
f 23/23/5 42/42/6 41/41/5 
f 23/23/5 24/24/6 42/42/6 
f 24/24/6 43/43/7 42/42/6 
f 24/24/6 25/25/7 43/43/7 
f 25/25/7 44/44/8 43/43/7 
f 25/25/7 26/26/8 44/44/8 
f 26/26/8 45/45/9 44/44/8 
f 26/26/8 27/27/9 45/45/9 
f 27/27/9 46/46/10 45/45/9 
f 27/27/9 28/28/10 46/46/10 
f 28/28/10 47/47/11 46/46/10 
f 28/28/10 29/29/11 47/47/11 
f 29/29/11 48/48/12 47/47/11 
f 29/29/11 30/30/12 48/48/12 
f 30/30/12 49/49/13 48/48/12 
f 30/30/12 31/31/13 49/49/13 
f 31/31/13 50/50/14 49/49/13 
f 31/31/13 32/32/14 50/50/14 
f 32/32/14 51/51/15 50/50/14 
f 32/32/14 33/33/15 51/51/15 
f 33/33/15 52/52/16 51/51/15 
f 33/33/15 34/34/16 52/52/16 
f 34/34/16 53/53/17 52/52/16 
f 34/34/16 35/35/17 53/53/17 
f 35/35/17 54/54/18 53/53/17 
f 35/35/17 36/36/18 54/54/18 
f 36/36/18 55/55/19 54/54/18 
f 36/36/18 37/37/19 55/55/19 
f 37/37/19 39/39/2 55/55/19 
f 37/37/19 21/21/2 39/39/2 
f 39/39/2 56/56/3 57/57/2 
f 39/39/2 38/38/3 56/56/3 
f 38/38/3 58/58/4 56/56/3 
f 38/38/3 40/40/4 58/58/4 
f 40/40/4 59/59/5 58/58/4 
f 40/40/4 41/41/5 59/59/5 
f 41/41/5 60/60/6 59/59/5 
f 41/41/5 42/42/6 60/60/6 
f 42/42/6 61/61/7 60/60/6 
f 42/42/6 43/43/7 61/61/7 
f 43/43/7 62/62/8 61/61/7 
f 43/43/7 44/44/8 62/62/8 
f 44/44/8 63/63/9 62/62/8 
f 44/44/8 45/45/9 63/63/9 
f 45/45/9 64/64/10 63/63/9 
f 45/45/9 46/46/10 64/64/10 
f 46/46/10 65/65/11 64/64/10 
f 46/46/10 47/47/11 65/65/11 
f 47/47/11 66/66/12 65/65/11 
f 47/47/11 48/48/12 66/66/12 
f 48/48/12 67/67/13 66/66/12 
f 48/48/12 49/49/13 67/67/13 
f 49/49/13 68/68/14 67/67/13 
f 49/49/13 50/50/14 68/68/14 
f 50/50/14 69/69/15 68/68/14 
f 50/50/14 51/51/15 69/69/15 
f 51/51/15 70/70/16 69/69/15 
f 51/51/15 52/52/16 70/70/16 
f 52/52/16 71/71/17 70/70/16 
f 52/52/16 53/53/17 71/71/17 
f 53/53/17 72/72/18 71/71/17 
f 53/53/17 54/54/18 72/72/18 
f 54/54/18 73/73/19 72/72/18 
f 54/54/18 55/55/19 73/73/19 
f 55/55/19 57/57/2 73/73/19 
f 55/55/19 39/39/2 57/57/2 
f 57/57/2 74/74/3 75/75/2 
f 57/57/2 56/56/3 74/74/3 
f 56/56/3 76/76/4 74/74/3 
f 56/56/3 58/58/4 76/76/4 
f 58/58/4 77/77/5 76/76/4 
f 58/58/4 59/59/5 77/77/5 
f 59/59/5 78/78/6 77/77/5 
f 59/59/5 60/60/6 78/78/6 
f 60/60/6 79/79/7 78/78/6 
f 60/60/6 61/61/7 79/79/7 
f 61/61/7 80/80/8 79/79/7 
f 61/61/7 62/62/8 80/80/8 
f 62/62/8 81/81/9 80/80/8 
f 62/62/8 63/63/9 81/81/9 
f 63/63/9 82/82/10 81/81/9 
f 63/63/9 64/64/10 82/82/10 
f 64/64/10 83/83/11 82/82/10 
f 64/64/10 65/65/11 83/83/11 
f 65/65/11 84/84/12 83/83/11 
f 65/65/11 66/66/12 84/84/12 
f 66/66/12 85/85/13 84/84/12 
f 66/66/12 67/67/13 85/85/13 
f 67/67/13 86/86/14 85/85/13 
f 67/67/13 68/68/14 86/86/14 
f 68/68/14 87/87/15 86/86/14 
f 68/68/14 69/69/15 87/87/15 
f 69/69/15 88/88/16 87/87/15 
f 69/69/15 70/70/16 88/88/16 
f 70/70/16 89/89/17 88/88/16 
f 70/70/16 71/71/17 89/89/17 
f 71/71/17 90/90/18 89/89/17 
f 71/71/17 72/72/18 90/90/18 
f 72/72/18 91/91/19 90/90/18 
f 72/72/18 73/73/19 91/91/19 
f 73/73/19 75/75/2 91/91/19 
f 73/73/19 57/57/2 75/75/2 
f 75/75/2 92/92/3 93/93/2 
f 75/75/2 74/74/3 92/92/3 
f 74/74/3 94/94/4 92/92/3 
f 74/74/3 76/76/4 94/94/4 
f 76/76/4 95/95/5 94/94/4 
f 76/76/4 77/77/5 95/95/5 
f 77/77/5 96/96/6 95/95/5 
f 77/77/5 78/78/6 96/96/6 
f 78/78/6 97/97/7 96/96/6 
f 78/78/6 79/79/7 97/97/7 
f 79/79/7 98/98/8 97/97/7 
f 79/79/7 80/80/8 98/98/8 
f 80/80/8 99/99/9 98/98/8 
f 80/80/8 81/81/9 99/99/9 
f 81/81/9 100/100/10 99/99/9 
f 81/81/9 82/82/10 100/100/10 
f 82/82/10 101/101/11 100/100/10 
f 82/82/10 83/83/11 101/101/11 
f 83/83/11 102/102/12 101/101/11 
f 83/83/11 84/84/12 102/102/12 
f 84/84/12 103/103/13 102/102/12 
f 84/84/12 85/85/13 103/103/13 
f 85/85/13 104/104/14 103/103/13 
f 85/85/13 86/86/14 104/104/14 
f 86/86/14 105/105/15 104/104/14 
f 86/86/14 87/87/15 105/105/15 
f 87/87/15 106/106/16 105/105/15 
f 87/87/15 88/88/16 106/106/16 
f 88/88/16 107/107/17 106/106/16 
f 88/88/16 89/89/17 107/107/17 
f 89/89/17 108/108/18 107/107/17 
f 89/89/17 90/90/18 108/108/18 
f 90/90/18 109/109/19 108/108/18 
f 90/90/18 91/91/19 109/109/19 
f 91/91/19 93/93/2 109/109/19 
f 91/91/19 75/75/2 93/93/2 
s 1
f 110/110/20 93/93/20 92/92/20 
f 110/110/20 92/92/20 94/94/20 
f 110/110/20 94/94/20 95/95/20 
f 110/110/20 95/95/20 96/96/20 
f 110/110/20 96/96/20 97/97/20 
f 110/110/20 97/97/20 98/98/20 
f 110/110/20 98/98/20 99/99/20 
f 110/110/20 99/99/20 100/100/20 
f 110/110/20 100/100/20 101/101/20 
f 110/110/20 101/101/20 102/102/20 
f 110/110/20 102/102/20 103/103/20 
f 110/110/20 103/103/20 104/104/20 
f 110/110/20 104/104/20 105/105/20 
f 110/110/20 105/105/20 106/106/20 
f 110/110/20 106/106/20 107/107/20 
f 110/110/20 107/107/20 108/108/20 
f 110/110/20 108/108/20 109/109/20 
f 110/110/20 109/109/20 93/93/20 
# 216 faces

#
# object Box02
#

v  6.3835 -3.9045 0.9758
v  6.3835 -1.1143 0.9758
v  6.3830 -1.1143 0.6303
v  6.3830 -3.9045 0.6303
v  6.5114 -3.9045 0.9756
v  6.5109 -3.9045 0.6301
v  6.5109 -1.1143 0.6301
v  6.5114 -1.1143 0.9756
# 8 vertices

vn -1.0000 0.0000 0.0022
vn 1.0000 0.0000 -0.0022
vn 0.0000 -1.0000 -0.0000
vn -0.0014 0.0000 -1.0000
vn 0.0000 1.0000 -0.0000
vn 0.0014 0.0000 1.0000
# 6 vertex normals

vt 1.0000 0.0000 0.0000
vt 1.0000 1.0000 0.0000
vt 0.0000 1.0000 0.0000
vt 0.0000 0.0000 0.0000
# 4 texture coords

g Box02
usemtl wire_214229166
s 2
f 111/111/21 112/112/21 113/113/21 
f 113/113/21 114/114/21 111/111/21 
s 4
f 115/114/22 116/111/22 117/112/22 
f 117/112/22 118/113/22 115/114/22 
s 8
f 111/114/23 114/111/23 116/112/23 
f 116/112/23 115/113/23 111/114/23 
s 16
f 114/114/24 113/111/24 117/112/24 
f 117/112/24 116/113/24 114/114/24 
s 32
f 113/114/25 112/111/25 118/112/25 
f 118/112/25 117/113/25 113/114/25 
s 64
f 112/114/26 111/111/26 115/112/26 
f 115/112/26 118/113/26 112/114/26 
# 12 faces

