# 3ds Max Wavefront OBJ Exporter v0.97b - (c)2007 guruware
# File Created: 06.11.2015 12:59:23

mtllib P-47_Wheels.mtl

#
# object Cylinder01
#

v  4.6973 -5.1948 0.8031
v  4.6973 -5.9220 0.5383
v  4.6973 -5.9687 0.8031
v  4.6973 -5.7876 0.3056
v  4.6973 -5.5817 0.1328
v  4.6973 -5.3292 0.0409
v  4.6973 -5.0604 0.0409
v  4.6973 -4.8078 0.1328
v  4.6973 -4.6020 0.3056
v  4.6973 -4.4676 0.5383
v  4.6973 -4.4208 0.8031
v  4.6973 -4.4676 1.0678
v  4.6973 -4.6020 1.3006
v  4.6973 -4.8078 1.4734
v  4.6973 -5.0604 1.5652
v  4.6973 -5.3292 1.5652
v  4.6973 -5.5817 1.4734
v  4.6973 -5.7876 1.3006
v  4.6973 -5.9220 1.0678
v  4.7725 -5.9220 0.5383
v  4.7725 -5.9687 0.8031
v  4.7725 -5.7876 0.3056
v  4.7725 -5.5817 0.1328
v  4.7725 -5.3292 0.0409
v  4.7725 -5.0604 0.0409
v  4.7725 -4.8078 0.1328
v  4.7725 -4.6020 0.3056
v  4.7725 -4.4676 0.5383
v  4.7725 -4.4208 0.8031
v  4.7725 -4.4676 1.0678
v  4.7725 -4.6020 1.3006
v  4.7725 -4.8078 1.4734
v  4.7725 -5.0604 1.5652
v  4.7725 -5.3292 1.5652
v  4.7725 -5.5817 1.4734
v  4.7725 -5.7876 1.3006
v  4.7725 -5.9220 1.0678
v  4.8476 -5.9220 0.5383
v  4.8476 -5.9687 0.8031
v  4.8476 -5.7876 0.3056
v  4.8476 -5.5817 0.1328
v  4.8476 -5.3292 0.0409
v  4.8476 -5.0604 0.0409
v  4.8476 -4.8078 0.1328
v  4.8476 -4.6020 0.3056
v  4.8476 -4.4676 0.5383
v  4.8476 -4.4208 0.8031
v  4.8476 -4.4676 1.0678
v  4.8476 -4.6020 1.3006
v  4.8476 -4.8078 1.4734
v  4.8476 -5.0604 1.5652
v  4.8476 -5.3292 1.5652
v  4.8476 -5.5817 1.4734
v  4.8476 -5.7876 1.3006
v  4.8476 -5.9220 1.0678
v  4.9227 -5.9220 0.5383
v  4.9227 -5.9687 0.8031
v  4.9227 -5.7876 0.3056
v  4.9227 -5.5817 0.1328
v  4.9227 -5.3292 0.0409
v  4.9227 -5.0604 0.0409
v  4.9227 -4.8078 0.1328
v  4.9227 -4.6020 0.3056
v  4.9227 -4.4676 0.5383
v  4.9227 -4.4208 0.8031
v  4.9227 -4.4676 1.0678
v  4.9227 -4.6020 1.3006
v  4.9227 -4.8078 1.4734
v  4.9227 -5.0604 1.5652
v  4.9227 -5.3292 1.5652
v  4.9227 -5.5817 1.4734
v  4.9227 -5.7876 1.3006
v  4.9227 -5.9220 1.0678
v  4.9980 -5.9220 0.5383
v  4.9980 -5.9687 0.8031
v  4.9980 -5.7876 0.3056
v  4.9980 -5.5817 0.1328
v  4.9980 -5.3292 0.0409
v  4.9980 -5.0604 0.0409
v  4.9980 -4.8078 0.1328
v  4.9980 -4.6020 0.3056
v  4.9980 -4.4676 0.5383
v  4.9980 -4.4208 0.8031
v  4.9980 -4.4676 1.0678
v  4.9980 -4.6020 1.3006
v  4.9980 -4.8078 1.4734
v  4.9980 -5.0604 1.5652
v  4.9980 -5.3292 1.5652
v  4.9980 -5.5817 1.4734
v  4.9980 -5.7876 1.3006
v  4.9980 -5.9220 1.0678
v  5.0731 -5.9220 0.5383
v  5.0731 -5.9687 0.8031
v  5.0731 -5.7876 0.3056
v  5.0731 -5.5817 0.1328
v  5.0731 -5.3292 0.0409
v  5.0731 -5.0604 0.0409
v  5.0731 -4.8078 0.1328
v  5.0731 -4.6020 0.3056
v  5.0731 -4.4676 0.5383
v  5.0731 -4.4208 0.8031
v  5.0731 -4.4676 1.0678
v  5.0731 -4.6020 1.3006
v  5.0731 -4.8078 1.4734
v  5.0731 -5.0604 1.5652
v  5.0731 -5.3292 1.5652
v  5.0731 -5.5817 1.4734
v  5.0731 -5.7876 1.3006
v  5.0731 -5.9220 1.0678
v  5.0731 -5.1948 0.8031
# 110 vertices

vn -1.0000 0.0000 -0.0000
vn 0.0000 -1.0000 -0.0000
vn 0.0000 -0.9397 -0.3420
vn 0.0000 -0.7660 -0.6428
vn 0.0000 -0.5000 -0.8660
vn 0.0000 -0.1736 -0.9848
vn 0.0000 0.1736 -0.9848
vn 0.0000 0.5000 -0.8660
vn 0.0000 0.7660 -0.6428
vn 0.0000 0.9397 -0.3420
vn 0.0000 1.0000 -0.0000
vn 0.0000 0.9397 0.3420
vn 0.0000 0.7660 0.6428
vn 0.0000 0.5000 0.8660
vn 0.0000 0.1736 0.9848
vn 0.0000 -0.1736 0.9848
vn 0.0000 -0.5000 0.8660
vn 0.0000 -0.7660 0.6428
vn 0.0000 -0.9397 0.3420
vn 1.0000 0.0000 -0.0000
# 20 vertex normals

vt 0.9439 0.5058 1.6113
vt 0.9456 0.0419 1.6602
vt 0.9439 0.0122 1.6113
vt 0.9471 0.1277 1.7033
vt 0.9481 0.2590 1.7354
vt 0.9486 0.4201 1.7525
vt 0.9486 0.5916 1.7525
vt 0.9481 0.7527 1.7354
vt 0.9471 0.8840 1.7033
vt 0.9456 0.9697 1.6602
vt 0.9439 0.9995 1.6113
vt 0.9421 0.9697 1.5625
vt 0.9404 0.8840 1.5199
vt 0.9391 0.7527 1.4884
vt 0.9383 0.5916 1.4716
vt 0.9383 0.4201 1.4716
vt 0.9391 0.2590 1.4884
vt 0.9404 0.1277 1.5199
vt 0.9421 0.0419 1.5625
vt 0.9448 0.0419 1.6631
vt 0.9431 0.0122 1.6143
vt 0.9463 0.1277 1.7062
vt 0.9473 0.2590 1.7383
vt 0.9478 0.4201 1.7554
vt 0.9478 0.5916 1.7554
vt 0.9473 0.7527 1.7383
vt 0.9463 0.8840 1.7062
vt 0.9448 0.9697 1.6631
vt 0.9431 0.9995 1.6143
vt 0.9412 0.9697 1.5657
vt 0.9395 0.8840 1.5232
vt 0.9382 0.7527 1.4917
vt 0.9374 0.5916 1.4750
vt 0.9374 0.4201 1.4750
vt 0.9382 0.2590 1.4917
vt 0.9395 0.1277 1.5232
vt 0.9412 0.0419 1.5657
vt 0.9440 0.0419 1.6662
vt 0.9423 0.0122 1.6175
vt 0.9455 0.1277 1.7092
vt 0.9465 0.2590 1.7412
vt 0.9471 0.4201 1.7583
vt 0.9471 0.5916 1.7583
vt 0.9465 0.7527 1.7412
vt 0.9455 0.8840 1.7092
vt 0.9440 0.9697 1.6662
vt 0.9423 0.9995 1.6175
vt 0.9404 0.9697 1.5690
vt 0.9387 0.8840 1.5265
vt 0.9373 0.7527 1.4951
vt 0.9366 0.5916 1.4784
vt 0.9366 0.4201 1.4784
vt 0.9373 0.2590 1.4951
vt 0.9387 0.1277 1.5265
vt 0.9404 0.0419 1.5690
vt 0.9432 0.0419 1.6693
vt 0.9415 0.0122 1.6206
vt 0.9447 0.1277 1.7122
vt 0.9458 0.2590 1.7441
vt 0.9463 0.4201 1.7612
vt 0.9463 0.5916 1.7612
vt 0.9458 0.7527 1.7441
vt 0.9447 0.8840 1.7122
vt 0.9432 0.9697 1.6693
vt 0.9415 0.9995 1.6206
vt 0.9396 0.9697 1.5722
vt 0.9378 0.8840 1.5298
vt 0.9364 0.7527 1.4985
vt 0.9357 0.5916 1.4819
vt 0.9357 0.4201 1.4819
vt 0.9364 0.2590 1.4985
vt 0.9378 0.1277 1.5298
vt 0.9396 0.0419 1.5722
vt 0.9425 0.0419 1.6724
vt 0.9406 0.0122 1.6238
vt 0.9440 0.1277 1.7152
vt 0.9450 0.2590 1.7471
vt 0.9456 0.4201 1.7641
vt 0.9456 0.5916 1.7641
vt 0.9450 0.7527 1.7471
vt 0.9440 0.8840 1.7152
vt 0.9425 0.9697 1.6724
vt 0.9406 0.9995 1.6238
vt 0.9387 0.9697 1.5755
vt 0.9370 0.8840 1.5332
vt 0.9356 0.7527 1.5020
vt 0.9348 0.5916 1.4854
vt 0.9348 0.4201 1.4854
vt 0.9356 0.2590 1.5020
vt 0.9370 0.1277 1.5332
vt 0.9387 0.0419 1.5755
vt 0.9417 0.0419 1.6755
vt 0.9398 0.0122 1.6271
vt 0.9432 0.1277 1.7183
vt 0.9443 0.2590 1.7501
vt 0.9448 0.4201 1.7671
vt 0.9448 0.5916 1.7671
vt 0.9443 0.7527 1.7501
vt 0.9432 0.8840 1.7183
vt 0.9417 0.9697 1.6755
vt 0.9398 0.9995 1.6271
vt 0.9379 0.9697 1.5789
vt 0.9361 0.8840 1.5367
vt 0.9347 0.7527 1.5055
vt 0.9339 0.5916 1.4890
vt 0.9339 0.4201 1.4890
vt 0.9347 0.2590 1.5055
vt 0.9361 0.1277 1.5367
vt 0.9379 0.0419 1.5789
vt 0.9398 0.5058 1.6271
# 110 texture coords

g Cylinder01
usemtl 03___Default
s 1
f 1/1/1 2/2/1 3/3/1 
f 1/1/1 4/4/1 2/2/1 
f 1/1/1 5/5/1 4/4/1 
f 1/1/1 6/6/1 5/5/1 
f 1/1/1 7/7/1 6/6/1 
f 1/1/1 8/8/1 7/7/1 
f 1/1/1 9/9/1 8/8/1 
f 1/1/1 10/10/1 9/9/1 
f 1/1/1 11/11/1 10/10/1 
f 1/1/1 12/12/1 11/11/1 
f 1/1/1 13/13/1 12/12/1 
f 1/1/1 14/14/1 13/13/1 
f 1/1/1 15/15/1 14/14/1 
f 1/1/1 16/16/1 15/15/1 
f 1/1/1 17/17/1 16/16/1 
f 1/1/1 18/18/1 17/17/1 
f 1/1/1 19/19/1 18/18/1 
f 1/1/1 3/3/1 19/19/1 
s 8
f 3/3/2 20/20/3 21/21/2 
f 3/3/2 2/2/3 20/20/3 
f 2/2/3 22/22/4 20/20/3 
f 2/2/3 4/4/4 22/22/4 
f 4/4/4 23/23/5 22/22/4 
f 4/4/4 5/5/5 23/23/5 
f 5/5/5 24/24/6 23/23/5 
f 5/5/5 6/6/6 24/24/6 
f 6/6/6 25/25/7 24/24/6 
f 6/6/6 7/7/7 25/25/7 
f 7/7/7 26/26/8 25/25/7 
f 7/7/7 8/8/8 26/26/8 
f 8/8/8 27/27/9 26/26/8 
f 8/8/8 9/9/9 27/27/9 
f 9/9/9 28/28/10 27/27/9 
f 9/9/9 10/10/10 28/28/10 
f 10/10/10 29/29/11 28/28/10 
f 10/10/10 11/11/11 29/29/11 
f 11/11/11 30/30/12 29/29/11 
f 11/11/11 12/12/12 30/30/12 
f 12/12/12 31/31/13 30/30/12 
f 12/12/12 13/13/13 31/31/13 
f 13/13/13 32/32/14 31/31/13 
f 13/13/13 14/14/14 32/32/14 
f 14/14/14 33/33/15 32/32/14 
f 14/14/14 15/15/15 33/33/15 
f 15/15/15 34/34/16 33/33/15 
f 15/15/15 16/16/16 34/34/16 
f 16/16/16 35/35/17 34/34/16 
f 16/16/16 17/17/17 35/35/17 
f 17/17/17 36/36/18 35/35/17 
f 17/17/17 18/18/18 36/36/18 
f 18/18/18 37/37/19 36/36/18 
f 18/18/18 19/19/19 37/37/19 
f 19/19/19 21/21/2 37/37/19 
f 19/19/19 3/3/2 21/21/2 
f 21/21/2 38/38/3 39/39/2 
f 21/21/2 20/20/3 38/38/3 
f 20/20/3 40/40/4 38/38/3 
f 20/20/3 22/22/4 40/40/4 
f 22/22/4 41/41/5 40/40/4 
f 22/22/4 23/23/5 41/41/5 
f 23/23/5 42/42/6 41/41/5 
f 23/23/5 24/24/6 42/42/6 
f 24/24/6 43/43/7 42/42/6 
f 24/24/6 25/25/7 43/43/7 
f 25/25/7 44/44/8 43/43/7 
f 25/25/7 26/26/8 44/44/8 
f 26/26/8 45/45/9 44/44/8 
f 26/26/8 27/27/9 45/45/9 
f 27/27/9 46/46/10 45/45/9 
f 27/27/9 28/28/10 46/46/10 
f 28/28/10 47/47/11 46/46/10 
f 28/28/10 29/29/11 47/47/11 
f 29/29/11 48/48/12 47/47/11 
f 29/29/11 30/30/12 48/48/12 
f 30/30/12 49/49/13 48/48/12 
f 30/30/12 31/31/13 49/49/13 
f 31/31/13 50/50/14 49/49/13 
f 31/31/13 32/32/14 50/50/14 
f 32/32/14 51/51/15 50/50/14 
f 32/32/14 33/33/15 51/51/15 
f 33/33/15 52/52/16 51/51/15 
f 33/33/15 34/34/16 52/52/16 
f 34/34/16 53/53/17 52/52/16 
f 34/34/16 35/35/17 53/53/17 
f 35/35/17 54/54/18 53/53/17 
f 35/35/17 36/36/18 54/54/18 
f 36/36/18 55/55/19 54/54/18 
f 36/36/18 37/37/19 55/55/19 
f 37/37/19 39/39/2 55/55/19 
f 37/37/19 21/21/2 39/39/2 
f 39/39/2 56/56/3 57/57/2 
f 39/39/2 38/38/3 56/56/3 
f 38/38/3 58/58/4 56/56/3 
f 38/38/3 40/40/4 58/58/4 
f 40/40/4 59/59/5 58/58/4 
f 40/40/4 41/41/5 59/59/5 
f 41/41/5 60/60/6 59/59/5 
f 41/41/5 42/42/6 60/60/6 
f 42/42/6 61/61/7 60/60/6 
f 42/42/6 43/43/7 61/61/7 
f 43/43/7 62/62/8 61/61/7 
f 43/43/7 44/44/8 62/62/8 
f 44/44/8 63/63/9 62/62/8 
f 44/44/8 45/45/9 63/63/9 
f 45/45/9 64/64/10 63/63/9 
f 45/45/9 46/46/10 64/64/10 
f 46/46/10 65/65/11 64/64/10 
f 46/46/10 47/47/11 65/65/11 
f 47/47/11 66/66/12 65/65/11 
f 47/47/11 48/48/12 66/66/12 
f 48/48/12 67/67/13 66/66/12 
f 48/48/12 49/49/13 67/67/13 
f 49/49/13 68/68/14 67/67/13 
f 49/49/13 50/50/14 68/68/14 
f 50/50/14 69/69/15 68/68/14 
f 50/50/14 51/51/15 69/69/15 
f 51/51/15 70/70/16 69/69/15 
f 51/51/15 52/52/16 70/70/16 
f 52/52/16 71/71/17 70/70/16 
f 52/52/16 53/53/17 71/71/17 
f 53/53/17 72/72/18 71/71/17 
f 53/53/17 54/54/18 72/72/18 
f 54/54/18 73/73/19 72/72/18 
f 54/54/18 55/55/19 73/73/19 
f 55/55/19 57/57/2 73/73/19 
f 55/55/19 39/39/2 57/57/2 
f 57/57/2 74/74/3 75/75/2 
f 57/57/2 56/56/3 74/74/3 
f 56/56/3 76/76/4 74/74/3 
f 56/56/3 58/58/4 76/76/4 
f 58/58/4 77/77/5 76/76/4 
f 58/58/4 59/59/5 77/77/5 
f 59/59/5 78/78/6 77/77/5 
f 59/59/5 60/60/6 78/78/6 
f 60/60/6 79/79/7 78/78/6 
f 60/60/6 61/61/7 79/79/7 
f 61/61/7 80/80/8 79/79/7 
f 61/61/7 62/62/8 80/80/8 
f 62/62/8 81/81/9 80/80/8 
f 62/62/8 63/63/9 81/81/9 
f 63/63/9 82/82/10 81/81/9 
f 63/63/9 64/64/10 82/82/10 
f 64/64/10 83/83/11 82/82/10 
f 64/64/10 65/65/11 83/83/11 
f 65/65/11 84/84/12 83/83/11 
f 65/65/11 66/66/12 84/84/12 
f 66/66/12 85/85/13 84/84/12 
f 66/66/12 67/67/13 85/85/13 
f 67/67/13 86/86/14 85/85/13 
f 67/67/13 68/68/14 86/86/14 
f 68/68/14 87/87/15 86/86/14 
f 68/68/14 69/69/15 87/87/15 
f 69/69/15 88/88/16 87/87/15 
f 69/69/15 70/70/16 88/88/16 
f 70/70/16 89/89/17 88/88/16 
f 70/70/16 71/71/17 89/89/17 
f 71/71/17 90/90/18 89/89/17 
f 71/71/17 72/72/18 90/90/18 
f 72/72/18 91/91/19 90/90/18 
f 72/72/18 73/73/19 91/91/19 
f 73/73/19 75/75/2 91/91/19 
f 73/73/19 57/57/2 75/75/2 
f 75/75/2 92/92/3 93/93/2 
f 75/75/2 74/74/3 92/92/3 
f 74/74/3 94/94/4 92/92/3 
f 74/74/3 76/76/4 94/94/4 
f 76/76/4 95/95/5 94/94/4 
f 76/76/4 77/77/5 95/95/5 
f 77/77/5 96/96/6 95/95/5 
f 77/77/5 78/78/6 96/96/6 
f 78/78/6 97/97/7 96/96/6 
f 78/78/6 79/79/7 97/97/7 
f 79/79/7 98/98/8 97/97/7 
f 79/79/7 80/80/8 98/98/8 
f 80/80/8 99/99/9 98/98/8 
f 80/80/8 81/81/9 99/99/9 
f 81/81/9 100/100/10 99/99/9 
f 81/81/9 82/82/10 100/100/10 
f 82/82/10 101/101/11 100/100/10 
f 82/82/10 83/83/11 101/101/11 
f 83/83/11 102/102/12 101/101/11 
f 83/83/11 84/84/12 102/102/12 
f 84/84/12 103/103/13 102/102/12 
f 84/84/12 85/85/13 103/103/13 
f 85/85/13 104/104/14 103/103/13 
f 85/85/13 86/86/14 104/104/14 
f 86/86/14 105/105/15 104/104/14 
f 86/86/14 87/87/15 105/105/15 
f 87/87/15 106/106/16 105/105/15 
f 87/87/15 88/88/16 106/106/16 
f 88/88/16 107/107/17 106/106/16 
f 88/88/16 89/89/17 107/107/17 
f 89/89/17 108/108/18 107/107/17 
f 89/89/17 90/90/18 108/108/18 
f 90/90/18 109/109/19 108/108/18 
f 90/90/18 91/91/19 109/109/19 
f 91/91/19 93/93/2 109/109/19 
f 91/91/19 75/75/2 93/93/2 
s 1
f 110/110/20 93/93/20 92/92/20 
f 110/110/20 92/92/20 94/94/20 
f 110/110/20 94/94/20 95/95/20 
f 110/110/20 95/95/20 96/96/20 
f 110/110/20 96/96/20 97/97/20 
f 110/110/20 97/97/20 98/98/20 
f 110/110/20 98/98/20 99/99/20 
f 110/110/20 99/99/20 100/100/20 
f 110/110/20 100/100/20 101/101/20 
f 110/110/20 101/101/20 102/102/20 
f 110/110/20 102/102/20 103/103/20 
f 110/110/20 103/103/20 104/104/20 
f 110/110/20 104/104/20 105/105/20 
f 110/110/20 105/105/20 106/106/20 
f 110/110/20 106/106/20 107/107/20 
f 110/110/20 107/107/20 108/108/20 
f 110/110/20 108/108/20 109/109/20 
f 110/110/20 109/109/20 93/93/20 
# 216 faces

#
# object Box02
#

v  4.5777 -5.2497 0.9758
v  4.5777 -2.9337 0.9758
v  4.5772 -2.9337 0.6303
v  4.5772 -5.2497 0.6303
v  4.7056 -5.2497 0.9756
v  4.7051 -5.2497 0.6301
v  4.7051 -2.9337 0.6301
v  4.7056 -2.9337 0.9756
# 8 vertices

vn -1.0000 0.0000 0.0022
vn 1.0000 0.0000 -0.0022
vn 0.0000 -1.0000 -0.0000
vn -0.0014 0.0000 -1.0000
vn 0.0000 1.0000 -0.0000
vn 0.0014 0.0000 1.0000
# 6 vertex normals

vt 1.0000 0.0000 0.0000
vt 1.0000 1.0000 0.0000
vt 0.0000 1.0000 0.0000
vt 0.0000 0.0000 0.0000
# 4 texture coords

g Box02
usemtl wire_214229166
s 2
f 111/111/21 112/112/21 113/113/21 
f 113/113/21 114/114/21 111/111/21 
s 4
f 115/114/22 116/111/22 117/112/22 
f 117/112/22 118/113/22 115/114/22 
s 8
f 111/114/23 114/111/23 116/112/23 
f 116/112/23 115/113/23 111/114/23 
s 16
f 114/114/24 113/111/24 117/112/24 
f 117/112/24 116/113/24 114/114/24 
s 32
f 113/114/25 112/111/25 118/112/25 
f 118/112/25 117/113/25 113/114/25 
s 64
f 112/114/26 111/111/26 115/112/26 
f 115/112/26 118/113/26 112/114/26 
# 12 faces

#
# object Cylinder02
#

v  -4.7214 -5.1948 0.8030
v  -4.7214 -5.9220 1.0676
v  -4.7214 -5.9687 0.8030
v  -4.7214 -5.7876 1.3003
v  -4.7214 -5.5817 1.4731
v  -4.7214 -5.3292 1.5651
v  -4.7214 -5.0604 1.5651
v  -4.7214 -4.8078 1.4731
v  -4.7214 -4.6020 1.3003
v  -4.7214 -4.4676 1.0676
v  -4.7214 -4.4208 0.8030
v  -4.7214 -4.4676 0.5382
v  -4.7214 -4.6020 0.3054
v  -4.7214 -4.8078 0.1327
v  -4.7214 -5.0604 0.0408
v  -4.7214 -5.3292 0.0408
v  -4.7214 -5.5817 0.1327
v  -4.7214 -5.7876 0.3054
v  -4.7214 -5.9220 0.5382
v  -4.7966 -5.9220 1.0676
v  -4.7966 -5.9687 0.8030
v  -4.7966 -5.7876 1.3003
v  -4.7966 -5.5817 1.4731
v  -4.7966 -5.3292 1.5651
v  -4.7966 -5.0604 1.5651
v  -4.7966 -4.8078 1.4731
v  -4.7966 -4.6020 1.3003
v  -4.7966 -4.4676 1.0676
v  -4.7966 -4.4208 0.8030
v  -4.7966 -4.4676 0.5382
v  -4.7966 -4.6020 0.3054
v  -4.7966 -4.8078 0.1327
v  -4.7966 -5.0604 0.0408
v  -4.7966 -5.3292 0.0408
v  -4.7966 -5.5817 0.1327
v  -4.7966 -5.7876 0.3054
v  -4.7966 -5.9220 0.5382
v  -4.8717 -5.9220 1.0676
v  -4.8717 -5.9687 0.8030
v  -4.8717 -5.7876 1.3003
v  -4.8717 -5.5817 1.4731
v  -4.8717 -5.3292 1.5651
v  -4.8717 -5.0604 1.5651
v  -4.8717 -4.8078 1.4731
v  -4.8717 -4.6020 1.3003
v  -4.8717 -4.4676 1.0676
v  -4.8717 -4.4208 0.8030
v  -4.8717 -4.4676 0.5382
v  -4.8717 -4.6020 0.3054
v  -4.8717 -4.8078 0.1327
v  -4.8717 -5.0604 0.0408
v  -4.8717 -5.3292 0.0408
v  -4.8717 -5.5817 0.1327
v  -4.8717 -5.7876 0.3054
v  -4.8717 -5.9220 0.5382
v  -4.9470 -5.9220 1.0676
v  -4.9470 -5.9687 0.8030
v  -4.9470 -5.7876 1.3003
v  -4.9470 -5.5817 1.4731
v  -4.9470 -5.3292 1.5651
v  -4.9470 -5.0604 1.5651
v  -4.9470 -4.8078 1.4731
v  -4.9470 -4.6020 1.3003
v  -4.9470 -4.4676 1.0676
v  -4.9470 -4.4208 0.8030
v  -4.9470 -4.4676 0.5382
v  -4.9470 -4.6020 0.3054
v  -4.9470 -4.8078 0.1327
v  -4.9470 -5.0604 0.0408
v  -4.9470 -5.3292 0.0408
v  -4.9470 -5.5817 0.1327
v  -4.9470 -5.7876 0.3054
v  -4.9470 -5.9220 0.5382
v  -5.0221 -5.9220 1.0676
v  -5.0221 -5.9687 0.8030
v  -5.0221 -5.7876 1.3003
v  -5.0221 -5.5817 1.4731
v  -5.0221 -5.3292 1.5651
v  -5.0221 -5.0604 1.5651
v  -5.0221 -4.8078 1.4731
v  -5.0221 -4.6020 1.3003
v  -5.0221 -4.4676 1.0676
v  -5.0221 -4.4208 0.8030
v  -5.0221 -4.4676 0.5382
v  -5.0221 -4.6020 0.3054
v  -5.0221 -4.8078 0.1327
v  -5.0221 -5.0604 0.0408
v  -5.0221 -5.3292 0.0408
v  -5.0221 -5.5817 0.1327
v  -5.0221 -5.7876 0.3054
v  -5.0221 -5.9220 0.5382
v  -5.0972 -5.9220 1.0676
v  -5.0972 -5.9687 0.8030
v  -5.0972 -5.7876 1.3003
v  -5.0972 -5.5817 1.4731
v  -5.0972 -5.3292 1.5651
v  -5.0972 -5.0604 1.5651
v  -5.0972 -4.8078 1.4731
v  -5.0972 -4.6020 1.3003
v  -5.0972 -4.4676 1.0676
v  -5.0972 -4.4208 0.8030
v  -5.0972 -4.4676 0.5382
v  -5.0972 -4.6020 0.3054
v  -5.0972 -4.8078 0.1327
v  -5.0972 -5.0604 0.0408
v  -5.0972 -5.3292 0.0408
v  -5.0972 -5.5817 0.1327
v  -5.0972 -5.7876 0.3054
v  -5.0972 -5.9220 0.5382
v  -5.0972 -5.1948 0.8030
# 110 vertices

vn 1.0000 0.0000 -0.0000
vn 0.0000 -1.0000 -0.0000
vn 0.0000 -0.9397 0.3420
vn 0.0000 -0.7660 0.6428
vn 0.0000 -0.5000 0.8660
vn 0.0000 -0.1736 0.9848
vn 0.0000 0.1736 0.9848
vn 0.0000 0.5000 0.8660
vn 0.0000 0.7660 0.6428
vn 0.0000 0.9397 0.3420
vn 0.0000 1.0000 -0.0000
vn 0.0000 0.9397 -0.3420
vn 0.0000 0.7660 -0.6428
vn 0.0000 0.5000 -0.8660
vn 0.0000 0.1736 -0.9848
vn 0.0000 -0.1736 -0.9848
vn 0.0000 -0.5000 -0.8660
vn 0.0000 -0.7660 -0.6428
vn 0.0000 -0.9397 -0.3420
vn -1.0000 0.0000 -0.0000
# 20 vertex normals

vt 0.0561 0.5058 1.6113
vt 0.0579 0.0419 1.5626
vt 0.0561 0.0122 1.6113
vt 0.0596 0.1277 1.5199
vt 0.0609 0.2590 1.4884
vt 0.0617 0.4201 1.4717
vt 0.0617 0.5916 1.4717
vt 0.0609 0.7527 1.4884
vt 0.0596 0.8840 1.5199
vt 0.0579 0.9697 1.5626
vt 0.0561 0.9995 1.6113
vt 0.0544 0.9697 1.6602
vt 0.0529 0.8840 1.7033
vt 0.0519 0.7527 1.7354
vt 0.0514 0.5916 1.7526
vt 0.0514 0.4201 1.7526
vt 0.0519 0.2590 1.7354
vt 0.0529 0.1277 1.7033
vt 0.0544 0.0419 1.6602
vt 0.0588 0.0419 1.5658
vt 0.0569 0.0122 1.6144
vt 0.0605 0.1277 1.5232
vt 0.0618 0.2590 1.4917
vt 0.0626 0.4201 1.4750
vt 0.0626 0.5916 1.4750
vt 0.0618 0.7527 1.4917
vt 0.0605 0.8840 1.5232
vt 0.0588 0.9697 1.5658
vt 0.0569 0.9995 1.6144
vt 0.0552 0.9697 1.6632
vt 0.0537 0.8840 1.7063
vt 0.0527 0.7527 1.7383
vt 0.0522 0.5916 1.7554
vt 0.0522 0.4201 1.7554
vt 0.0527 0.2590 1.7383
vt 0.0537 0.1277 1.7063
vt 0.0552 0.0419 1.6632
vt 0.0596 0.0419 1.5690
vt 0.0577 0.0122 1.6175
vt 0.0613 0.1277 1.5265
vt 0.0627 0.2590 1.4951
vt 0.0634 0.4201 1.4785
vt 0.0634 0.5916 1.4785
vt 0.0627 0.7527 1.4951
vt 0.0613 0.8840 1.5265
vt 0.0596 0.9697 1.5690
vt 0.0577 0.9995 1.6175
vt 0.0560 0.9697 1.6662
vt 0.0545 0.8840 1.7092
vt 0.0535 0.7527 1.7412
vt 0.0529 0.5916 1.7583
vt 0.0529 0.4201 1.7583
vt 0.0535 0.2590 1.7412
vt 0.0545 0.1277 1.7092
vt 0.0560 0.0419 1.6662
vt 0.0604 0.0419 1.5722
vt 0.0585 0.0122 1.6207
vt 0.0622 0.1277 1.5299
vt 0.0636 0.2590 1.4985
vt 0.0643 0.4201 1.4819
vt 0.0643 0.5916 1.4819
vt 0.0636 0.7527 1.4985
vt 0.0622 0.8840 1.5299
vt 0.0604 0.9697 1.5722
vt 0.0585 0.9995 1.6207
vt 0.0568 0.9697 1.6693
vt 0.0553 0.8840 1.7122
vt 0.0542 0.7527 1.7442
vt 0.0537 0.5916 1.7612
vt 0.0537 0.4201 1.7612
vt 0.0542 0.2590 1.7442
vt 0.0553 0.1277 1.7122
vt 0.0568 0.0419 1.6693
vt 0.0613 0.0419 1.5756
vt 0.0593 0.0122 1.6239
vt 0.0630 0.1277 1.5333
vt 0.0644 0.2590 1.5020
vt 0.0652 0.4201 1.4854
vt 0.0652 0.5916 1.4854
vt 0.0644 0.7527 1.5020
vt 0.0630 0.8840 1.5333
vt 0.0613 0.9697 1.5756
vt 0.0593 0.9995 1.6239
vt 0.0575 0.9697 1.6724
vt 0.0560 0.8840 1.7153
vt 0.0550 0.7527 1.7471
vt 0.0544 0.5916 1.7642
vt 0.0544 0.4201 1.7642
vt 0.0550 0.2590 1.7471
vt 0.0560 0.1277 1.7153
vt 0.0575 0.0419 1.6724
vt 0.0621 0.0419 1.5789
vt 0.0602 0.0122 1.6271
vt 0.0639 0.1277 1.5367
vt 0.0653 0.2590 1.5055
vt 0.0661 0.4201 1.4890
vt 0.0661 0.5916 1.4890
vt 0.0653 0.7527 1.5055
vt 0.0639 0.8840 1.5367
vt 0.0621 0.9697 1.5789
vt 0.0602 0.9995 1.6271
vt 0.0583 0.9697 1.6756
vt 0.0568 0.8840 1.7183
vt 0.0557 0.7527 1.7502
vt 0.0552 0.5916 1.7671
vt 0.0552 0.4201 1.7671
vt 0.0557 0.2590 1.7502
vt 0.0568 0.1277 1.7183
vt 0.0583 0.0419 1.6756
vt 0.0602 0.5058 1.6271
# 110 texture coords

g Cylinder02
usemtl 03___Default
s 1
f 119/115/27 120/116/27 121/117/27 
f 119/115/27 122/118/27 120/116/27 
f 119/115/27 123/119/27 122/118/27 
f 119/115/27 124/120/27 123/119/27 
f 119/115/27 125/121/27 124/120/27 
f 119/115/27 126/122/27 125/121/27 
f 119/115/27 127/123/27 126/122/27 
f 119/115/27 128/124/27 127/123/27 
f 119/115/27 129/125/27 128/124/27 
f 119/115/27 130/126/27 129/125/27 
f 119/115/27 131/127/27 130/126/27 
f 119/115/27 132/128/27 131/127/27 
f 119/115/27 133/129/27 132/128/27 
f 119/115/27 134/130/27 133/129/27 
f 119/115/27 135/131/27 134/130/27 
f 119/115/27 136/132/27 135/131/27 
f 119/115/27 137/133/27 136/132/27 
f 119/115/27 121/117/27 137/133/27 
s 8
f 121/117/28 138/134/29 139/135/28 
f 121/117/28 120/116/29 138/134/29 
f 120/116/29 140/136/30 138/134/29 
f 120/116/29 122/118/30 140/136/30 
f 122/118/30 141/137/31 140/136/30 
f 122/118/30 123/119/31 141/137/31 
f 123/119/31 142/138/32 141/137/31 
f 123/119/31 124/120/32 142/138/32 
f 124/120/32 143/139/33 142/138/32 
f 124/120/32 125/121/33 143/139/33 
f 125/121/33 144/140/34 143/139/33 
f 125/121/33 126/122/34 144/140/34 
f 126/122/34 145/141/35 144/140/34 
f 126/122/34 127/123/35 145/141/35 
f 127/123/35 146/142/36 145/141/35 
f 127/123/35 128/124/36 146/142/36 
f 128/124/36 147/143/37 146/142/36 
f 128/124/36 129/125/37 147/143/37 
f 129/125/37 148/144/38 147/143/37 
f 129/125/37 130/126/38 148/144/38 
f 130/126/38 149/145/39 148/144/38 
f 130/126/38 131/127/39 149/145/39 
f 131/127/39 150/146/40 149/145/39 
f 131/127/39 132/128/40 150/146/40 
f 132/128/40 151/147/41 150/146/40 
f 132/128/40 133/129/41 151/147/41 
f 133/129/41 152/148/42 151/147/41 
f 133/129/41 134/130/42 152/148/42 
f 134/130/42 153/149/43 152/148/42 
f 134/130/42 135/131/43 153/149/43 
f 135/131/43 154/150/44 153/149/43 
f 135/131/43 136/132/44 154/150/44 
f 136/132/44 155/151/45 154/150/44 
f 136/132/44 137/133/45 155/151/45 
f 137/133/45 139/135/28 155/151/45 
f 137/133/45 121/117/28 139/135/28 
f 139/135/28 156/152/29 157/153/28 
f 139/135/28 138/134/29 156/152/29 
f 138/134/29 158/154/30 156/152/29 
f 138/134/29 140/136/30 158/154/30 
f 140/136/30 159/155/31 158/154/30 
f 140/136/30 141/137/31 159/155/31 
f 141/137/31 160/156/32 159/155/31 
f 141/137/31 142/138/32 160/156/32 
f 142/138/32 161/157/33 160/156/32 
f 142/138/32 143/139/33 161/157/33 
f 143/139/33 162/158/34 161/157/33 
f 143/139/33 144/140/34 162/158/34 
f 144/140/34 163/159/35 162/158/34 
f 144/140/34 145/141/35 163/159/35 
f 145/141/35 164/160/36 163/159/35 
f 145/141/35 146/142/36 164/160/36 
f 146/142/36 165/161/37 164/160/36 
f 146/142/36 147/143/37 165/161/37 
f 147/143/37 166/162/38 165/161/37 
f 147/143/37 148/144/38 166/162/38 
f 148/144/38 167/163/39 166/162/38 
f 148/144/38 149/145/39 167/163/39 
f 149/145/39 168/164/40 167/163/39 
f 149/145/39 150/146/40 168/164/40 
f 150/146/40 169/165/41 168/164/40 
f 150/146/40 151/147/41 169/165/41 
f 151/147/41 170/166/42 169/165/41 
f 151/147/41 152/148/42 170/166/42 
f 152/148/42 171/167/43 170/166/42 
f 152/148/42 153/149/43 171/167/43 
f 153/149/43 172/168/44 171/167/43 
f 153/149/43 154/150/44 172/168/44 
f 154/150/44 173/169/45 172/168/44 
f 154/150/44 155/151/45 173/169/45 
f 155/151/45 157/153/28 173/169/45 
f 155/151/45 139/135/28 157/153/28 
f 157/153/28 174/170/29 175/171/28 
f 157/153/28 156/152/29 174/170/29 
f 156/152/29 176/172/30 174/170/29 
f 156/152/29 158/154/30 176/172/30 
f 158/154/30 177/173/31 176/172/30 
f 158/154/30 159/155/31 177/173/31 
f 159/155/31 178/174/32 177/173/31 
f 159/155/31 160/156/32 178/174/32 
f 160/156/32 179/175/33 178/174/32 
f 160/156/32 161/157/33 179/175/33 
f 161/157/33 180/176/34 179/175/33 
f 161/157/33 162/158/34 180/176/34 
f 162/158/34 181/177/35 180/176/34 
f 162/158/34 163/159/35 181/177/35 
f 163/159/35 182/178/36 181/177/35 
f 163/159/35 164/160/36 182/178/36 
f 164/160/36 183/179/37 182/178/36 
f 164/160/36 165/161/37 183/179/37 
f 165/161/37 184/180/38 183/179/37 
f 165/161/37 166/162/38 184/180/38 
f 166/162/38 185/181/39 184/180/38 
f 166/162/38 167/163/39 185/181/39 
f 167/163/39 186/182/40 185/181/39 
f 167/163/39 168/164/40 186/182/40 
f 168/164/40 187/183/41 186/182/40 
f 168/164/40 169/165/41 187/183/41 
f 169/165/41 188/184/42 187/183/41 
f 169/165/41 170/166/42 188/184/42 
f 170/166/42 189/185/43 188/184/42 
f 170/166/42 171/167/43 189/185/43 
f 171/167/43 190/186/44 189/185/43 
f 171/167/43 172/168/44 190/186/44 
f 172/168/44 191/187/45 190/186/44 
f 172/168/44 173/169/45 191/187/45 
f 173/169/45 175/171/28 191/187/45 
f 173/169/45 157/153/28 175/171/28 
f 175/171/28 192/188/29 193/189/28 
f 175/171/28 174/170/29 192/188/29 
f 174/170/29 194/190/30 192/188/29 
f 174/170/29 176/172/30 194/190/30 
f 176/172/30 195/191/31 194/190/30 
f 176/172/30 177/173/31 195/191/31 
f 177/173/31 196/192/32 195/191/31 
f 177/173/31 178/174/32 196/192/32 
f 178/174/32 197/193/33 196/192/32 
f 178/174/32 179/175/33 197/193/33 
f 179/175/33 198/194/34 197/193/33 
f 179/175/33 180/176/34 198/194/34 
f 180/176/34 199/195/35 198/194/34 
f 180/176/34 181/177/35 199/195/35 
f 181/177/35 200/196/36 199/195/35 
f 181/177/35 182/178/36 200/196/36 
f 182/178/36 201/197/37 200/196/36 
f 182/178/36 183/179/37 201/197/37 
f 183/179/37 202/198/38 201/197/37 
f 183/179/37 184/180/38 202/198/38 
f 184/180/38 203/199/39 202/198/38 
f 184/180/38 185/181/39 203/199/39 
f 185/181/39 204/200/40 203/199/39 
f 185/181/39 186/182/40 204/200/40 
f 186/182/40 205/201/41 204/200/40 
f 186/182/40 187/183/41 205/201/41 
f 187/183/41 206/202/42 205/201/41 
f 187/183/41 188/184/42 206/202/42 
f 188/184/42 207/203/43 206/202/42 
f 188/184/42 189/185/43 207/203/43 
f 189/185/43 208/204/44 207/203/43 
f 189/185/43 190/186/44 208/204/44 
f 190/186/44 209/205/45 208/204/44 
f 190/186/44 191/187/45 209/205/45 
f 191/187/45 193/189/28 209/205/45 
f 191/187/45 175/171/28 193/189/28 
f 193/189/28 210/206/29 211/207/28 
f 193/189/28 192/188/29 210/206/29 
f 192/188/29 212/208/30 210/206/29 
f 192/188/29 194/190/30 212/208/30 
f 194/190/30 213/209/31 212/208/30 
f 194/190/30 195/191/31 213/209/31 
f 195/191/31 214/210/32 213/209/31 
f 195/191/31 196/192/32 214/210/32 
f 196/192/32 215/211/33 214/210/32 
f 196/192/32 197/193/33 215/211/33 
f 197/193/33 216/212/34 215/211/33 
f 197/193/33 198/194/34 216/212/34 
f 198/194/34 217/213/35 216/212/34 
f 198/194/34 199/195/35 217/213/35 
f 199/195/35 218/214/36 217/213/35 
f 199/195/35 200/196/36 218/214/36 
f 200/196/36 219/215/37 218/214/36 
f 200/196/36 201/197/37 219/215/37 
f 201/197/37 220/216/38 219/215/37 
f 201/197/37 202/198/38 220/216/38 
f 202/198/38 221/217/39 220/216/38 
f 202/198/38 203/199/39 221/217/39 
f 203/199/39 222/218/40 221/217/39 
f 203/199/39 204/200/40 222/218/40 
f 204/200/40 223/219/41 222/218/40 
f 204/200/40 205/201/41 223/219/41 
f 205/201/41 224/220/42 223/219/41 
f 205/201/41 206/202/42 224/220/42 
f 206/202/42 225/221/43 224/220/42 
f 206/202/42 207/203/43 225/221/43 
f 207/203/43 226/222/44 225/221/43 
f 207/203/43 208/204/44 226/222/44 
f 208/204/44 227/223/45 226/222/44 
f 208/204/44 209/205/45 227/223/45 
f 209/205/45 211/207/28 227/223/45 
f 209/205/45 193/189/28 211/207/28 
s 1
f 228/224/46 211/207/46 210/206/46 
f 228/224/46 210/206/46 212/208/46 
f 228/224/46 212/208/46 213/209/46 
f 228/224/46 213/209/46 214/210/46 
f 228/224/46 214/210/46 215/211/46 
f 228/224/46 215/211/46 216/212/46 
f 228/224/46 216/212/46 217/213/46 
f 228/224/46 217/213/46 218/214/46 
f 228/224/46 218/214/46 219/215/46 
f 228/224/46 219/215/46 220/216/46 
f 228/224/46 220/216/46 221/217/46 
f 228/224/46 221/217/46 222/218/46 
f 228/224/46 222/218/46 223/219/46 
f 228/224/46 223/219/46 224/220/46 
f 228/224/46 224/220/46 225/221/46 
f 228/224/46 225/221/46 226/222/46 
f 228/224/46 226/222/46 227/223/46 
f 228/224/46 227/223/46 211/207/46 
# 216 faces

#
# object Box03
#

v  -4.6018 -5.2497 0.6302
v  -4.6018 -2.9337 0.6302
v  -4.6013 -2.9337 0.9757
v  -4.6013 -5.2497 0.9757
v  -4.7297 -5.2497 0.6304
v  -4.7292 -5.2497 0.9760
v  -4.7292 -2.9337 0.9760
v  -4.7297 -2.9337 0.6304
# 8 vertices

vn 1.0000 0.0000 -0.0022
vn -1.0000 0.0000 0.0022
vn 0.0000 -1.0000 -0.0000
vn 0.0014 0.0000 1.0000
vn 0.0000 1.0000 -0.0000
vn -0.0014 0.0000 -1.0000
# 6 vertex normals

vt 1.0000 0.0000 0.0000
vt 1.0000 1.0000 0.0000
vt 0.0000 1.0000 0.0000
vt 0.0000 0.0000 0.0000
# 4 texture coords

g Box03
usemtl wire_214229166
s 2
f 229/225/47 230/226/47 231/227/47 
f 231/227/47 232/228/47 229/225/47 
s 4
f 233/228/48 234/225/48 235/226/48 
f 235/226/48 236/227/48 233/228/48 
s 8
f 229/228/49 232/225/49 234/226/49 
f 234/226/49 233/227/49 229/228/49 
s 16
f 232/228/50 231/225/50 235/226/50 
f 235/226/50 234/227/50 232/228/50 
s 32
f 231/228/51 230/225/51 236/226/51 
f 236/226/51 235/227/51 231/228/51 
s 64
f 230/228/52 229/225/52 233/226/52 
f 233/226/52 236/227/52 230/228/52 
# 12 faces

