^E:\UNIVERSITY\YEAR 3\GRAPHICS\CWK\VERSION CONTROL\VERSION 0.5.0\VISUAL 2012 ENVIRONMENT\3DSTRUCT\BOUNDINGBOX.CPP|E:\UNIVERSITY\YEAR 3\GRAPHICS\CWK\VERSION CONTROL\VERSION 0.5.0\VISUAL 2012 ENVIRONMENT\3DSTRUCT\SPHERE.CPP|E:\UNIVERSITY\YEAR 3\GRAPHICS\CWK\VERSION CONTROL\VERSION 0.5.0\VISUAL 2012 ENVIRONMENT\3DSTRUCT\THREEDMODEL.CPP|E:\UNIVERSITY\YEAR 3\GRAPHICS\CWK\VERSION CONTROL\VERSION 0.5.0\VISUAL 2012 ENVIRONMENT\BOUNDINGSPHERE.CPP|E:\UNIVERSITY\YEAR 3\GRAPHICS\CWK\VERSION CONTROL\VERSION 0.5.0\VISUAL 2012 ENVIRONMENT\BOX.CPP|E:\UNIVERSITY\YEAR 3\GRAPHICS\CWK\VERSION CONTROL\VERSION 0.5.0\VISUAL 2012 ENVIRONMENT\CAMERA.CPP|E:\UNIVERSITY\YEAR 3\GRAPHICS\CWK\VERSION CONTROL\VERSION 0.5.0\VISUAL 2012 ENVIRONMENT\COLLISIONTESTS.CPP|E:\UNIVERSITY\YEAR 3\GRAPHICS\CWK\VERSION CONTROL\VERSION 0.5.0\VISUAL 2012 ENVIRONMENT\CONSOLE.CPP|E:\UNIVERSITY\YEAR 3\GRAPHICS\CWK\VERSION CONTROL\VERSION 0.5.0\VISUAL 2012 ENVIRONMENT\CUBE.CPP|E:\UNIVERSITY\YEAR 3\GRAPHICS\CWK\VERSION CONTROL\VERSION 0.5.0\VISUAL 2012 ENVIRONMENT\HUD.CPP|E:\UNIVERSITY\YEAR 3\GRAPHICS\CWK\VERSION CONTROL\VERSION 0.5.0\VISUAL 2012 ENVIRONMENT\IMAGES\IMAGELOADERPNG.CPP|E:\UNIVERSITY\YEAR 3\GRAPHICS\CWK\VERSION CONTROL\VERSION 0.5.0\VISUAL 2012 ENVIRONMENT\MAIN.CPP|E:\UNIVERSITY\YEAR 3\GRAPHICS\CWK\VERSION CONTROL\VERSION 0.5.0\VISUAL 2012 ENVIRONMENT\OBJ\OBJLOADER.CPP|E:\UNIVERSITY\YEAR 3\GRAPHICS\CWK\VERSION CONTROL\VERSION 0.5.0\VISUAL 2012 ENVIRONMENT\OCTREE\OCTREE.CPP|E:\UNIVERSITY\YEAR 3\GRAPHICS\CWK\VERSION CONTROL\VERSION 0.5.0\VISUAL 2012 ENVIRONMENT\PLANE.CPP|E:\UNIVERSITY\YEAR 3\GRAPHICS\CWK\VERSION CONTROL\VERSION 0.5.0\VISUAL 2012 ENVIRONMENT\SHADERS\SHADER.CPP|E:\UNIVERSITY\YEAR 3\GRAPHICS\CWK\VERSION CONTROL\VERSION 0.5.0\VISUAL 2012 ENVIRONMENT\STRUCTURES\VECTOR2D.CPP|E:\UNIVERSITY\YEAR 3\GRAPHICS\CWK\VERSION CONTROL\VERSION 0.5.0\VISUAL 2012 ENVIRONMENT\STRUCTURES\VECTOR3D.CPP|E:\UNIVERSITY\YEAR 3\GRAPHICS\CWK\VERSION CONTROL\VERSION 0.5.0\VISUAL 2012 ENVIRONMENT\TEXTUREHANDLER\TEXTUREHANDLER.CPP|E:\UNIVERSITY\YEAR 3\GRAPHICS\CWK\VERSION CONTROL\VERSION 0.5.0\VISUAL 2012 ENVIRONMENT\UTILITIES\INTERSECTIONTESTS.CPP
E:\UNIVERSITY\YEAR 3\GRAPHICS\CWK\VERSION CONTROL\VERSION 0.5.0\VISUAL 2012 ENVIRONMENT\RELEASE\SHADER.OBJ
E:\UNIVERSITY\YEAR 3\GRAPHICS\CWK\VERSION CONTROL\VERSION 0.5.0\VISUAL 2012 ENVIRONMENT\RELEASE\INTERSECTIONTESTS.OBJ
E:\UNIVERSITY\YEAR 3\GRAPHICS\CWK\VERSION CONTROL\VERSION 0.5.0\VISUAL 2012 ENVIRONMENT\RELEASE\TEXTUREHANDLER.OBJ
E:\UNIVERSITY\YEAR 3\GRAPHICS\CWK\VERSION CONTROL\VERSION 0.5.0\VISUAL 2012 ENVIRONMENT\RELEASE\VECTOR3D.OBJ
E:\UNIVERSITY\YEAR 3\GRAPHICS\CWK\VERSION CONTROL\VERSION 0.5.0\VISUAL 2012 ENVIRONMENT\RELEASE\VECTOR2D.OBJ
E:\UNIVERSITY\YEAR 3\GRAPHICS\CWK\VERSION CONTROL\VERSION 0.5.0\VISUAL 2012 ENVIRONMENT\RELEASE\PLANE.OBJ
E:\UNIVERSITY\YEAR 3\GRAPHICS\CWK\VERSION CONTROL\VERSION 0.5.0\VISUAL 2012 ENVIRONMENT\RELEASE\OCTREE.OBJ
E:\UNIVERSITY\YEAR 3\GRAPHICS\CWK\VERSION CONTROL\VERSION 0.5.0\VISUAL 2012 ENVIRONMENT\RELEASE\OBJLOADER.OBJ
E:\UNIVERSITY\YEAR 3\GRAPHICS\CWK\VERSION CONTROL\VERSION 0.5.0\VISUAL 2012 ENVIRONMENT\RELEASE\IMAGELOADERPNG.OBJ
E:\UNIVERSITY\YEAR 3\GRAPHICS\CWK\VERSION CONTROL\VERSION 0.5.0\VISUAL 2012 ENVIRONMENT\RELEASE\MAIN.OBJ
E:\UNIVERSITY\YEAR 3\GRAPHICS\CWK\VERSION CONTROL\VERSION 0.5.0\VISUAL 2012 ENVIRONMENT\RELEASE\HUD.OBJ
E:\UNIVERSITY\YEAR 3\GRAPHICS\CWK\VERSION CONTROL\VERSION 0.5.0\VISUAL 2012 ENVIRONMENT\RELEASE\CUBE.OBJ
E:\UNIVERSITY\YEAR 3\GRAPHICS\CWK\VERSION CONTROL\VERSION 0.5.0\VISUAL 2012 ENVIRONMENT\RELEASE\CONSOLE.OBJ
E:\UNIVERSITY\YEAR 3\GRAPHICS\CWK\VERSION CONTROL\VERSION 0.5.0\VISUAL 2012 ENVIRONMENT\RELEASE\COLLISIONTESTS.OBJ
E:\UNIVERSITY\YEAR 3\GRAPHICS\CWK\VERSION CONTROL\VERSION 0.5.0\VISUAL 2012 ENVIRONMENT\RELEASE\CAMERA.OBJ
E:\UNIVERSITY\YEAR 3\GRAPHICS\CWK\VERSION CONTROL\VERSION 0.5.0\VISUAL 2012 ENVIRONMENT\RELEASE\BOX.OBJ
E:\UNIVERSITY\YEAR 3\GRAPHICS\CWK\VERSION CONTROL\VERSION 0.5.0\VISUAL 2012 ENVIRONMENT\RELEASE\BOUNDINGSPHERE.OBJ
E:\UNIVERSITY\YEAR 3\GRAPHICS\CWK\VERSION CONTROL\VERSION 0.5.0\VISUAL 2012 ENVIRONMENT\RELEASE\THREEDMODEL.OBJ
E:\UNIVERSITY\YEAR 3\GRAPHICS\CWK\VERSION CONTROL\VERSION 0.5.0\VISUAL 2012 ENVIRONMENT\RELEASE\SPHERE.OBJ
E:\UNIVERSITY\YEAR 3\GRAPHICS\CWK\VERSION CONTROL\VERSION 0.5.0\VISUAL 2012 ENVIRONMENT\RELEASE\BOUNDINGBOX.OBJ
^E:\UNIVERSITY\YEAR 3\GRAPHICS\CWK\VERSION CONTROL\VERSION 0.5.0\VISUAL 2012 ENVIRONMENT\3DSTRUCT\BOUNDINGBOX.CPP
E:\UNIVERSITY\YEAR 3\GRAPHICS\CWK\VERSION CONTROL\VERSION 0.5.0\VISUAL 2012 ENVIRONMENT\RELEASE\VC110.PDB
^E:\UNIVERSITY\YEAR 3\GRAPHICS\CWK\VERSION CONTROL\VERSION 0.5.0\VISUAL 2012 ENVIRONMENT\3DSTRUCT\SPHERE.CPP
E:\UNIVERSITY\YEAR 3\GRAPHICS\CWK\VERSION CONTROL\VERSION 0.5.0\VISUAL 2012 ENVIRONMENT\RELEASE\VC110.PDB
^E:\UNIVERSITY\YEAR 3\GRAPHICS\CWK\VERSION CONTROL\VERSION 0.5.0\VISUAL 2012 ENVIRONMENT\3DSTRUCT\THREEDMODEL.CPP
E:\UNIVERSITY\YEAR 3\GRAPHICS\CWK\VERSION CONTROL\VERSION 0.5.0\VISUAL 2012 ENVIRONMENT\RELEASE\VC110.PDB
^E:\UNIVERSITY\YEAR 3\GRAPHICS\CWK\VERSION CONTROL\VERSION 0.5.0\VISUAL 2012 ENVIRONMENT\BOUNDINGSPHERE.CPP
E:\UNIVERSITY\YEAR 3\GRAPHICS\CWK\VERSION CONTROL\VERSION 0.5.0\VISUAL 2012 ENVIRONMENT\RELEASE\VC110.PDB
^E:\UNIVERSITY\YEAR 3\GRAPHICS\CWK\VERSION CONTROL\VERSION 0.5.0\VISUAL 2012 ENVIRONMENT\BOX.CPP
E:\UNIVERSITY\YEAR 3\GRAPHICS\CWK\VERSION CONTROL\VERSION 0.5.0\VISUAL 2012 ENVIRONMENT\RELEASE\VC110.PDB
^E:\UNIVERSITY\YEAR 3\GRAPHICS\CWK\VERSION CONTROL\VERSION 0.5.0\VISUAL 2012 ENVIRONMENT\CAMERA.CPP
E:\UNIVERSITY\YEAR 3\GRAPHICS\CWK\VERSION CONTROL\VERSION 0.5.0\VISUAL 2012 ENVIRONMENT\RELEASE\VC110.PDB
^E:\UNIVERSITY\YEAR 3\GRAPHICS\CWK\VERSION CONTROL\VERSION 0.5.0\VISUAL 2012 ENVIRONMENT\COLLISIONTESTS.CPP
E:\UNIVERSITY\YEAR 3\GRAPHICS\CWK\VERSION CONTROL\VERSION 0.5.0\VISUAL 2012 ENVIRONMENT\RELEASE\VC110.PDB
^E:\UNIVERSITY\YEAR 3\GRAPHICS\CWK\VERSION CONTROL\VERSION 0.5.0\VISUAL 2012 ENVIRONMENT\CONSOLE.CPP
E:\UNIVERSITY\YEAR 3\GRAPHICS\CWK\VERSION CONTROL\VERSION 0.5.0\VISUAL 2012 ENVIRONMENT\RELEASE\VC110.PDB
^E:\UNIVERSITY\YEAR 3\GRAPHICS\CWK\VERSION CONTROL\VERSION 0.5.0\VISUAL 2012 ENVIRONMENT\CUBE.CPP
E:\UNIVERSITY\YEAR 3\GRAPHICS\CWK\VERSION CONTROL\VERSION 0.5.0\VISUAL 2012 ENVIRONMENT\RELEASE\VC110.PDB
^E:\UNIVERSITY\YEAR 3\GRAPHICS\CWK\VERSION CONTROL\VERSION 0.5.0\VISUAL 2012 ENVIRONMENT\HUD.CPP
E:\UNIVERSITY\YEAR 3\GRAPHICS\CWK\VERSION CONTROL\VERSION 0.5.0\VISUAL 2012 ENVIRONMENT\RELEASE\VC110.PDB
^E:\UNIVERSITY\YEAR 3\GRAPHICS\CWK\VERSION CONTROL\VERSION 0.5.0\VISUAL 2012 ENVIRONMENT\IMAGES\IMAGELOADERPNG.CPP
E:\UNIVERSITY\YEAR 3\GRAPHICS\CWK\VERSION CONTROL\VERSION 0.5.0\VISUAL 2012 ENVIRONMENT\RELEASE\VC110.PDB
^E:\UNIVERSITY\YEAR 3\GRAPHICS\CWK\VERSION CONTROL\VERSION 0.5.0\VISUAL 2012 ENVIRONMENT\OBJ\OBJLOADER.CPP
E:\UNIVERSITY\YEAR 3\GRAPHICS\CWK\VERSION CONTROL\VERSION 0.5.0\VISUAL 2012 ENVIRONMENT\RELEASE\VC110.PDB
^E:\UNIVERSITY\YEAR 3\GRAPHICS\CWK\VERSION CONTROL\VERSION 0.5.0\VISUAL 2012 ENVIRONMENT\OCTREE\OCTREE.CPP
E:\UNIVERSITY\YEAR 3\GRAPHICS\CWK\VERSION CONTROL\VERSION 0.5.0\VISUAL 2012 ENVIRONMENT\RELEASE\VC110.PDB
^E:\UNIVERSITY\YEAR 3\GRAPHICS\CWK\VERSION CONTROL\VERSION 0.5.0\VISUAL 2012 ENVIRONMENT\STRUCTURES\VECTOR2D.CPP
E:\UNIVERSITY\YEAR 3\GRAPHICS\CWK\VERSION CONTROL\VERSION 0.5.0\VISUAL 2012 ENVIRONMENT\RELEASE\VC110.PDB
^E:\UNIVERSITY\YEAR 3\GRAPHICS\CWK\VERSION CONTROL\VERSION 0.5.0\VISUAL 2012 ENVIRONMENT\STRUCTURES\VECTOR3D.CPP
E:\UNIVERSITY\YEAR 3\GRAPHICS\CWK\VERSION CONTROL\VERSION 0.5.0\VISUAL 2012 ENVIRONMENT\RELEASE\VC110.PDB
^E:\UNIVERSITY\YEAR 3\GRAPHICS\CWK\VERSION CONTROL\VERSION 0.5.0\VISUAL 2012 ENVIRONMENT\TEXTUREHANDLER\TEXTUREHANDLER.CPP
E:\UNIVERSITY\YEAR 3\GRAPHICS\CWK\VERSION CONTROL\VERSION 0.5.0\VISUAL 2012 ENVIRONMENT\RELEASE\VC110.PDB
^E:\UNIVERSITY\YEAR 3\GRAPHICS\CWK\VERSION CONTROL\VERSION 0.5.0\VISUAL 2012 ENVIRONMENT\UTILITIES\INTERSECTIONTESTS.CPP
E:\UNIVERSITY\YEAR 3\GRAPHICS\CWK\VERSION CONTROL\VERSION 0.5.0\VISUAL 2012 ENVIRONMENT\RELEASE\VC110.PDB
^E:\UNIVERSITY\YEAR 3\GRAPHICS\CWK\VERSION CONTROL\VERSION 0.5.0\VISUAL 2012 ENVIRONMENT\SHADERS\SHADER.CPP
E:\UNIVERSITY\YEAR 3\GRAPHICS\CWK\VERSION CONTROL\VERSION 0.5.0\VISUAL 2012 ENVIRONMENT\RELEASE\VC110.PDB
^E:\UNIVERSITY\YEAR 3\GRAPHICS\CWK\VERSION CONTROL\VERSION 0.5.0\VISUAL 2012 ENVIRONMENT\MAIN.CPP
E:\UNIVERSITY\YEAR 3\GRAPHICS\CWK\VERSION CONTROL\VERSION 0.5.0\VISUAL 2012 ENVIRONMENT\RELEASE\MAIN.OBJ
E:\UNIVERSITY\YEAR 3\GRAPHICS\CWK\VERSION CONTROL\VERSION 0.5.0\VISUAL 2012 ENVIRONMENT\RELEASE\VC110.PDB
^E:\UNIVERSITY\YEAR 3\GRAPHICS\CWK\VERSION CONTROL\VERSION 0.5.0\VISUAL 2012 ENVIRONMENT\PLANE.CPP
E:\UNIVERSITY\YEAR 3\GRAPHICS\CWK\VERSION CONTROL\VERSION 0.5.0\VISUAL 2012 ENVIRONMENT\RELEASE\PLANE.OBJ
E:\UNIVERSITY\YEAR 3\GRAPHICS\CWK\VERSION CONTROL\VERSION 0.5.0\VISUAL 2012 ENVIRONMENT\RELEASE\VC110.PDB
^I:\UNIVERSITY\YEAR 3\GRAPHICS\CWK\VERSION CONTROL\VERSION 0.5.0\VISUAL 2012 ENVIRONMENT\3DSTRUCT\BOUNDINGBOX.CPP|I:\UNIVERSITY\YEAR 3\GRAPHICS\CWK\VERSION CONTROL\VERSION 0.5.0\VISUAL 2012 ENVIRONMENT\3DSTRUCT\SPHERE.CPP|I:\UNIVERSITY\YEAR 3\GRAPHICS\CWK\VERSION CONTROL\VERSION 0.5.0\VISUAL 2012 ENVIRONMENT\3DSTRUCT\THREEDMODEL.CPP|I:\UNIVERSITY\YEAR 3\GRAPHICS\CWK\VERSION CONTROL\VERSION 0.5.0\VISUAL 2012 ENVIRONMENT\BOUNDINGSPHERE.CPP|I:\UNIVERSITY\YEAR 3\GRAPHICS\CWK\VERSION CONTROL\VERSION 0.5.0\VISUAL 2012 ENVIRONMENT\BOX.CPP|I:\UNIVERSITY\YEAR 3\GRAPHICS\CWK\VERSION CONTROL\VERSION 0.5.0\VISUAL 2012 ENVIRONMENT\CAMERA.CPP|I:\UNIVERSITY\YEAR 3\GRAPHICS\CWK\VERSION CONTROL\VERSION 0.5.0\VISUAL 2012 ENVIRONMENT\COLLISIONTESTS.CPP|I:\UNIVERSITY\YEAR 3\GRAPHICS\CWK\VERSION CONTROL\VERSION 0.5.0\VISUAL 2012 ENVIRONMENT\CONSOLE.CPP|I:\UNIVERSITY\YEAR 3\GRAPHICS\CWK\VERSION CONTROL\VERSION 0.5.0\VISUAL 2012 ENVIRONMENT\CUBE.CPP|I:\UNIVERSITY\YEAR 3\GRAPHICS\CWK\VERSION CONTROL\VERSION 0.5.0\VISUAL 2012 ENVIRONMENT\HUD.CPP|I:\UNIVERSITY\YEAR 3\GRAPHICS\CWK\VERSION CONTROL\VERSION 0.5.0\VISUAL 2012 ENVIRONMENT\IMAGES\IMAGELOADERPNG.CPP|I:\UNIVERSITY\YEAR 3\GRAPHICS\CWK\VERSION CONTROL\VERSION 0.5.0\VISUAL 2012 ENVIRONMENT\MAIN.CPP|I:\UNIVERSITY\YEAR 3\GRAPHICS\CWK\VERSION CONTROL\VERSION 0.5.0\VISUAL 2012 ENVIRONMENT\OBJ\OBJLOADER.CPP|I:\UNIVERSITY\YEAR 3\GRAPHICS\CWK\VERSION CONTROL\VERSION 0.5.0\VISUAL 2012 ENVIRONMENT\OCTREE\OCTREE.CPP|I:\UNIVERSITY\YEAR 3\GRAPHICS\CWK\VERSION CONTROL\VERSION 0.5.0\VISUAL 2012 ENVIRONMENT\PLANE.CPP|I:\UNIVERSITY\YEAR 3\GRAPHICS\CWK\VERSION CONTROL\VERSION 0.5.0\VISUAL 2012 ENVIRONMENT\SHADERS\SHADER.CPP|I:\UNIVERSITY\YEAR 3\GRAPHICS\CWK\VERSION CONTROL\VERSION 0.5.0\VISUAL 2012 ENVIRONMENT\STRUCTURES\VECTOR2D.CPP|I:\UNIVERSITY\YEAR 3\GRAPHICS\CWK\VERSION CONTROL\VERSION 0.5.0\VISUAL 2012 ENVIRONMENT\STRUCTURES\VECTOR3D.CPP|I:\UNIVERSITY\YEAR 3\GRAPHICS\CWK\VERSION CONTROL\VERSION 0.5.0\VISUAL 2012 ENVIRONMENT\TEXTUREHANDLER\TEXTUREHANDLER.CPP|I:\UNIVERSITY\YEAR 3\GRAPHICS\CWK\VERSION CONTROL\VERSION 0.5.0\VISUAL 2012 ENVIRONMENT\UTILITIES\INTERSECTIONTESTS.CPP
I:\UNIVERSITY\YEAR 3\GRAPHICS\CWK\VERSION CONTROL\VERSION 0.5.0\VISUAL 2012 ENVIRONMENT\RELEASE\SHADER.OBJ
I:\UNIVERSITY\YEAR 3\GRAPHICS\CWK\VERSION CONTROL\VERSION 0.5.0\VISUAL 2012 ENVIRONMENT\RELEASE\INTERSECTIONTESTS.OBJ
I:\UNIVERSITY\YEAR 3\GRAPHICS\CWK\VERSION CONTROL\VERSION 0.5.0\VISUAL 2012 ENVIRONMENT\RELEASE\TEXTUREHANDLER.OBJ
I:\UNIVERSITY\YEAR 3\GRAPHICS\CWK\VERSION CONTROL\VERSION 0.5.0\VISUAL 2012 ENVIRONMENT\RELEASE\VECTOR3D.OBJ
I:\UNIVERSITY\YEAR 3\GRAPHICS\CWK\VERSION CONTROL\VERSION 0.5.0\VISUAL 2012 ENVIRONMENT\RELEASE\VECTOR2D.OBJ
I:\UNIVERSITY\YEAR 3\GRAPHICS\CWK\VERSION CONTROL\VERSION 0.5.0\VISUAL 2012 ENVIRONMENT\RELEASE\PLANE.OBJ
I:\UNIVERSITY\YEAR 3\GRAPHICS\CWK\VERSION CONTROL\VERSION 0.5.0\VISUAL 2012 ENVIRONMENT\RELEASE\OCTREE.OBJ
I:\UNIVERSITY\YEAR 3\GRAPHICS\CWK\VERSION CONTROL\VERSION 0.5.0\VISUAL 2012 ENVIRONMENT\RELEASE\OBJLOADER.OBJ
I:\UNIVERSITY\YEAR 3\GRAPHICS\CWK\VERSION CONTROL\VERSION 0.5.0\VISUAL 2012 ENVIRONMENT\RELEASE\IMAGELOADERPNG.OBJ
I:\UNIVERSITY\YEAR 3\GRAPHICS\CWK\VERSION CONTROL\VERSION 0.5.0\VISUAL 2012 ENVIRONMENT\RELEASE\MAIN.OBJ
I:\UNIVERSITY\YEAR 3\GRAPHICS\CWK\VERSION CONTROL\VERSION 0.5.0\VISUAL 2012 ENVIRONMENT\RELEASE\HUD.OBJ
I:\UNIVERSITY\YEAR 3\GRAPHICS\CWK\VERSION CONTROL\VERSION 0.5.0\VISUAL 2012 ENVIRONMENT\RELEASE\CUBE.OBJ
I:\UNIVERSITY\YEAR 3\GRAPHICS\CWK\VERSION CONTROL\VERSION 0.5.0\VISUAL 2012 ENVIRONMENT\RELEASE\CONSOLE.OBJ
I:\UNIVERSITY\YEAR 3\GRAPHICS\CWK\VERSION CONTROL\VERSION 0.5.0\VISUAL 2012 ENVIRONMENT\RELEASE\COLLISIONTESTS.OBJ
I:\UNIVERSITY\YEAR 3\GRAPHICS\CWK\VERSION CONTROL\VERSION 0.5.0\VISUAL 2012 ENVIRONMENT\RELEASE\CAMERA.OBJ
I:\UNIVERSITY\YEAR 3\GRAPHICS\CWK\VERSION CONTROL\VERSION 0.5.0\VISUAL 2012 ENVIRONMENT\RELEASE\BOX.OBJ
I:\UNIVERSITY\YEAR 3\GRAPHICS\CWK\VERSION CONTROL\VERSION 0.5.0\VISUAL 2012 ENVIRONMENT\RELEASE\BOUNDINGSPHERE.OBJ
I:\UNIVERSITY\YEAR 3\GRAPHICS\CWK\VERSION CONTROL\VERSION 0.5.0\VISUAL 2012 ENVIRONMENT\RELEASE\THREEDMODEL.OBJ
I:\UNIVERSITY\YEAR 3\GRAPHICS\CWK\VERSION CONTROL\VERSION 0.5.0\VISUAL 2012 ENVIRONMENT\RELEASE\SPHERE.OBJ
I:\UNIVERSITY\YEAR 3\GRAPHICS\CWK\VERSION CONTROL\VERSION 0.5.0\VISUAL 2012 ENVIRONMENT\RELEASE\BOUNDINGBOX.OBJ
^I:\UNIVERSITY\YEAR 3\GRAPHICS\CWK\VERSION CONTROL\VERSION 0.5.0\VISUAL 2012 ENVIRONMENT\3DSTRUCT\BOUNDINGBOX.CPP
I:\UNIVERSITY\YEAR 3\GRAPHICS\CWK\VERSION CONTROL\VERSION 0.5.0\VISUAL 2012 ENVIRONMENT\RELEASE\VC110.PDB
^I:\UNIVERSITY\YEAR 3\GRAPHICS\CWK\VERSION CONTROL\VERSION 0.5.0\VISUAL 2012 ENVIRONMENT\3DSTRUCT\SPHERE.CPP
I:\UNIVERSITY\YEAR 3\GRAPHICS\CWK\VERSION CONTROL\VERSION 0.5.0\VISUAL 2012 ENVIRONMENT\RELEASE\VC110.PDB
^I:\UNIVERSITY\YEAR 3\GRAPHICS\CWK\VERSION CONTROL\VERSION 0.5.0\VISUAL 2012 ENVIRONMENT\3DSTRUCT\THREEDMODEL.CPP
I:\UNIVERSITY\YEAR 3\GRAPHICS\CWK\VERSION CONTROL\VERSION 0.5.0\VISUAL 2012 ENVIRONMENT\RELEASE\VC110.PDB
^I:\UNIVERSITY\YEAR 3\GRAPHICS\CWK\VERSION CONTROL\VERSION 0.5.0\VISUAL 2012 ENVIRONMENT\BOUNDINGSPHERE.CPP
I:\UNIVERSITY\YEAR 3\GRAPHICS\CWK\VERSION CONTROL\VERSION 0.5.0\VISUAL 2012 ENVIRONMENT\RELEASE\VC110.PDB
^I:\UNIVERSITY\YEAR 3\GRAPHICS\CWK\VERSION CONTROL\VERSION 0.5.0\VISUAL 2012 ENVIRONMENT\BOX.CPP
I:\UNIVERSITY\YEAR 3\GRAPHICS\CWK\VERSION CONTROL\VERSION 0.5.0\VISUAL 2012 ENVIRONMENT\RELEASE\VC110.PDB
^I:\UNIVERSITY\YEAR 3\GRAPHICS\CWK\VERSION CONTROL\VERSION 0.5.0\VISUAL 2012 ENVIRONMENT\CAMERA.CPP
I:\UNIVERSITY\YEAR 3\GRAPHICS\CWK\VERSION CONTROL\VERSION 0.5.0\VISUAL 2012 ENVIRONMENT\RELEASE\VC110.PDB
^I:\UNIVERSITY\YEAR 3\GRAPHICS\CWK\VERSION CONTROL\VERSION 0.5.0\VISUAL 2012 ENVIRONMENT\COLLISIONTESTS.CPP
I:\UNIVERSITY\YEAR 3\GRAPHICS\CWK\VERSION CONTROL\VERSION 0.5.0\VISUAL 2012 ENVIRONMENT\RELEASE\VC110.PDB
^I:\UNIVERSITY\YEAR 3\GRAPHICS\CWK\VERSION CONTROL\VERSION 0.5.0\VISUAL 2012 ENVIRONMENT\CONSOLE.CPP
I:\UNIVERSITY\YEAR 3\GRAPHICS\CWK\VERSION CONTROL\VERSION 0.5.0\VISUAL 2012 ENVIRONMENT\RELEASE\VC110.PDB
^I:\UNIVERSITY\YEAR 3\GRAPHICS\CWK\VERSION CONTROL\VERSION 0.5.0\VISUAL 2012 ENVIRONMENT\CUBE.CPP
I:\UNIVERSITY\YEAR 3\GRAPHICS\CWK\VERSION CONTROL\VERSION 0.5.0\VISUAL 2012 ENVIRONMENT\RELEASE\VC110.PDB
^I:\UNIVERSITY\YEAR 3\GRAPHICS\CWK\VERSION CONTROL\VERSION 0.5.0\VISUAL 2012 ENVIRONMENT\HUD.CPP
I:\UNIVERSITY\YEAR 3\GRAPHICS\CWK\VERSION CONTROL\VERSION 0.5.0\VISUAL 2012 ENVIRONMENT\RELEASE\VC110.PDB
^I:\UNIVERSITY\YEAR 3\GRAPHICS\CWK\VERSION CONTROL\VERSION 0.5.0\VISUAL 2012 ENVIRONMENT\MAIN.CPP
I:\UNIVERSITY\YEAR 3\GRAPHICS\CWK\VERSION CONTROL\VERSION 0.5.0\VISUAL 2012 ENVIRONMENT\RELEASE\VC110.PDB
^I:\UNIVERSITY\YEAR 3\GRAPHICS\CWK\VERSION CONTROL\VERSION 0.5.0\VISUAL 2012 ENVIRONMENT\IMAGES\IMAGELOADERPNG.CPP
I:\UNIVERSITY\YEAR 3\GRAPHICS\CWK\VERSION CONTROL\VERSION 0.5.0\VISUAL 2012 ENVIRONMENT\RELEASE\VC110.PDB
^I:\UNIVERSITY\YEAR 3\GRAPHICS\CWK\VERSION CONTROL\VERSION 0.5.0\VISUAL 2012 ENVIRONMENT\OBJ\OBJLOADER.CPP
I:\UNIVERSITY\YEAR 3\GRAPHICS\CWK\VERSION CONTROL\VERSION 0.5.0\VISUAL 2012 ENVIRONMENT\RELEASE\VC110.PDB
^I:\UNIVERSITY\YEAR 3\GRAPHICS\CWK\VERSION CONTROL\VERSION 0.5.0\VISUAL 2012 ENVIRONMENT\OCTREE\OCTREE.CPP
I:\UNIVERSITY\YEAR 3\GRAPHICS\CWK\VERSION CONTROL\VERSION 0.5.0\VISUAL 2012 ENVIRONMENT\RELEASE\VC110.PDB
^I:\UNIVERSITY\YEAR 3\GRAPHICS\CWK\VERSION CONTROL\VERSION 0.5.0\VISUAL 2012 ENVIRONMENT\PLANE.CPP
I:\UNIVERSITY\YEAR 3\GRAPHICS\CWK\VERSION CONTROL\VERSION 0.5.0\VISUAL 2012 ENVIRONMENT\RELEASE\VC110.PDB
^I:\UNIVERSITY\YEAR 3\GRAPHICS\CWK\VERSION CONTROL\VERSION 0.5.0\VISUAL 2012 ENVIRONMENT\STRUCTURES\VECTOR2D.CPP
I:\UNIVERSITY\YEAR 3\GRAPHICS\CWK\VERSION CONTROL\VERSION 0.5.0\VISUAL 2012 ENVIRONMENT\RELEASE\VC110.PDB
^I:\UNIVERSITY\YEAR 3\GRAPHICS\CWK\VERSION CONTROL\VERSION 0.5.0\VISUAL 2012 ENVIRONMENT\STRUCTURES\VECTOR3D.CPP
I:\UNIVERSITY\YEAR 3\GRAPHICS\CWK\VERSION CONTROL\VERSION 0.5.0\VISUAL 2012 ENVIRONMENT\RELEASE\VC110.PDB
^I:\UNIVERSITY\YEAR 3\GRAPHICS\CWK\VERSION CONTROL\VERSION 0.5.0\VISUAL 2012 ENVIRONMENT\TEXTUREHANDLER\TEXTUREHANDLER.CPP
I:\UNIVERSITY\YEAR 3\GRAPHICS\CWK\VERSION CONTROL\VERSION 0.5.0\VISUAL 2012 ENVIRONMENT\RELEASE\VC110.PDB
^I:\UNIVERSITY\YEAR 3\GRAPHICS\CWK\VERSION CONTROL\VERSION 0.5.0\VISUAL 2012 ENVIRONMENT\UTILITIES\INTERSECTIONTESTS.CPP
I:\UNIVERSITY\YEAR 3\GRAPHICS\CWK\VERSION CONTROL\VERSION 0.5.0\VISUAL 2012 ENVIRONMENT\RELEASE\VC110.PDB
^I:\UNIVERSITY\YEAR 3\GRAPHICS\CWK\VERSION CONTROL\VERSION 0.5.0\VISUAL 2012 ENVIRONMENT\SHADERS\SHADER.CPP
I:\UNIVERSITY\YEAR 3\GRAPHICS\CWK\VERSION CONTROL\VERSION 0.5.0\VISUAL 2012 ENVIRONMENT\RELEASE\VC110.PDB
