^E:\UNIVERSITY\YEAR 3\GRAPHICS\CWK\VERSION CONTROL\VERSION 0.5.0\VISUAL 2012 ENVIRONMENT\3DSTRUCT\BOUNDINGBOX.CPP
/c /Zi /nologo /W3 /WX- /O2 /Oi /Oy- /GL /D WIN32 /D NDEBUG /D _WINDOWS /D _MBCS /Gm- /EHsc /MD /GS /Gy /fp:precise /Zc:wchar_t /Zc:forScope /Fo"RELEASE\\" /Fd"RELEASE\VC120.PDB" /Gd /TP /analyze- E:\UNIVERSITY\YEAR 3\GRAPHICS\CWK\VERSION CONTROL\VERSION 0.5.0\VISUAL 2012 ENVIRONMENT\3DSTRUCT\BOUNDINGBOX.CPP
^E:\UNIVERSITY\YEAR 3\GRAPHICS\CWK\VERSION CONTROL\VERSION 0.5.0\VISUAL 2012 ENVIRONMENT\3DSTRUCT\SPHERE.CPP
/c /Zi /nologo /W3 /WX- /O2 /Oi /Oy- /GL /D WIN32 /D NDEBUG /D _WINDOWS /D _MBCS /Gm- /EHsc /MD /GS /Gy /fp:precise /Zc:wchar_t /Zc:forScope /Fo"RELEASE\\" /Fd"RELEASE\VC120.PDB" /Gd /TP /analyze- E:\UNIVERSITY\YEAR 3\GRAPHICS\CWK\VERSION CONTROL\VERSION 0.5.0\VISUAL 2012 ENVIRONMENT\3DSTRUCT\SPHERE.CPP
^E:\UNIVERSITY\YEAR 3\GRAPHICS\CWK\VERSION CONTROL\VERSION 0.5.0\VISUAL 2012 ENVIRONMENT\3DSTRUCT\THREEDMODEL.CPP
/c /Zi /nologo /W3 /WX- /O2 /Oi /Oy- /GL /D WIN32 /D NDEBUG /D _WINDOWS /D _MBCS /Gm- /EHsc /MD /GS /Gy /fp:precise /Zc:wchar_t /Zc:forScope /Fo"RELEASE\\" /Fd"RELEASE\VC120.PDB" /Gd /TP /analyze- E:\UNIVERSITY\YEAR 3\GRAPHICS\CWK\VERSION CONTROL\VERSION 0.5.0\VISUAL 2012 ENVIRONMENT\3DSTRUCT\THREEDMODEL.CPP
^E:\UNIVERSITY\YEAR 3\GRAPHICS\CWK\VERSION CONTROL\VERSION 0.5.0\VISUAL 2012 ENVIRONMENT\BOUNDINGSPHERE.CPP
/c /Zi /nologo /W3 /WX- /O2 /Oi /Oy- /GL /D WIN32 /D NDEBUG /D _WINDOWS /D _MBCS /Gm- /EHsc /MD /GS /Gy /fp:precise /Zc:wchar_t /Zc:forScope /Fo"RELEASE\\" /Fd"RELEASE\VC120.PDB" /Gd /TP /analyze- E:\UNIVERSITY\YEAR 3\GRAPHICS\CWK\VERSION CONTROL\VERSION 0.5.0\VISUAL 2012 ENVIRONMENT\BOUNDINGSPHERE.CPP
^E:\UNIVERSITY\YEAR 3\GRAPHICS\CWK\VERSION CONTROL\VERSION 0.5.0\VISUAL 2012 ENVIRONMENT\BOX.CPP
/c /Zi /nologo /W3 /WX- /O2 /Oi /Oy- /GL /D WIN32 /D NDEBUG /D _WINDOWS /D _MBCS /Gm- /EHsc /MD /GS /Gy /fp:precise /Zc:wchar_t /Zc:forScope /Fo"RELEASE\\" /Fd"RELEASE\VC120.PDB" /Gd /TP /analyze- E:\UNIVERSITY\YEAR 3\GRAPHICS\CWK\VERSION CONTROL\VERSION 0.5.0\VISUAL 2012 ENVIRONMENT\BOX.CPP
^E:\UNIVERSITY\YEAR 3\GRAPHICS\CWK\VERSION CONTROL\VERSION 0.5.0\VISUAL 2012 ENVIRONMENT\CAMERA.CPP
/c /Zi /nologo /W3 /WX- /O2 /Oi /Oy- /GL /D WIN32 /D NDEBUG /D _WINDOWS /D _MBCS /Gm- /EHsc /MD /GS /Gy /fp:precise /Zc:wchar_t /Zc:forScope /Fo"RELEASE\\" /Fd"RELEASE\VC120.PDB" /Gd /TP /analyze- E:\UNIVERSITY\YEAR 3\GRAPHICS\CWK\VERSION CONTROL\VERSION 0.5.0\VISUAL 2012 ENVIRONMENT\CAMERA.CPP
^E:\UNIVERSITY\YEAR 3\GRAPHICS\CWK\VERSION CONTROL\VERSION 0.5.0\VISUAL 2012 ENVIRONMENT\COLLISIONTESTS.CPP
/c /Zi /nologo /W3 /WX- /O2 /Oi /Oy- /GL /D WIN32 /D NDEBUG /D _WINDOWS /D _MBCS /Gm- /EHsc /MD /GS /Gy /fp:precise /Zc:wchar_t /Zc:forScope /Fo"RELEASE\\" /Fd"RELEASE\VC120.PDB" /Gd /TP /analyze- E:\UNIVERSITY\YEAR 3\GRAPHICS\CWK\VERSION CONTROL\VERSION 0.5.0\VISUAL 2012 ENVIRONMENT\COLLISIONTESTS.CPP
^E:\UNIVERSITY\YEAR 3\GRAPHICS\CWK\VERSION CONTROL\VERSION 0.5.0\VISUAL 2012 ENVIRONMENT\CONSOLE.CPP
/c /Zi /nologo /W3 /WX- /O2 /Oi /Oy- /GL /D WIN32 /D NDEBUG /D _WINDOWS /D _MBCS /Gm- /EHsc /MD /GS /Gy /fp:precise /Zc:wchar_t /Zc:forScope /Fo"RELEASE\\" /Fd"RELEASE\VC120.PDB" /Gd /TP /analyze- E:\UNIVERSITY\YEAR 3\GRAPHICS\CWK\VERSION CONTROL\VERSION 0.5.0\VISUAL 2012 ENVIRONMENT\CONSOLE.CPP
^E:\UNIVERSITY\YEAR 3\GRAPHICS\CWK\VERSION CONTROL\VERSION 0.5.0\VISUAL 2012 ENVIRONMENT\CUBE.CPP
/c /Zi /nologo /W3 /WX- /O2 /Oi /Oy- /GL /D WIN32 /D NDEBUG /D _WINDOWS /D _MBCS /Gm- /EHsc /MD /GS /Gy /fp:precise /Zc:wchar_t /Zc:forScope /Fo"RELEASE\\" /Fd"RELEASE\VC120.PDB" /Gd /TP /analyze- E:\UNIVERSITY\YEAR 3\GRAPHICS\CWK\VERSION CONTROL\VERSION 0.5.0\VISUAL 2012 ENVIRONMENT\CUBE.CPP
^E:\UNIVERSITY\YEAR 3\GRAPHICS\CWK\VERSION CONTROL\VERSION 0.5.0\VISUAL 2012 ENVIRONMENT\HUD.CPP
/c /Zi /nologo /W3 /WX- /O2 /Oi /Oy- /GL /D WIN32 /D NDEBUG /D _WINDOWS /D _MBCS /Gm- /EHsc /MD /GS /Gy /fp:precise /Zc:wchar_t /Zc:forScope /Fo"RELEASE\\" /Fd"RELEASE\VC120.PDB" /Gd /TP /analyze- E:\UNIVERSITY\YEAR 3\GRAPHICS\CWK\VERSION CONTROL\VERSION 0.5.0\VISUAL 2012 ENVIRONMENT\HUD.CPP
^E:\UNIVERSITY\YEAR 3\GRAPHICS\CWK\VERSION CONTROL\VERSION 0.5.0\VISUAL 2012 ENVIRONMENT\MAIN.CPP
/c /Zi /nologo /W3 /WX- /O2 /Oi /Oy- /GL /D WIN32 /D NDEBUG /D _WINDOWS /D _MBCS /Gm- /EHsc /MD /GS /Gy /fp:precise /Zc:wchar_t /Zc:forScope /Fo"RELEASE\\" /Fd"RELEASE\VC120.PDB" /Gd /TP /analyze- E:\UNIVERSITY\YEAR 3\GRAPHICS\CWK\VERSION CONTROL\VERSION 0.5.0\VISUAL 2012 ENVIRONMENT\MAIN.CPP
^E:\UNIVERSITY\YEAR 3\GRAPHICS\CWK\VERSION CONTROL\VERSION 0.5.0\VISUAL 2012 ENVIRONMENT\IMAGES\IMAGELOADERPNG.CPP
/c /Zi /nologo /W3 /WX- /O2 /Oi /Oy- /GL /D WIN32 /D NDEBUG /D _WINDOWS /D _MBCS /Gm- /EHsc /MD /GS /Gy /fp:precise /Zc:wchar_t /Zc:forScope /Fo"RELEASE\\" /Fd"RELEASE\VC120.PDB" /Gd /TP /analyze- E:\UNIVERSITY\YEAR 3\GRAPHICS\CWK\VERSION CONTROL\VERSION 0.5.0\VISUAL 2012 ENVIRONMENT\IMAGES\IMAGELOADERPNG.CPP
^E:\UNIVERSITY\YEAR 3\GRAPHICS\CWK\VERSION CONTROL\VERSION 0.5.0\VISUAL 2012 ENVIRONMENT\OBJ\OBJLOADER.CPP
/c /Zi /nologo /W3 /WX- /O2 /Oi /Oy- /GL /D WIN32 /D NDEBUG /D _WINDOWS /D _MBCS /Gm- /EHsc /MD /GS /Gy /fp:precise /Zc:wchar_t /Zc:forScope /Fo"RELEASE\\" /Fd"RELEASE\VC120.PDB" /Gd /TP /analyze- E:\UNIVERSITY\YEAR 3\GRAPHICS\CWK\VERSION CONTROL\VERSION 0.5.0\VISUAL 2012 ENVIRONMENT\OBJ\OBJLOADER.CPP
^E:\UNIVERSITY\YEAR 3\GRAPHICS\CWK\VERSION CONTROL\VERSION 0.5.0\VISUAL 2012 ENVIRONMENT\OCTREE\OCTREE.CPP
/c /Zi /nologo /W3 /WX- /O2 /Oi /Oy- /GL /D WIN32 /D NDEBUG /D _WINDOWS /D _MBCS /Gm- /EHsc /MD /GS /Gy /fp:precise /Zc:wchar_t /Zc:forScope /Fo"RELEASE\\" /Fd"RELEASE\VC120.PDB" /Gd /TP /analyze- E:\UNIVERSITY\YEAR 3\GRAPHICS\CWK\VERSION CONTROL\VERSION 0.5.0\VISUAL 2012 ENVIRONMENT\OCTREE\OCTREE.CPP
^E:\UNIVERSITY\YEAR 3\GRAPHICS\CWK\VERSION CONTROL\VERSION 0.5.0\VISUAL 2012 ENVIRONMENT\PLANE.CPP
/c /Zi /nologo /W3 /WX- /O2 /Oi /Oy- /GL /D WIN32 /D NDEBUG /D _WINDOWS /D _MBCS /Gm- /EHsc /MD /GS /Gy /fp:precise /Zc:wchar_t /Zc:forScope /Fo"RELEASE\\" /Fd"RELEASE\VC120.PDB" /Gd /TP /analyze- E:\UNIVERSITY\YEAR 3\GRAPHICS\CWK\VERSION CONTROL\VERSION 0.5.0\VISUAL 2012 ENVIRONMENT\PLANE.CPP
^E:\UNIVERSITY\YEAR 3\GRAPHICS\CWK\VERSION CONTROL\VERSION 0.5.0\VISUAL 2012 ENVIRONMENT\STRUCTURES\VECTOR2D.CPP
/c /Zi /nologo /W3 /WX- /O2 /Oi /Oy- /GL /D WIN32 /D NDEBUG /D _WINDOWS /D _MBCS /Gm- /EHsc /MD /GS /Gy /fp:precise /Zc:wchar_t /Zc:forScope /Fo"RELEASE\\" /Fd"RELEASE\VC120.PDB" /Gd /TP /analyze- E:\UNIVERSITY\YEAR 3\GRAPHICS\CWK\VERSION CONTROL\VERSION 0.5.0\VISUAL 2012 ENVIRONMENT\STRUCTURES\VECTOR2D.CPP
^E:\UNIVERSITY\YEAR 3\GRAPHICS\CWK\VERSION CONTROL\VERSION 0.5.0\VISUAL 2012 ENVIRONMENT\STRUCTURES\VECTOR3D.CPP
/c /Zi /nologo /W3 /WX- /O2 /Oi /Oy- /GL /D WIN32 /D NDEBUG /D _WINDOWS /D _MBCS /Gm- /EHsc /MD /GS /Gy /fp:precise /Zc:wchar_t /Zc:forScope /Fo"RELEASE\\" /Fd"RELEASE\VC120.PDB" /Gd /TP /analyze- E:\UNIVERSITY\YEAR 3\GRAPHICS\CWK\VERSION CONTROL\VERSION 0.5.0\VISUAL 2012 ENVIRONMENT\STRUCTURES\VECTOR3D.CPP
^E:\UNIVERSITY\YEAR 3\GRAPHICS\CWK\VERSION CONTROL\VERSION 0.5.0\VISUAL 2012 ENVIRONMENT\TEXTUREHANDLER\TEXTUREHANDLER.CPP
/c /Zi /nologo /W3 /WX- /O2 /Oi /Oy- /GL /D WIN32 /D NDEBUG /D _WINDOWS /D _MBCS /Gm- /EHsc /MD /GS /Gy /fp:precise /Zc:wchar_t /Zc:forScope /Fo"RELEASE\\" /Fd"RELEASE\VC120.PDB" /Gd /TP /analyze- E:\UNIVERSITY\YEAR 3\GRAPHICS\CWK\VERSION CONTROL\VERSION 0.5.0\VISUAL 2012 ENVIRONMENT\TEXTUREHANDLER\TEXTUREHANDLER.CPP
^E:\UNIVERSITY\YEAR 3\GRAPHICS\CWK\VERSION CONTROL\VERSION 0.5.0\VISUAL 2012 ENVIRONMENT\UTILITIES\INTERSECTIONTESTS.CPP
/c /Zi /nologo /W3 /WX- /O2 /Oi /Oy- /GL /D WIN32 /D NDEBUG /D _WINDOWS /D _MBCS /Gm- /EHsc /MD /GS /Gy /fp:precise /Zc:wchar_t /Zc:forScope /Fo"RELEASE\\" /Fd"RELEASE\VC120.PDB" /Gd /TP /analyze- E:\UNIVERSITY\YEAR 3\GRAPHICS\CWK\VERSION CONTROL\VERSION 0.5.0\VISUAL 2012 ENVIRONMENT\UTILITIES\INTERSECTIONTESTS.CPP
^E:\UNIVERSITY\YEAR 3\GRAPHICS\CWK\VERSION CONTROL\VERSION 0.5.0\VISUAL 2012 ENVIRONMENT\SHADERS\SHADER.CPP
/c /Zi /nologo /W3 /WX- /O2 /Oi /Oy- /GL /D WIN32 /D NDEBUG /D _WINDOWS /D _MBCS /Gm- /EHsc /MD /GS /Gy /fp:precise /Zc:wchar_t /Zc:forScope /Fo"RELEASE\\" /Fd"RELEASE\VC120.PDB" /Gd /TP /analyze- E:\UNIVERSITY\YEAR 3\GRAPHICS\CWK\VERSION CONTROL\VERSION 0.5.0\VISUAL 2012 ENVIRONMENT\SHADERS\SHADER.CPP
