^E:\UNIVERSITY\YEAR 3\GRAPHICS\CWK\VERSION CONTROL\VERSION 0.5.0\VISUAL 2012 ENVIRONMENT\RELEASE\BOUNDINGBOX.OBJ|E:\UNIVERSITY\YEAR 3\GRAPHICS\CWK\VERSION CONTROL\VERSION 0.5.0\VISUAL 2012 ENVIRONMENT\RELEASE\BOUNDINGSPHERE.OBJ|E:\UNIVERSITY\YEAR 3\GRAPHICS\CWK\VERSION CONTROL\VERSION 0.5.0\VISUAL 2012 ENVIRONMENT\RELEASE\BOX.OBJ|E:\UNIVERSITY\YEAR 3\GRAPHICS\CWK\VERSION CONTROL\VERSION 0.5.0\VISUAL 2012 ENVIRONMENT\RELEASE\CAMERA.OBJ|E:\UNIVERSITY\YEAR 3\GRAPHICS\CWK\VERSION CONTROL\VERSION 0.5.0\VISUAL 2012 ENVIRONMENT\RELEASE\COLLISIONTESTS.OBJ|E:\UNIVERSITY\YEAR 3\GRAPHICS\CWK\VERSION CONTROL\VERSION 0.5.0\VISUAL 2012 ENVIRONMENT\RELEASE\CONSOLE.OBJ|E:\UNIVERSITY\YEAR 3\GRAPHICS\CWK\VERSION CONTROL\VERSION 0.5.0\VISUAL 2012 ENVIRONMENT\RELEASE\CUBE.OBJ|E:\UNIVERSITY\YEAR 3\GRAPHICS\CWK\VERSION CONTROL\VERSION 0.5.0\VISUAL 2012 ENVIRONMENT\RELEASE\HUD.OBJ|E:\UNIVERSITY\YEAR 3\GRAPHICS\CWK\VERSION CONTROL\VERSION 0.5.0\VISUAL 2012 ENVIRONMENT\RELEASE\IMAGELOADERPNG.OBJ|E:\UNIVERSITY\YEAR 3\GRAPHICS\CWK\VERSION CONTROL\VERSION 0.5.0\VISUAL 2012 ENVIRONMENT\RELEASE\INTERSECTIONTESTS.OBJ|E:\UNIVERSITY\YEAR 3\GRAPHICS\CWK\VERSION CONTROL\VERSION 0.5.0\VISUAL 2012 ENVIRONMENT\RELEASE\MAIN.OBJ|E:\UNIVERSITY\YEAR 3\GRAPHICS\CWK\VERSION CONTROL\VERSION 0.5.0\VISUAL 2012 ENVIRONMENT\RELEASE\OBJLOADER.OBJ|E:\UNIVERSITY\YEAR 3\GRAPHICS\CWK\VERSION CONTROL\VERSION 0.5.0\VISUAL 2012 ENVIRONMENT\RELEASE\OCTREE.OBJ|E:\UNIVERSITY\YEAR 3\GRAPHICS\CWK\VERSION CONTROL\VERSION 0.5.0\VISUAL 2012 ENVIRONMENT\RELEASE\PLANE.OBJ|E:\UNIVERSITY\YEAR 3\GRAPHICS\CWK\VERSION CONTROL\VERSION 0.5.0\VISUAL 2012 ENVIRONMENT\RELEASE\SHADER.OBJ|E:\UNIVERSITY\YEAR 3\GRAPHICS\CWK\VERSION CONTROL\VERSION 0.5.0\VISUAL 2012 ENVIRONMENT\RELEASE\SPHERE.OBJ|E:\UNIVERSITY\YEAR 3\GRAPHICS\CWK\VERSION CONTROL\VERSION 0.5.0\VISUAL 2012 ENVIRONMENT\RELEASE\TEXTUREHANDLER.OBJ|E:\UNIVERSITY\YEAR 3\GRAPHICS\CWK\VERSION CONTROL\VERSION 0.5.0\VISUAL 2012 ENVIRONMENT\RELEASE\THREEDMODEL.OBJ|E:\UNIVERSITY\YEAR 3\GRAPHICS\CWK\VERSION CONTROL\VERSION 0.5.0\VISUAL 2012 ENVIRONMENT\RELEASE\VECTOR2D.OBJ|E:\UNIVERSITY\YEAR 3\GRAPHICS\CWK\VERSION CONTROL\VERSION 0.5.0\VISUAL 2012 ENVIRONMENT\RELEASE\VECTOR3D.OBJ
E:\UNIVERSITY\YEAR 3\GRAPHICS\CWK\VERSION CONTROL\VERSION 0.5.0\VISUAL 2012 ENVIRONMENT\RELEASE\OBJLOADINGWIN32.EXE
E:\UNIVERSITY\YEAR 3\GRAPHICS\CWK\VERSION CONTROL\VERSION 0.5.0\VISUAL 2012 ENVIRONMENT\RELEASE\OBJLOADINGWIN32.PDB
